Hello
Hello
.Hello
Hello
Hello
Hello
Hello
Hello
<<<<<<< HEAD
Hello
<<<<<<< HEAD
=======
>>>>>>> 2f7690d1a6484f3c089360b5572b5647a4caca9d
=======
Hello
>>>>>>> 4d32407f2eb025130d7f5c0043bc3db7f500bc68
Hello
Hello
Hello
Hello
Hello
Hello
Hello
Hello
Hello
Hello
Hello
Hello
Hello
Hello
Hello
Hello
