<?xml version="1.0" encoding="UTF-8"?>
<svg width="79px" height="39px" viewBox="0 0 79 39" version="1.1" xmlns="http://www.w3.org/2000/svg" xmlns:xlink="http://www.w3.org/1999/xlink">
    <!-- Generator: Sketch 62 (91390) - https://sketch.com -->
    <title>Icons/Graphical/airplane-2</title>
    <desc>Created with Sketch.</desc>
    <g id="Page-1" stroke="none" stroke-width="1" fill="none" fill-rule="evenodd">
        <g id="Icons/Graphical/airplane-2" transform="translate(0.000000, -20.000000)" fill="#006DAE" fill-rule="nonzero">
            <path d="M32.461995,47.0000982 L51.7491907,56.0645669 C52.1133786,56.2578578 52.5251836,56.3554058 52.9422132,56.3471692 L52.9422132,56.3471692 L54.5329097,56.3630655 L55.2446349,56.3789619 L54.7484714,55.9073693 L45.3362307,47.0159946 L49.2144827,47.0159946 L59.5856012,56.760475 C59.8480575,56.9990157 59.9975743,57.3284872 60,57.6736337 L60,57.6736337 L60,57.708959 C59.9888519,58.4237939 59.3770245,58.9982498 58.6248651,59.0000982 L58.6248651,59.0000982 L52.9422132,58.938279 C52.1689712,58.942328 51.4054053,58.7748001 50.7122647,58.4490237 L50.7122647,58.4490237 L50.6713823,58.4490237 L29,48.2753411 L29.3140511,47.0000982 L32.461995,47.0000982 Z M76.4389934,20.0000982 C77.1423637,19.9936058 77.8146003,20.3092603 78.28521,20.8671064 C78.7569885,21.3909628 79.013969,22.0936514 79,22.8200286 L79,22.8200286 L79,22.8600397 C78.9925085,23.1551441 78.9437465,23.4474294 78.8547875,23.7269466 L78.8547875,23.7269466 L74.7159769,36.6200435 C74.5374259,37.1478088 74.5374259,37.7594069 74.5374259,38.3538573 C74.5374259,39.3731875 74.5856347,40.1029135 75.3337631,40.9183776 L75.3337631,40.9183776 L75.7319317,41.3432572 C76.5282688,42.1930165 77.1639102,42.8712998 77.1014173,44.0602007 L77.1014173,44.0602007 L77.0692782,47.3906475 C77.0737002,48.1124721 76.8037788,48.8053915 76.3211498,49.3111797 L76.3211498,49.3111797 L76.2890106,49.3435696 C76.1960528,49.4256083 76.1105639,49.5168322 76.0336828,49.6160261 C75.9908533,49.6769382 75.9430531,49.7336835 75.890842,49.7855969 C75.2534152,50.4943648 74.6338434,51.1897956 73.6625264,51.3098288 L73.6625264,51.3098288 L58.9356454,53.177013 L56.3895092,50.4943648 L58.0125371,50.4943648 L73.2322186,48.5566849 L73.3286361,48.5395373 L73.391129,48.4728521 L74.3785156,47.4363744 L74.4588635,47.3506364 L74.4588635,47.2325084 L74.4963592,44.1745181 L74.4963592,44.0392425 L74.4177968,43.9535044 L74.0356978,43.5457724 L73.8928571,43.3762016 C73.2232911,42.6445703 72.6501426,42.0005823 72.2680436,40.9641045 C71.9180838,40.0457548 71.8859446,39.3160288 71.8859446,38.3309939 C71.8859446,37.4640869 71.8859446,36.6505282 72.1894812,35.6978832 L72.1894812,35.6978832 L76.1997351,23.1629808 L76.3282918,22.7552487 L75.9301232,22.7552487 L70.5968069,22.7723963 L70.5164589,22.8581344 L56.8251734,37.2697474 C55.3317227,38.8855687 53.2845412,39.7802982 51.1579668,39.7466243 L51.1579668,39.7466243 L13.196253,39.7466243 C11.8306994,39.7496937 10.4712909,39.9418267 9.15207443,40.3182113 C7.86293669,40.6916481 5.96672579,41.3889842 4.3597674,42.6617179 C3.84018087,43.0625383 3.3792538,43.5434709 2.99206725,44.08878 C2.57782909,44.7346733 2.30643167,45.4986946 3.0384905,46.6552056 C3.40467362,47.2032192 3.840323,47.6943835 4.33298476,48.1146576 L4.33298476,48.1146576 L4.34905434,48.1318052 C5.60783842,49.2197258 7.29514473,50.1037803 9.1092222,50.6296403 C9.67919358,50.8059552 10.2587944,50.9446685 10.8447373,51.0449935 L10.8447373,51.0449935 L10.9250852,51.0449935 C11.4888705,51.1405335 12.0578433,51.1971746 12.6284611,51.2145643 L12.6284611,51.2145643 L25.252012,51.1974167 L27.9427746,52.6073313 L27.6410235,53.9848559 L12.6123915,54.0000982 L12.0975681,53.9877537 C11.5830521,53.9668081 11.0696476,53.9200731 10.5590558,53.847675 L10.5590558,53.847675 L10.5429862,53.847675 C9.83750468,53.7384222 9.1404783,53.5741269 8.4575113,53.3561102 C6.2756189,52.7102169 4.3026311,51.6737392 2.75816553,50.364805 L2.75816553,50.364805 L2.74209595,50.3476574 C2.03871953,49.7400044 1.41743428,49.0315176 0.895879304,48.2423121 C-0.298626435,46.3141587 -0.298626435,44.3440889 0.895879304,42.5264423 C1.44687481,41.7318875 2.10933752,41.0326953 2.85993956,40.4534868 C4.36869494,39.2436277 6.32739867,38.279551 8.55571431,37.6336578 C10.0400861,37.2031825 11.5705763,36.9803038 13.1087631,36.9706169 L13.1087631,36.9706169 L51.1579668,36.9706169 C52.718502,36.9706169 53.9755005,36.4276092 55.0271655,35.3072988 L55.0271655,35.3072988 L68.813083,20.7966107 C69.2652644,20.2932138 69.8953508,20.0165243 70.5485981,20.0344947 L70.5485981,20.0344947 L70.5968069,20.0344947 Z" id="Combined-Shape"></path>
        </g>
    </g>
</svg>