<?xml version="1.0" encoding="UTF-8"?>
<svg width="74px" height="80px" viewBox="0 0 74 80" version="1.1" xmlns="http://www.w3.org/2000/svg" xmlns:xlink="http://www.w3.org/1999/xlink">
    <!-- Generator: Sketch 62 (91390) - https://sketch.com -->
    <title>Icons/Graphical/antenna</title>
    <desc>Created with Sketch.</desc>
    <g id="Page-1" stroke="none" stroke-width="1" fill="none" fill-rule="evenodd">
        <g id="Icons/Graphical/antenna" transform="translate(-3.000000, 0.000000)" fill="#006DAE" fill-rule="nonzero">
            <path d="M39.0820362,23.4146341 C41.2646227,23.4146341 43.1304331,24.9306089 43.5022233,27.0060454 C43.8740135,29.0814819 42.6438619,31.1139306 40.5879397,31.8210064 L40.5879397,31.8210064 L40.4052952,31.8809327 L40.4052952,39.7436175 L57.6341463,79.0217911 L55.2232396,80 L50.9767561,70.3060375 L27.2165394,70.3060375 L22.9700559,80 L20.5609756,79.0217911 L37.7587771,39.7436175 L37.7587771,31.8809327 L37.5761327,31.8210064 C35.5202105,31.1139306 34.2900589,29.0814819 34.6618491,27.0060454 C35.0336393,24.9306089 36.8994497,23.4146341 39.0820362,23.4146341 Z M45.597877,58.0669692 L32.5588896,58.0669692 L28.3270177,67.7803196 L49.8461869,67.7803196 L45.597877,58.0669692 Z M39.0884288,43.2158187 L33.6839794,55.5430139 L44.5020103,55.5430139 L39.0884288,43.2158187 Z M13.8230436,0 L15.7289279,1.75142216 L15.2753237,2.20770448 C5.61511286,12.1228077 3.00027127,26.4267661 8.5851282,38.8050569 C10.3800696,42.7744036 12.9600603,46.3873974 16.1881322,49.4522294 L16.1881322,49.4522294 L16.6585366,49.9102667 L14.8105194,51.7073171 L14.3083814,51.2352404 C10.8196923,47.9536505 8.03670013,44.0704863 6.11177187,39.7983484 C0.109533183,26.4967559 2.93526155,11.1242472 13.3377057,0.487871102 L13.3377057,0.487871102 L13.8230436,0 Z M64.3586053,0 L64.8645478,0.472124785 C68.3523886,3.75435643 71.1344897,7.63789546 73.0585763,11.9101814 L73.0585763,11.9101814 C79.0611736,25.2076333 76.2358799,40.5811525 65.8334931,51.2193963 L65.8334931,51.2193963 L65.34622,51.7073171 L63.4344667,49.9522063 L63.8881347,49.4941224 C77.0173801,36.0332838 76.6183944,15.2600456 62.9807987,2.25356217 L62.9807987,2.25356217 L62.5121951,1.79723338 L64.3586053,0 Z M22.0159382,8.7804878 L23.8564836,10.6055711 L23.4363006,11.0810437 C17.2084432,18.1776244 15.5631826,28.298048 19.2129224,37.0601351 C20.348022,39.8162695 21.9817006,42.3305513 24.0288664,44.4720214 L24.0288664,44.4720214 L24.4634146,44.9401791 L22.6857172,46.8292683 L22.2026863,46.3208784 C19.9184451,43.9464732 18.094494,41.1545505 16.8264982,38.0915449 C12.7805239,28.3754368 14.6216025,17.1525134 21.5490682,9.30350767 L21.5490682,9.30350767 L22.0159382,8.7804878 Z M56.4823132,8.7804878 L56.9646101,9.28909775 C59.2454089,11.6641319 61.0660633,14.4573904 62.3308357,17.5219925 C66.3919381,27.2314251 64.5588925,38.4635358 57.6333713,46.3060221 L57.6333713,46.3060221 L57.1654177,46.8292683 L55.3294622,44.9997361 L55.7507996,44.5240578 C61.968583,37.424021 63.6106387,27.2992569 59.9659671,18.5337238 C58.8213341,15.7812272 57.1859817,13.2694293 55.1429979,11.125948 L55.1429979,11.125948 L54.7073171,10.6667355 L56.4823132,8.7804878 Z M49.7878117,16.5853659 L50.3067271,17.0963148 C54.6678147,21.4766499 55.9060649,27.7830341 53.4877363,33.2971337 C52.8200633,34.8350981 51.8807404,36.2602701 50.7079702,37.5146876 L50.7079702,37.5146876 L50.2218488,38.0487805 L48.246498,36.2684707 L48.6824641,35.8055902 C49.6180813,34.7678148 50.3801387,33.6066541 50.9433148,32.3606908 L50.9433148,32.3606908 L51.1030454,31.9739778 C51.6637749,30.5484974 51.9496297,29.0422306 51.9464226,27.5235891 C51.9538187,24.321502 50.6644872,21.2324219 48.3313763,18.8623821 L48.3313763,18.8623821 L47.8780488,18.413744 L49.7878117,16.5853659 Z M28.9722883,16.5853659 L30.957321,18.3542405 L30.5192181,18.81739 C26.0046241,23.7511688 26.1411325,30.9887323 30.8390719,35.7757855 L30.8390719,35.7757855 L31.2926829,36.2246842 L29.3754981,38.0487805 L28.8869939,37.5553482 C23.1463328,31.8180022 22.9732263,23.044573 28.4837842,17.1197691 L28.4837842,17.1197691 L28.9722883,16.5853659 Z M39.0884288,25.9464651 L39.0537263,25.9517527 C38.0336047,25.9701655 37.2202428,26.779876 37.232904,27.7644007 C37.2455653,28.7489253 38.0794996,29.5389077 39.0997805,29.5329188 C40.1200614,29.5268614 40.943918,28.7270924 40.9440964,27.742492 L40.9440964,27.742492 L40.9440964,27.7090037 C40.9407206,27.237658 40.7431948,26.7869665 40.3950801,26.4563224 C40.0469655,26.1256783 39.5768565,25.9422411 39.0884288,25.9464651 L39.0884288,25.9464651 Z" id="Combined-Shape"></path>
        </g>
    </g>
</svg>