<?xml version="1.0" encoding="UTF-8"?>
<svg width="80px" height="78px" viewBox="0 0 80 78" version="1.1" xmlns="http://www.w3.org/2000/svg" xmlns:xlink="http://www.w3.org/1999/xlink">
    <!-- Generator: Sketch 62 (91390) - https://sketch.com -->
    <title>Icons/Graphical/arrow-spread</title>
    <desc>Created with Sketch.</desc>
    <g id="Page-1" stroke="none" stroke-width="1" fill="none" fill-rule="evenodd">
        <g id="Icons/Graphical/arrow-spread" transform="translate(0.000000, -1.000000)" fill="#006DAE" fill-rule="nonzero">
            <path d="M40.9219896,47 L40.9219896,73.6916157 L51.9934038,62.7888929 L54,64.7617848 L39.499024,79 L25,64.7617848 L27.0065962,62.7888929 L38.0780104,73.6916157 L38.0780104,47 L40.9219896,47 Z M13.793271,26 L15.70451,27.8682103 L5.1424973,38.1760786 L31,38.1760786 L31,40.8093828 L5.1424973,40.8093828 L15.70451,51.1317897 L13.793271,53 L0,39.4990913 L13.793271,26 Z M66.206729,26 L80,39.4990913 L66.206729,53 L64.29549,51.1317897 L74.8575027,40.8093828 L49,40.8093828 L49,38.1760786 L74.8575027,38.1760786 L64.29549,27.8682103 L66.206729,26 Z M39.499024,1 L54,15.2459046 L51.9934038,17.219862 L40.9219896,6.31125113 L40.9219896,33 L38.0780104,33 L38.0780104,6.31125113 L27.0065962,17.219862 L25,15.2459046 L39.499024,1 Z" id="Combined-Shape"></path>
        </g>
    </g>
</svg>