<?xml version="1.0" encoding="UTF-8"?>
<svg width="80px" height="78px" viewBox="0 0 80 78" version="1.1" xmlns="http://www.w3.org/2000/svg" xmlns:xlink="http://www.w3.org/1999/xlink">
    <!-- Generator: Sketch 62 (91390) - https://sketch.com -->
    <title>Icons/Graphical/arrow-cross</title>
    <desc>Created with Sketch.</desc>
    <g id="Page-1" stroke="none" stroke-width="1" fill="none" fill-rule="evenodd">
        <g id="Icons/Graphical/arrow-cross" transform="translate(0.000000, -1.000000)" fill="#006DAE" fill-rule="nonzero">
            <polygon id="Path" points="66.8274633 27.1425243 65.0038829 28.9205153 75.0883925 38.7386597 41.2936823 38.7386597 41.2936823 5.78703577 51.3635741 15.6212142 53.1871545 13.8432232 40 1 26.8128455 13.8432232 28.6364259 15.6212142 38.7063177 5.78703577 38.7063177 38.7386597 4.90978027 38.7386597 14.9961171 28.9205153 13.1725367 27.1425243 0 40 13.1725367 52.8574757 14.9961171 51.0794847 4.90978027 41.2453063 38.7063177 41.2453063 38.7063177 74.2111827 28.6364259 64.3787858 26.8128455 66.1567768 40 79 53.1871545 66.1567768 51.3635741 64.3787858 41.2936823 74.2111827 41.2936823 41.2453063 75.0883925 41.2453063 65.0038829 51.0794847 66.8274633 52.8574757 80 40"></polygon>
        </g>
    </g>
</svg>