<?xml version="1.0" encoding="UTF-8"?>
<svg width="76px" height="70px" viewBox="0 0 76 70" version="1.1" xmlns="http://www.w3.org/2000/svg" xmlns:xlink="http://www.w3.org/1999/xlink">
    <!-- Generator: Sketch 62 (91390) - https://sketch.com -->
    <title>Icons/Graphical/australia-solid</title>
    <desc>Created with Sketch.</desc>
    <g id="Page-1" stroke="none" stroke-width="1" fill="none" fill-rule="evenodd">
        <g id="Icons/Graphical/australia-solid" transform="translate(-2.000000, -5.000000)" fill="#006DAE" fill-rule="nonzero">
            <path d="M61.1092674,64.5184609 L59.9099027,62.3684392 L58.9684945,63.2628078 L52.780198,62.1612691 L50.9612059,60.1982059 L50.9612059,58.6949592 L48.7858614,56.4337731 L47.8019037,51.972036 L46.4376596,53.2504273 L43.8394792,56.1230179 L41.3317166,50.7719652 L37.1033576,48.4349851 L33.3536808,48.695211 L25.3304361,51.4566372 L21.5435284,53.8087761 L17.1768835,54.5566097 L13.8553612,57.2978241 L9.57381535,56.5449376 L8.03937312,55.0012675 L9.43552939,50.9513442 L5.26035731,43.4250052 L5.24971993,43.3997405 L2.92545216,37.6015035 L2,32.4753062 L9.73337606,27.1975209 L15.3898035,25.24709 L17.7114119,21.0910552 L18.0039399,18.8930307 L23.1391356,14.0144269 L27.0802853,11.086254 L29.9789716,13.7668333 L31.7873264,13.7188305 L31.6676559,12.3014837 L35.5183879,7.89785528 L38.1192275,5.49266066 L44.5468651,7.4784621 L48.4933335,8.04944317 L45.2861631,14.1028532 L51.9584604,18.4812169 L53.6232105,19.8758255 L55.0911691,19.7217112 L56.4607319,16.993129 L57.1760958,13.3297549 L57.6574373,11.4349062 L57.2824696,9.36573141 L60.0588261,5 L61.4416856,9.90892137 L62.1756649,13.1478494 L63.0133587,12.7284562 L65.1062634,14.8001575 L66.3322216,22.1319587 L70.8398118,26.5532723 L72.2625615,30.2115936 L74.0230481,31.5405141 L74.3288728,33.132187 L77.9615385,38.6525129 L77.9615385,44.5619144 L74.9325442,51.7193896 L71.9088686,54.7284093 L69.1112374,62.2143249 L64.710021,63.0809024 L61.1092674,64.5184609 Z M61.5108286,74.6470588 L58.9073296,71.5091894 L58.4499222,67.0828228 L62.1703462,68.6896545 L65.4865498,66.9388143 L64.4440864,71.6178274 L61.5108286,74.6470588 Z" id="Shape"></path>
        </g>
    </g>
</svg>