<?xml version="1.0" encoding="UTF-8"?>
<svg width="80px" height="62px" viewBox="0 0 80 62" version="1.1" xmlns="http://www.w3.org/2000/svg" xmlns:xlink="http://www.w3.org/1999/xlink">
    <!-- Generator: Sketch 62 (91390) - https://sketch.com -->
    <title>Icons/Graphical/blackboard</title>
    <desc>Created with Sketch.</desc>
    <g id="Page-1" stroke="none" stroke-width="1" fill="none" fill-rule="evenodd">
        <g id="Icons/Graphical/blackboard" transform="translate(0.000000, -9.000000)" fill="#006DAE" fill-rule="nonzero">
            <path d="M80,9 L80,70.686747 L0,70.686747 L0,9 L80,9 Z M65.2736856,63.0863741 L45.7935757,63.0863741 L45.7935757,66.9431215 L65.2736856,66.9431215 L65.2736856,63.0863741 Z M77.7077984,11.2535989 L2.27958733,11.2535989 L2.27958733,66.9307488 L43.5157904,66.9307488 L43.5157904,60.8380778 L67.5640852,60.8380778 L67.5640852,66.9307488 L77.7077984,66.9307488 L77.7077984,11.2535989 Z M12.7514462,29.2417115 C12.8113532,29.2391012 12.871361,29.2433311 12.9303227,29.2543202 C13.2985031,29.3035954 13.6141336,29.5435077 13.7620982,29.8865571 L13.7620982,29.8865571 L13.7728308,29.8991658 C14.9766694,32.4713433 16.9836634,35.5568755 19.1480686,38.1290529 C21.2409232,40.6634043 23.4285824,42.6591834 25.4963943,43.9326634 C25.7649783,44.0877057 25.9487093,44.3575991 25.9954597,44.66577 C26.0628913,44.9638878 26.0101411,45.2767669 25.848781,45.5357712 C25.6953015,45.7905793 25.4453279,45.9713997 25.156529,46.0365173 C25.0650138,46.0616943 24.9705622,46.0744161 24.875693,46.0743434 C24.6790389,46.0703084 24.4867709,46.0150801 24.3175984,45.9140326 C22.530949,44.7595497 20.8858348,43.3967912 19.4163833,41.854027 L19.4163833,41.854027 L19.1731113,41.6090577 L12.0341516,46.4958347 L12.0341516,46.7155865 C12.0514592,48.1579294 12.1939097,49.5959901 12.4598776,51.0133564 C12.5134563,51.3117062 12.4492768,51.6193324 12.2810011,51.8707489 C12.1100258,52.120824 11.8475912,52.292467 11.5511851,52.3480787 L11.5511851,52.3480787 L11.5386638,52.3480787 C11.4711536,52.3636747 11.4022101,52.3721264 11.3329558,52.3733984 C11.1168426,52.3762895 10.9048668,52.3135087 10.7247759,52.1931717 C10.4773342,52.0145118 10.30761,51.7468629 10.2507532,51.4456551 C9.94906784,49.8596113 9.79041439,48.2493474 9.7767306,46.6345305 L9.7767306,46.6345305 L9.7767306,46.5444683 L9.73916654,46.4706172 C9.60501678,46.1711282 9.60501678,45.8280552 9.73916654,45.5285662 L9.73916654,45.5285662 L9.7767306,45.4547152 L9.7767306,45.3682555 C9.81250589,41.1083117 10.5298005,36.760107 11.1630232,32.9144495 L11.1630232,32.9144495 L11.1862771,32.7685487 C11.256039,32.4245109 11.316857,32.0822744 11.3651536,31.7634541 C11.476057,31.1510309 11.5726503,30.5692289 11.620947,30.2089799 L11.620947,30.2089799 L11.620947,30.1963712 C11.7174197,29.6438491 12.1943361,29.2409639 12.7514462,29.2417115 Z M30.7249503,22.4939759 C31.1370762,22.4959426 31.5482021,22.5357841 31.9533996,22.6130226 C33.4155956,22.8861297 34.4478342,23.6721881 35.0040488,24.969447 C35.0959133,25.1766458 35.1701248,25.3916157 35.2258521,25.6119491 L35.2258521,25.6119491 L35.2258521,25.6452121 C35.7223504,27.4869346 35.6660464,28.8909854 35.0398785,30.0219291 L35.0398785,30.0219291 L34.7617713,30.5208748 L35.3179858,30.6171626 C37.4063496,30.9620479 38.6706287,32.2120383 39.318977,34.5684627 L39.318977,34.5684627 L39.3309202,34.6034764 C39.36675,34.7470327 39.414523,34.913348 39.4418219,35.0341454 C39.7318724,36.7708267 39.1944259,38.3657023 37.8294822,39.7942628 C36.5310795,41.1632998 34.4546589,42.2942435 31.8339671,43.0557923 C31.0098823,43.2938857 30.0936639,43.5109708 29.1194353,43.6860395 C29.0579682,43.6962127 28.9956922,43.7003164 28.9334618,43.6982943 L28.9334618,43.6982943 L28.8098709,43.6917287 C28.3626333,43.6416062 27.9865466,43.3096985 27.8773366,42.8527126 L27.8773366,42.8527126 L25.3180672,33.521552 L23.1716933,25.7257437 C23.0293017,25.1969476 23.2854141,24.6408382 23.7739747,24.4179807 L23.7739747,24.4179807 L24.1578651,24.242912 L24.1339786,24.2078983 L24.6458324,24.0170734 C25.5978806,23.6599333 27.140267,23.113719 27.4303175,23.0419409 L27.4303175,23.0419409 L27.454204,23.0296861 C28.5153777,22.6981722 29.6159284,22.5179149 30.7249503,22.4939759 Z M13.3453161,33.8709104 L13.1664396,34.9354461 C12.7514462,37.4589899 12.3471854,40.1644595 12.1683089,42.8465129 L12.1683089,42.8465129 L12.1074909,43.6912966 L17.6651827,39.8798628 L17.3825579,39.5232164 C16.1265832,38.0161649 14.9686288,36.4289637 13.915932,34.7715328 L13.915932,34.7715328 L13.3453161,33.8709104 Z M33.8216663,32.8667951 L33.6715225,32.8667951 C32.1854401,32.8667951 30.3530032,33.2817079 28.0564854,33.9259606 L28.0564854,33.9259606 L27.6743012,34.0327525 L29.6927117,41.352374 L30.0510094,41.268341 C30.4468431,41.173804 30.8529138,41.0775162 31.2368042,40.9829791 C33.5401467,40.3159674 35.2139089,39.4231172 36.270034,38.3166831 C37.3261592,37.2102491 37.4080558,36.1720918 37.3022727,35.4718171 C37.2919641,35.4076096 37.2765572,35.3443742 37.2562058,35.2827429 L37.2562058,35.2827429 L37.2340255,35.1742003 C36.8262486,33.6633576 35.6984639,32.9018089 33.8216663,32.8667951 L33.8216663,32.8667951 Z M54.2544924,17.6746988 C54.4360483,17.6746988 54.6176041,17.6746988 54.7991599,17.6878765 L54.7991599,17.6878765 L54.8622267,17.6878765 C55.3055464,17.6705094 55.7229487,17.8935807 55.9498551,18.2691352 C56.1767615,18.6446896 56.1767615,19.112464 55.9498551,19.4880185 C55.7229487,19.8635729 55.3055464,20.0866442 54.8622267,20.0692771 L54.8622267,20.0692771 L54.8106266,20.0692771 L54.7456487,20.0560994 L54.6940486,20.0560994 C54.5507151,20.0429217 54.4207593,20.0429217 54.2908036,20.0429217 C51.964978,20.0429217 49.8226193,20.810994 48.2497726,22.2191265 C46.2354585,24.0112952 45.0543901,26.8652108 44.8460787,30.4871988 L44.8460787,30.4871988 L44.8460787,30.5116717 C44.8370579,30.5740271 44.8325872,30.6369394 44.8327009,30.6999247 C44.7657472,32.0628886 45.158877,33.4093269 45.9507025,34.528991 C46.8066908,35.7169128 48.1747043,36.4453009 49.6525302,36.5 C49.7691081,36.5131777 49.8856861,36.5131777 50.0041751,36.5131777 C52.0051114,36.5131777 54.330937,35.590738 56.9032963,33.7740964 C57.1075303,33.6296174 57.3532444,33.5531146 57.6046751,33.5557229 C57.9788261,33.5540782 58.3322818,33.7246811 58.5602321,34.0169428 C58.7519717,34.2747701 58.8311039,34.5974096 58.7800102,34.9130271 C58.7315931,35.2291103 58.5532783,35.5116447 58.2869428,35.6942771 C55.3514718,37.7801205 52.4790676,38.8795181 49.9716862,38.8795181 C49.8283526,38.8795181 49.6735524,38.8795181 49.5302189,38.8682229 C48.3935721,38.8171831 47.2831652,38.5147799 46.2813253,37.9834337 C45.3775041,37.4702048 44.5955701,36.7724966 43.9879886,35.9371235 C42.899351,34.3830059 42.3478381,32.5248179 42.4151418,30.6378012 L42.4151418,30.6378012 L42.4151418,30.6246235 L42.4285196,30.4457831 C42.6502088,26.1460843 44.0969221,22.689759 46.6100368,20.4533133 C48.6415509,18.6611446 51.3572438,17.6746988 54.2544924,17.6746988 Z M30.7181256,24.7243479 C29.8046839,24.7523278 28.8993267,24.9090223 28.0274804,25.1900336 C27.2789897,25.4042102 26.5430019,25.661979 25.8230964,25.9620864 L25.8230964,25.9620864 L25.4972161,26.0933879 L27.0993187,31.9021667 L27.4695597,31.7953748 C29.7200106,31.1283632 31.320407,30.5681434 32.3065788,29.8311042 C33.3575855,29.0695555 33.6237495,27.926357 33.1596686,26.2491991 L33.1596686,26.2491991 L33.1374883,26.1651661 C33.1106837,26.0711695 33.0758566,25.9797801 33.0334113,25.892059 L33.0334113,25.892059 L33.0214681,25.8798042 C32.7655411,25.2968255 32.2792799,24.9274305 31.5712154,24.796129 C31.2892747,24.7480474 31.0039337,24.7240391 30.7181256,24.7243479 Z" id="Combined-Shape"></path>
        </g>
    </g>
</svg>