<?xml version="1.0" encoding="UTF-8"?>
<svg width="66px" height="79px" viewBox="0 0 66 79" version="1.1" xmlns="http://www.w3.org/2000/svg" xmlns:xlink="http://www.w3.org/1999/xlink">
    <!-- Generator: Sketch 62 (91390) - https://sketch.com -->
    <title>Icons/Graphical/books</title>
    <desc>Created with Sketch.</desc>
    <g id="Page-1" stroke="none" stroke-width="1" fill="none" fill-rule="evenodd">
        <g id="Icons/Graphical/books" transform="translate(-7.000000, -1.000000)" fill="#006DAE" fill-rule="nonzero">
            <path d="M70.1850345,15 C71.2059748,15.0040507 72.1353646,15.633816 72.5792759,16.6223657 L72.5792759,16.6223657 L73,17.5743474 L31.0086897,17.5743474 C28.5024911,17.625995 26.4959248,19.8252521 26.4959248,22.5204735 C26.4959248,25.2156949 28.5024911,27.4149519 31.0086897,27.4665996 L31.0086897,27.4665996 L70.1901034,27.4665996 C70.8957462,27.4690043 71.5715736,27.7728393 72.0687948,28.311212 C72.5660161,28.8495847 72.8438658,29.5783559 72.8411724,30.3370787 L72.8411724,30.3370787 L72.8411724,77.1458718 C72.8402397,78.7224571 71.6513194,80 70.1850345,80 L70.1850345,80 L33.9115172,80 C28.4408979,79.9929945 24.007448,75.2268525 24,69.344709 L24,69.344709 L24,22.5359159 C24.0037258,18.375605 27.1394416,15.0040061 31.0086897,15 L31.0086897,15 Z M26.4094483,28.2151043 L26.4094483,69.3392588 C26.4141041,73.7921385 29.770169,77.4006622 33.9115172,77.4056683 L33.9115172,77.4056683 L70.446931,77.4056683 L70.446931,30.055481 L31.0238966,30.055481 C29.5049976,30.057871 28.0269899,29.5264396 26.8149655,28.5421209 L26.8149655,28.5421209 L26.4094483,28.2151043 Z M53.1850345,1 C54.2059748,1.00398434 55.1353646,1.623434 55.5792759,2.59579121 L55.5792759,2.59579121 L56,3.53217934 L14.0086897,3.53217934 C11.4685988,3.53217934 9.40944828,5.70996242 9.40944828,8.39639399 C9.40944828,11.0828256 11.4685988,13.2606086 14.0086897,13.2606086 L14.0086897,13.2606086 L24.6721034,13.2606086 L22.9165517,14.4739818 C22.4184076,14.8205627 21.9461683,15.2070958 21.504,15.630171 L21.504,15.630171 L21.3350345,15.808871 L14.0222069,15.808871 C12.5038659,15.810963 11.0264703,15.2882432 9.81496552,14.3202998 L9.81496552,14.3202998 L9.40944828,13.9986397 L9.40944828,57.5335396 C9.41503061,61.9123768 12.7695246,65.4609304 16.9098276,65.4678207 L16.9098276,65.4678207 L18.1145517,65.4678207 L18.1145517,68 L16.9098276,68 C11.4395948,67.9911411 7.00744369,63.302844 7,57.5174566 L7,57.5174566 L7,8.412477 C7.00186462,4.31949612 10.1386699,1.00197205 14.0086897,1 L14.0086897,1 Z M73,23.0001787 L73,25 L30.2092616,25 C29.8858047,24.9977637 29.5766845,24.8906372 29.3499097,24.7021891 C29.123135,24.5137411 28.9972839,24.2594097 29,23.9951498 L29,23.9951498 L29,23.9655123 C29.0151496,23.4215277 29.5658227,22.9899336 30.2317185,23.0001787 L30.2317185,23.0001787 L73,23.0001787 Z M58,8.00017931 L58,10 L15.2093246,10 C14.885553,9.99776508 14.5761569,9.89044447 14.3493237,9.70169042 C14.1224904,9.51293637 13.9968386,9.25824189 14,8.99373878 L14,8.99373878 L14,8.96410135 C14.0161014,8.42067257 14.5665191,7.98992614 15.2317824,8.00017931 L15.2317824,8.00017931 L58,8.00017931 Z" id="Combined-Shape"></path>
        </g>
    </g>
</svg>