<?xml version="1.0" encoding="UTF-8"?>
<svg width="80px" height="80px" viewBox="0 0 80 80" version="1.1" xmlns="http://www.w3.org/2000/svg" xmlns:xlink="http://www.w3.org/1999/xlink">
    <!-- Generator: Sketch 62 (91390) - https://sketch.com -->
    <title>Icons/Graphical/chart-line</title>
    <desc>Created with Sketch.</desc>
    <g id="Page-1" stroke="none" stroke-width="1" fill="none" fill-rule="evenodd">
        <g id="Icons/Graphical/chart-line" fill="#006DAE" fill-rule="nonzero">
            <path d="M2.75131957,0 L2.75131957,77.2299444 L79.0123457,77.2299444 L79.0123457,80 L0,80 L0,0 L2.75131957,0 Z M79.0123457,33.5802469 L79.0123457,37.2979996 L68.3443094,47.3350486 L59.4773242,38.4830884 L50.2132568,56.9429225 L40.9651436,47.7130054 L31.7010762,66.1728395 L22.0736078,56.5808611 L12.8591757,65.7772212 L6.91358025,60.2827183 L6.91358025,56.614418 L12.7599052,62.0100162 L22.0736078,52.7483084 L30.9742742,61.5985025 L40.2223873,43.1386685 L49.4864547,52.3685855 L58.7505221,33.9087514 L68.4098989,43.5342868 L79.0123457,33.5802469 Z M77.6739663,1.97530864 L79.0123457,2.28944128 L79.0123457,5.398822 L67.8000942,27.817599 L59.1795126,12.2937673 L50.2132568,30.2312735 L40.9651436,20.9563742 L31.7010762,39.5061728 L22.0736078,29.8674476 L12.4461394,39.5061728 L6.91358025,28.5115304 L6.91358025,25.4198973 L8.25195967,25.1057646 L13.1729415,34.9095427 L22.0736078,26.0144421 L30.9742742,34.9095427 L40.2223873,16.359744 L49.4864547,25.6346433 L59.0642879,6.47255222 L67.6671426,22.0141315 L77.6739663,1.97530864 Z" id="Combined-Shape"></path>
        </g>
    </g>
</svg>