<?xml version="1.0" encoding="UTF-8"?>
<svg width="80px" height="80px" viewBox="0 0 80 80" version="1.1" xmlns="http://www.w3.org/2000/svg" xmlns:xlink="http://www.w3.org/1999/xlink">
    <!-- Generator: Sketch 62 (91390) - https://sketch.com -->
    <title>Icons/Graphical/client-network</title>
    <desc>Created with Sketch.</desc>
    <g id="Page-1" stroke="none" stroke-width="1" fill="none" fill-rule="evenodd">
        <g id="Icons/Graphical/client-network" fill="#006DAE" fill-rule="nonzero">
            <path d="M79.0243902,40 L79.0243902,70.6443871 L59.7506584,70.6443871 L59.7506584,77.4278857 L68.6389463,77.4278857 L68.6389463,80 L48.4187366,80 L48.4187366,77.4278857 L57.3070245,77.4278857 L57.3070245,70.6443871 L38.0487805,70.6443871 L38.0487805,40 L79.0243902,40 Z M14.3490356,44.8780488 L14.3490356,70.6530004 C14.3541256,73.3343986 16.6278939,75.5093639 19.4403139,75.5230451 L19.4403139,75.5230451 L44.8780488,75.5230451 L44.8780488,78.0487805 L19.4645669,78.0487805 C15.1812092,78.0468176 11.7093759,74.7367636 11.7073171,70.6530004 L11.7073171,70.6530004 L11.7073171,44.8780488 L14.3490356,44.8780488 Z M76.5807564,42.5684916 L40.5079022,42.5684916 L40.5079022,68.0668387 L76.5807564,68.0668387 L76.5807564,42.5684916 Z M40.9756098,0 L40.9756098,30.6431159 L21.7119082,30.6431159 L21.7119082,37.4275362 L30.6043042,37.4275362 L30.6043042,40 L10.3747489,40 L10.3747489,37.4275362 L19.2671449,37.4275362 L19.2671449,30.6431159 L0,30.6431159 L0,0 L40.9756098,0 Z M38.5480631,2.57246377 L2.45509326,2.57246377 L2.46025825,28.0797101 L38.5480631,28.0797101 L38.5480631,2.57246377 Z" id="Combined-Shape"></path>
        </g>
    </g>
</svg>