<?xml version="1.0" encoding="UTF-8"?>
<svg width="80px" height="80px" viewBox="0 0 80 80" version="1.1" xmlns="http://www.w3.org/2000/svg" xmlns:xlink="http://www.w3.org/1999/xlink">
    <!-- Generator: Sketch 62 (91390) - https://sketch.com -->
    <title>Icons/Graphical/clock</title>
    <desc>Created with Sketch.</desc>
    <g id="Page-1" stroke="none" stroke-width="1" fill="none" fill-rule="evenodd">
        <g id="Icons/Graphical/clock" fill="#006DAE" fill-rule="nonzero">
            <path d="M24.4661501,3.15090056 C44.8215652,-5.42809518 68.296943,4.11412463 76.8858473,24.4588574 C78.9716252,29.3802551 80.0308128,34.6752518 79.9993177,40.0198774 L79.9993177,40.0198774 L79.9993177,40.0828921 C79.9895978,62.1452244 62.0732298,80.0161818 39.9993133,79.999989 L39.9993133,79.999989 L39.9380669,79.999989 C17.8641505,79.9891755 -0.0161902601,62.0840102 1.10011979e-05,40.0198774 C-0.00750442999,23.9301553 9.63289115,9.40266159 24.4661501,3.15090056 Z M40.1200047,2.85919993 C19.5087959,2.83222642 2.78493102,19.500504 2.7560719,40.1008963 C2.72728736,60.7012885 19.4079195,77.416377 40.0155256,77.4452185 C60.6217818,77.473045 77.349596,60.8007602 77.3794584,40.2053205 C77.408243,19.6031278 60.7312135,2.88623899 40.1200047,2.85919993 Z M18.8037563,17.2409639 L39.9683088,39.3838751 L40.1225066,39.3351187 C40.356211,39.2686038 40.5975089,39.2357962 40.8397059,39.2376059 C41.0818341,39.2369521 41.3229849,39.2697397 41.5569053,39.3351187 L41.5569053,39.3351187 L41.7111031,39.3838751 L55.1944507,25.304524 L57,27.1910221 L43.5381685,41.2553712 L43.5847864,41.4166424 C43.6484305,41.6610197 43.6792074,41.9134798 43.6762293,42.166741 C43.7020688,43.2386595 43.1700583,44.2409237 42.2865215,44.7848365 C41.4029847,45.3287493 40.3069082,45.3287493 39.4233714,44.7848365 C38.5398346,44.2409237 38.007824,43.2386595 38.0336635,42.166741 C38.0324326,41.9135878 38.0631794,41.6613736 38.1251065,41.4166424 L38.1251065,41.4166424 L38.1717244,41.2553712 L17,19.1274619 L18.8037563,17.2409639 Z" id="Combined-Shape"></path>
        </g>
    </g>
</svg>