<?xml version="1.0" encoding="UTF-8"?>
<svg width="80px" height="72px" viewBox="0 0 80 72" version="1.1" xmlns="http://www.w3.org/2000/svg" xmlns:xlink="http://www.w3.org/1999/xlink">
    <!-- Generator: Sketch 62 (91390) - https://sketch.com -->
    <title>Icons/Graphical/diamond</title>
    <desc>Created with Sketch.</desc>
    <g id="Page-1" stroke="none" stroke-width="1" fill="none" fill-rule="evenodd">
        <g id="Icons/Graphical/diamond" transform="translate(0.000000, -4.000000)" fill="#006DAE" fill-rule="nonzero">
            <path d="M62.1201794,4 L17.8798206,4 L0,25.4563046 L40,75.2195122 L80,25.4563046 L62.1201794,4 Z M26.5470852,24.2694536 L34.6852018,6.388918 L45.4834081,6.388918 L53.632287,24.2694536 L26.5470852,24.2694536 Z M23.7165919,26.6549902 L37.4493274,68.0933343 L4.1470852,26.6549902 L23.7165919,26.6549902 Z M56.5130045,26.6549902 L75.8529148,26.6549902 L42.9345291,67.6182558 L56.5130045,26.6549902 Z M56.3748879,24.2660722 L48.2331839,6.388918 L60.8914798,6.388918 L75.7901345,24.2694536 L56.3748879,24.2660722 Z M19.1085202,6.388918 L31.9515695,6.388918 L23.8098655,24.2694536 L4.20807175,24.2694536 L19.1085202,6.388918 Z M53.870852,26.6549902 L40.1076233,68.1389824 L26.367713,26.6549902 L53.870852,26.6549902 Z" id="Shape"></path>
        </g>
    </g>
</svg>