<?xml version="1.0" encoding="UTF-8"?>
<svg width="63px" height="79px" viewBox="0 0 63 79" version="1.1" xmlns="http://www.w3.org/2000/svg" xmlns:xlink="http://www.w3.org/1999/xlink">
    <!-- Generator: Sketch 62 (91390) - https://sketch.com -->
    <title>Icons/Graphical/document-epub</title>
    <desc>Created with Sketch.</desc>
    <g id="Page-1" stroke="none" stroke-width="1" fill="none" fill-rule="evenodd">
        <g id="Icons/Graphical/document-epub" transform="translate(-9.000000, -1.000000)" fill="#006DAE" fill-rule="nonzero">
            <path d="M50.8517513,1.00004532 C52.0339294,0.995204924 53.182559,1.37819369 54.1083234,2.08593373 L54.1083234,2.08593373 L54.1563227,2.03972768 L54.6012399,2.53022269 C54.6640083,2.59064599 54.7286228,2.66706369 54.8080064,2.74348139 C54.9667735,2.91231119 55.1901551,3.1255699 55.474459,3.40102905 L55.474459,3.40102905 L57.8116587,5.65446265 C59.68548,7.46893876 62.1002171,9.77924135 64.3248029,11.9118284 L64.3248029,11.9118284 L64.4374168,12.0184577 C67.2176875,14.6841915 69.8539602,17.2130842 70.4576445,17.8102086 C71.4602232,18.7547577 72.017283,20.0533111 71.9995911,21.4036177 L71.9995911,21.4036177 L71.9995911,80 L9,80 L9,1.00004532 Z M50.8351361,3.54675583 L11.6381188,3.54675583 L11.6381188,77.4764387 L69.3776588,77.4764387 L69.3776588,21.3894004 C69.3756278,19.9795132 68.1893758,18.8367863 66.724771,18.8338504 L66.724771,18.8338504 L53.4917162,18.8338504 L53.4917162,6.09342015 C53.4846074,4.68561942 52.2975921,3.54771685 50.8351361,3.54675583 L50.8351361,3.54675583 Z M25.9522059,33 L25.9522059,35.7805789 L19.0220588,35.7805789 L19.0220588,38.4323063 L25.4779412,38.4323063 L25.4779412,41.2128852 L19.0220588,41.2128852 L19.0220588,44.2194211 L26,44.2194211 L26,33 L32.9411152,33 C34.5752996,33 35.8301199,33.4019765 36.6909849,34.1909722 C37.5518499,34.9799679 38,36.056891 38,37.4254808 C38,38.7940705 37.5706097,39.8878205 36.6909849,40.6768162 C35.8308147,41.4483618 34.6107348,41.8341346 33.0307452,41.8341346 L33.0307452,41.8341346 L29.3892652,41.8341346 L29.3892652,47 L16,47 L16,33 L25.9522059,33 Z M41.1855821,33 L41.1855821,41.5825928 C41.1855821,42.512023 41.4369216,43.1889702 41.9064783,43.6299007 C42.3760351,44.0708312 43.1300536,44.2903816 44.1198246,44.2903816 C45.0433512,44.2903816 45.7291768,44.0708312 46.1500244,43.6445374 C46.6020458,43.2036069 46.820263,42.512023 46.820263,41.5825928 L46.820263,41.5825928 L46.820263,33 L50,33 L50,41.5825928 C50,43.3298484 49.4700438,44.7166754 48.4296152,45.6296393 C47.3891866,46.5426032 45.9493424,47 44.1042377,47 C42.259133,47 40.7666829,46.5590695 39.6755967,45.7083116 C38.5689235,44.8264506 38,43.4396236 38,41.5825928 L38,41.5825928 L38,33 L41.1855821,33 Z M55.6337667,33 C55.9066553,33 56.2289803,33.0168204 56.5691024,33.0168204 C56.9158096,33.0161808 57.262322,33.0323997 57.6072658,33.0654128 C57.9277164,33.0878065 58.2461708,33.1308927 58.5603987,33.1943696 L58.5603987,33.1943696 L58.5959929,33.1943696 C58.9199675,33.2560122 59.2303283,33.3698037 59.5135316,33.5307784 C60.048675,33.8450269 60.5027012,34.2683907 60.8423807,34.7698844 C61.2439258,35.3640659 61.4452668,36.059414 61.4197973,36.7640414 C61.443553,37.5157228 61.2241845,38.2563744 60.7909669,38.8871552 C60.6437138,39.1071268 60.4661642,39.3076144 60.2629866,39.4833465 C60.6165574,39.6987123 60.9277167,39.9706609 61.1825028,40.2869899 C61.7298618,40.9772055 62.0173305,41.8205733 61.9991913,42.6829686 C62.0027033,43.2207852 61.9049439,43.7549029 61.710483,44.2603524 C61.4986015,44.7842323 61.1740551,45.2608829 60.7573502,45.6601871 C60.326032,46.0744603 59.8108895,46.4024324 59.2426203,46.6245592 C58.598772,46.8886568 57.9015258,47.0162432 57.1999103,46.9983468 L57.1999103,46.9983468 L50,46.9983468 L50.0336167,46.9946089 L50.0336167,33 Z M56.5532828,41.2233279 L53.2173178,41.2233279 L53.2173178,44.2323183 L56.2329352,44.2323183 L56.2329352,44.2154979 L56.9645933,44.2154979 C57.577604,44.2154979 58.0027566,44.0865411 58.309262,43.8136762 C58.6157674,43.5408112 58.7522117,43.1707614 58.7522117,42.6549345 C58.7616383,42.4161649 58.7093768,42.1788195 58.5999478,41.9634274 C58.5047029,41.8010487 58.3689393,41.6631118 58.204457,41.5616057 C57.9888166,41.4390718 57.7528113,41.3518722 57.5064157,41.3036922 C57.1913883,41.2536004 56.8727172,41.2267314 56.5532828,41.2233279 L56.5532828,41.2233279 Z M32.303283,35.7839209 L29.4247004,35.7839209 L29.4247004,39.0502137 L32.4471079,39.0502137 C33.2371027,39.0502137 33.8290776,38.90625 34.1334028,38.6482372 C34.348098,38.4724893 34.616988,38.1658654 34.616988,37.4086538 C34.616988,36.8627137 34.4557929,36.4607372 34.1334028,36.2027244 C33.7748828,35.9297543 33.164148,35.7839209 32.303283,35.7839209 L32.303283,35.7839209 Z M56.0767164,35.8034072 L53.2509345,35.8034072 L53.2509345,38.4741199 L55.3450584,38.4741199 L56.0767164,38.4572994 C57.1148798,38.4572994 57.5973786,38.2647988 57.795124,38.1040701 L57.795124,38.1040701 C57.9671625,37.9676376 58.1886373,37.7265446 58.1886373,37.0985814 C58.2040989,36.8506947 58.1573464,36.6028641 58.052193,36.3753023 C57.9777117,36.2424193 57.8662646,36.1312722 57.729868,36.0538449 C57.5214943,35.955703 57.2966868,35.8924676 57.0654434,35.8669511 C56.7385652,35.8176693 56.4076443,35.7964015 56.0767164,35.8034072 L56.0767164,35.8034072 Z M56.1261427,7.56135087 L56.1261427,16.3102891 L65.2146372,16.3102891 L56.1261427,7.56135087 Z" id="Combined-Shape"></path>
        </g>
    </g>
</svg>