<?xml version="1.0" encoding="UTF-8"?>
<svg width="80px" height="80px" viewBox="0 0 80 80" version="1.1" xmlns="http://www.w3.org/2000/svg" xmlns:xlink="http://www.w3.org/1999/xlink">
    <!-- Generator: Sketch 62 (91390) - https://sketch.com -->
    <title>Icons/Graphical/earth-2</title>
    <desc>Created with Sketch.</desc>
    <g id="Page-1" stroke="none" stroke-width="1" fill="none" fill-rule="evenodd">
        <g id="Icons/Graphical/earth-2" fill="#006DAE" fill-rule="nonzero">
            <path d="M68.2847153,11.7153844 C52.6643357,-3.90512812 27.3381597,-3.90512812 11.7159653,11.7153844 C-3.90622916,27.3358968 -3.90441432,52.6641032 11.7159653,68.2846156 L11.7159653,68.2846156 C27.3381597,83.9051281 52.6643357,83.9051281 68.2847153,68.2846156 C83.9050949,52.6641032 83.9050949,27.3377117 68.2847153,11.7153844 Z M40.0003403,77.1084957 C33.4576777,77.115874 27.0296149,75.3914404 21.3691312,72.1103436 C21.2660318,71.5209555 21.1927398,70.9267402 21.1495348,70.3299645 C21.2243048,69.971304 21.318206,69.6168997 21.4308359,69.2682706 C21.8210278,67.9416068 22.3527777,66.1140414 22.2275533,64.4262202 C22.2112197,64.114064 22.4090379,63.8962807 23.6177254,63.1558172 C24.4289615,62.6712492 25.4452753,62.0669003 26.0695823,61.0796157 C27.3962348,59.0015993 26.8499661,57.6114155 26.3200311,56.268418 C26.2256591,56.0506346 26.1385465,55.8310364 26.0532487,55.5824004 C25.897172,55.1450188 26.2728451,54.0034709 26.5069602,53.2394143 C26.9280045,51.9109357 27.33453,50.6459772 26.7247417,49.5679495 C26.5232938,49.2049773 25.897172,48.1160604 19.5252476,45.8202607 C19.3005633,44.5747895 18.4149795,43.5507594 17.2149487,43.1487846 C16.3075257,42.8221095 14.1297105,41.152437 12.6778336,40.0417418 C11.6796683,39.2758703 10.8974697,38.6824106 10.4147207,38.4174408 C10.0203722,38.1897663 9.57244751,38.0713628 9.11710578,38.074432 C8.664947,38.0905376 8.21775847,38.1743479 7.79045335,38.323068 C7.57800289,38.39955 7.35762751,38.4519048 7.1334791,38.4791461 C7.00050673,38.4733017 6.87307052,38.4242384 6.7705099,38.3394018 C5.91208773,37.7459421 4.33498655,35.3412507 3.41304478,33.7006159 C3.50741677,33.12349 3.61630754,32.5608829 3.74153191,31.9982759 C5.88123535,30.909359 8.46013153,29.5155454 9.16066209,28.8277129 C9.95737948,28.0309888 10.7686156,25.9547873 11.2223272,24.6535316 C12.8774667,23.482946 14.3311584,22.5609964 14.7522026,22.3740656 C15.596106,22.3123603 16.4853806,21.8894976 16.7485332,21.7642722 C17.2130496,21.5303492 17.5169605,21.0658254 17.5452506,20.5465002 C17.5685791,20.0547465 17.669015,19.5697104 17.8428854,19.1091299 C18.3360259,19.1547626 18.8200731,19.270886 19.2802434,19.4539536 C19.6571282,19.6102813 20.0826923,19.5990648 20.4508191,19.4231009 C21.4036133,18.9857193 22.5905225,18.2670342 22.9335284,17.2978982 C23.0973081,16.8431232 23.0691382,16.3413018 22.8554901,15.9077143 C22.7064784,15.6332267 22.5340318,15.3721258 22.3400738,15.1273239 C21.9190295,14.5501979 21.2511662,13.5502093 21.2312029,13.1436803 C21.5433564,12.8478579 21.9571413,12.519368 22.3564074,12.1908781 C23.5578355,11.2235569 24.6050016,10.3760166 24.3237005,9.14554055 C24.2021086,8.64298271 23.8646597,8.21983933 23.4017587,7.9894738 C24.2989249,7.66550897 25.2176674,7.40474155 26.1512504,7.20908338 C26.120398,7.45953426 26.073212,7.77169043 25.9951737,8.17821939 C25.7755773,9.41051032 25.5577958,10.5665771 26.2601412,11.3941539 C26.610152,11.8166971 27.1325334,12.0582088 27.6811656,12.0511337 C28.5885886,12.0511337 29.4778631,11.5828995 30.6030677,10.973106 C31.6647526,10.410499 32.8516619,9.76985288 33.8697905,9.70270301 C34.1039056,9.68636926 39.7898182,9.29617405 41.3505857,7.71905945 C41.960374,7.109266 43.4431032,4.96954436 44.6463461,3.14379374 C48.2149911,3.58012967 51.7003126,4.53768404 54.9909683,5.98586677 C54.1779173,6.82796248 53.6171299,7.28167784 53.3975335,7.37605063 C53.0424073,7.50154081 52.6784325,7.60042148 52.3086259,7.67187305 C51.246941,7.92232393 49.809583,8.25081385 49.5282818,9.68636926 C49.4587149,10.2111716 49.4746501,10.7437794 49.5754678,11.2634839 C49.6063202,11.5302685 49.7006922,12.2326199 49.6535062,12.4975896 C49.3413527,12.6790758 48.4357445,12.8877848 47.8568087,13.029344 C46.6426767,13.3396853 45.2633937,13.684509 44.1018923,14.3560078 C42.3378619,15.3868491 40.4957932,17.9476186 40.5266456,20.1181929 C40.5334515,21.3250279 41.2123869,22.4274323 42.2870463,22.9765996 C42.7236002,23.2052522 43.191382,23.3685186 43.6754035,23.4611676 C43.3848425,23.6192511 43.10802,23.8013727 42.8478337,24.0056261 C39.1001767,27.0037772 37.163736,29.1289799 36.7426917,30.6897608 C36.3670186,32.0654258 35.4450768,38.5299622 38.2562733,42.606141 C39.6155929,44.5752657 41.5683672,45.6914055 44.081929,45.9327821 L44.3323777,45.9327821 C45.7534021,45.8402241 49.1417196,45.4954005 50.4701869,44.6206372 C50.5449751,44.6235602 50.6186773,44.6395292 50.6879684,44.6678236 C51.1204794,44.8336588 51.4916871,45.1282203 51.7514682,45.5117342 C51.8440253,45.854743 52.0636217,46.339311 52.4774066,47.3392997 C53.0091565,48.5734055 53.7477988,50.2594118 54.2577705,51.7584873 C54.8675588,53.5552001 54.8203728,54.1958462 54.8022243,54.3210717 C54.5372568,54.7893059 54.2868081,55.1795011 54.0762859,55.52251 C53.5136837,56.3972732 52.8585242,57.3972618 53.3503475,58.6313676 C53.3975335,58.7547782 53.615315,59.5206497 53.7877254,60.0832568 C55.4120126,65.7365502 56.067172,67.2828121 57.0362998,67.8290854 C57.602787,68.1663979 58.2518019,68.3398051 58.9110357,68.3299872 C59.1412431,68.3315275 59.3710366,68.3102502 59.5970475,68.266467 C61.6278602,67.939792 63.7367112,66.2519708 65.8292287,63.237486 C70.2011927,56.9435465 71.1231345,53.1014848 71.1539868,52.9454067 C71.2145972,52.705582 71.2038744,52.4532793 71.1231345,52.2194621 C70.7492762,50.9490591 70.6549042,49.3773891 70.9198717,48.9708601 C71.8690362,47.6060843 74.9542744,43.0616713 74.9851268,43.01267 C75.2786107,42.5818583 75.3140864,42.0253731 75.0776839,41.5607808 C74.6868102,40.7934943 74.3631619,39.9937786 74.110371,39.1706083 C74.9687932,38.7187078 76.1067016,38.0453942 76.515042,36.8439559 C76.6131087,36.52608 76.6912982,36.2024091 76.7491571,35.8748199 C76.7800095,35.7187418 76.8126767,35.5626638 76.8435291,35.4374383 C79.3480166,55.7929243 64.8782494,74.3244745 44.5229365,76.8289833 C43.0225488,77.0146582 41.5121728,77.1084957 40.0003403,77.1084957 Z M48.1671473,22.9602659 C49.6353577,22.3994737 50.869453,21.5247105 51.4157217,20.5555745 L51.4157217,20.5555745 C51.4711813,20.5369077 51.5303318,20.5319266 51.588132,20.5410556 L51.6026508,20.5410556 C51.9131008,20.5592116 52.2114747,20.6677121 52.461073,20.8532117 C52.7278553,21.3522986 53.274124,21.9294246 54.3829949,21.9294246 C55.0708215,21.9294246 55.7876857,21.7116412 56.3666216,21.5392294 C56.5226983,21.4938578 56.8820378,21.3831513 57.116153,21.321446 C57.2558961,21.5029321 57.4591589,21.7896802 57.5371973,21.9149057 C58.0526135,22.6807772 58.7095878,23.6172457 59.7857915,24.0237747 C60.3012077,24.2052608 61.0198867,24.3050782 62.2703156,24.4611563 C64.4572051,24.7261261 65.4408516,24.9439094 65.9000077,25.0854686 C65.7698475,25.3248809 65.5828886,25.5286678 65.3555539,25.6789283 C64.9345096,25.9602318 64.3410549,26.0999762 63.5915235,26.0999762 C62.8633983,26.0906189 62.1392242,25.9912574 61.4354865,25.8041538 C58.7331808,25.132655 58.1252074,24.2270392 57.6714959,23.5700593 C57.4191458,23.1517765 57.0777238,22.7942408 56.6715157,22.5228843 C56.2813238,22.2887671 55.7967599,22.1962092 55.1107481,22.1962092 C54.2831784,22.1962092 53.1416402,22.3359535 51.3304239,22.6172571 C50.363111,22.7588163 49.3467972,22.9148943 48.6444518,22.9602659 C48.4883751,22.9530064 48.3322983,22.9530064 48.1762216,22.9602659 L48.1671473,22.9602659 Z M75.9052537,31.3794081 C74.5477489,32.1761323 74.1720758,33.987364 73.9089231,35.3303615 C73.8617371,35.5644786 73.8000323,35.8457821 73.7673651,35.9401549 C73.6584743,36.1742721 72.8472382,36.5953199 72.5350847,36.751398 C72.3536001,36.8457708 72.1721155,36.9328842 72.0196684,37.0327015 C70.4879384,37.9074648 71.2846558,40.0308526 71.6294765,40.9219496 C71.7855533,41.3593312 71.9724824,41.7658602 72.1122255,42.108869 C71.2374698,43.3901612 69.2393243,46.3247921 68.5206453,47.3556334 C67.4589604,48.9018954 67.910857,51.448146 68.2084918,52.6513991 C67.910857,53.5878677 66.756615,56.8364696 63.4136686,61.6149998 C61.0089977,65.0832001 59.4318965,65.457403 58.8765536,65.457403 C58.7764338,65.4594729 58.6764153,65.449105 58.5789189,65.4262089 C58.3756561,65.0977189 57.8529805,63.865428 56.5335874,59.3046812 C56.313991,58.5224759 56.1706182,58.0542417 56.0798759,57.7729381 C56.1742479,57.6023412 56.361177,57.3210376 56.4864014,57.1177732 C56.7985164,56.6546477 57.0850845,56.1748086 57.3448236,55.6804029 C58.0489838,54.4009256 57.8892774,52.5951384 55.112563,46.2159005 C54.8621142,45.6387745 54.5499607,44.9200894 54.5027747,44.7640113 C54.1742876,43.6242783 52.9728595,42.4518778 51.6298735,41.9836436 C51.2493788,41.8445266 50.8480619,41.7708898 50.4429642,41.7658602 C49.8722109,41.7582001 49.3139336,41.9330606 48.8495294,42.2649471 C48.5065235,42.515398 46.4593772,42.9201121 44.2416354,43.0761902 C42.6336818,42.894704 41.4776249,42.2340944 40.6337215,40.9999887 C38.4794993,37.8602784 39.3234027,32.2233187 39.5248506,31.4737809 C39.5883702,31.2378489 40.1346389,29.9111852 44.6644945,26.2869069 C45.1799108,25.8821928 45.5846215,25.8041538 46.2107433,25.8041538 C46.4285248,25.8041538 46.66264,25.8186727 46.9366817,25.8186727 C47.2488352,25.8350064 47.5918411,25.8495253 47.9675143,25.8495253 C48.2796678,25.8495253 48.5773025,25.8350064 48.8586036,25.8186727 C49.6698398,25.7569674 50.6843387,25.6154082 51.7623573,25.4448112 C52.7460038,25.303252 54.3866246,25.054616 55.1524896,25.054616 L55.1978608,25.054616 C55.226246,25.0980137 55.2577887,25.1392621 55.2922327,25.1780266 C55.9328734,26.0999762 56.9782247,27.6462381 60.7367708,28.5827066 C61.6693741,28.8326379 62.6296969,28.9643404 63.5951532,28.9747167 C64.8909533,28.9747167 66.0161578,28.6770794 66.921766,28.0999535 C67.9746828,27.4203303 68.697793,26.3336836 68.9180966,25.0999875 C69.0290495,24.5247488 68.8868741,23.9295907 68.5279047,23.4666122 C67.6368153,22.2488402 65.6060026,21.9203503 62.6242106,21.5773415 C61.98357,21.4993024 61.0144422,21.3958553 60.8093646,21.3123717 C60.604287,21.2288881 60.1705388,20.6100203 59.9364237,20.2651966 C59.4046738,19.4848062 58.7948855,18.5937092 57.7332006,18.4231123 C57.6039128,18.4046519 57.4735912,18.3943473 57.3430087,18.3922596 C56.7658877,18.3922596 56.1724331,18.5737458 55.5281627,18.7661211 C55.1216372,18.8913465 54.8711885,18.9476072 54.7005929,19.0002382 C54.0290999,18.203514 52.8567094,17.6735745 51.6861337,17.6427218 L51.6080954,17.6427218 C50.4211861,17.6427218 49.4302801,18.1871803 48.9057896,19.1563163 C48.6244885,19.6717369 46.6880478,20.718912 44.9131284,20.718912 C44.4881008,20.7300125 44.0661087,20.6443721 43.6790331,20.4684611 C43.5272685,20.4172269 43.4350393,20.2635101 43.4612516,20.1054888 C43.444918,19.1980581 44.5846413,17.4975329 45.6009551,16.9040732 C46.3958576,16.435839 47.5519145,16.1545355 48.5682283,15.9040846 C49.8005087,15.5919284 50.8640085,15.3269586 51.5663539,14.7498327 C52.8004492,13.7189914 52.5808528,12.0620229 52.4411097,10.9694763 C52.4247761,10.907771 52.4247761,10.8133982 52.4102573,10.7045065 C52.6117052,10.6409864 52.8621539,10.5938 52.9710447,10.5629473 C53.4631605,10.4584685 53.9481055,10.3226827 54.4229215,10.1564184 C55.2341577,9.8442622 56.3430286,8.92412745 57.7023482,7.39238439 C60.8464106,9.10771897 63.728608,11.2644961 66.261162,13.7970304 C71.0998021,18.6142029 74.5057559,24.6803832 76.0994422,31.3195177 C76.0282303,31.3105302 75.9561493,31.3272634 75.8961795,31.3667041 L75.9052537,31.3794081 Z M39.2979949,5.70274838 C38.9223218,6.00038566 36.4396124,6.67188439 33.6592683,6.85881512 C32.0259069,6.96770681 30.4742136,7.79528363 29.2237847,8.46678236 C29.0985603,8.53030251 28.9751508,8.60834156 28.8335928,8.67004685 C29.0840416,7.29619673 29.3490091,5.74993478 28.2709905,4.85883781 C28.2564718,4.84250406 28.2256194,4.8261703 28.2092858,4.81165141 C32.0121971,3.54134699 35.996332,2.89775049 40.0057848,2.90604689 C40.4431627,2.90604689 40.8805406,2.92056578 41.3342521,2.93689954 C40.3124938,4.39060355 39.5484436,5.44503806 39.2979949,5.70274838 Z M19.5561,9.01487052 C19.8223233,9.39617642 20.1623642,9.72017461 20.5560802,9.96767278 L20.5560802,9.96767278 C20.067085,10.3490063 19.5982233,10.7554777 19.1513894,11.1854448 C17.4327302,12.9023037 18.9172742,15.2924763 19.8065488,16.5429158 C19.79203,16.5574347 19.7756964,16.5574347 19.7593628,16.5737684 C19.0350599,16.3550134 18.2836521,16.2389413 17.5271022,16.2289448 C16.1205965,16.2289448 15.13695,17.4013453 14.7939441,19.4630279 C14.7179974,19.4877741 14.6394319,19.5036092 14.559829,19.5102143 C14.1533035,19.5102143 13.4709214,19.5102143 9.18606993,22.5954787 C8.93222189,22.7703712 8.74535686,23.0263528 8.6561349,23.3214233 C8.09353263,24.9929107 7.37485362,26.5700253 7.12440487,26.8186613 C6.96832811,26.9747394 6.20427794,27.4593074 4.8141059,28.2088452 C6.64518221,22.7653113 9.71335057,17.820418 13.7776303,13.7625481 C15.535753,11.9858749 17.4721178,10.3949285 19.5561,9.01487052 L19.5561,9.01487052 Z M3.00107474,42.9527796 C3.37048897,43.3042144 3.71040373,43.6854077 4.0173885,44.0925126 L4.0173885,44.1850705 C3.87608057,45.893385 4.01337924,47.6133107 4.42391401,49.2775717 C5.13134645,52.058314 6.6215904,54.5777673 8.71783966,56.5370175 C9.18969962,58.2308882 9.57505193,59.948957 9.87389657,61.691224 C5.8925017,56.2017404 3.51321678,49.7147254 3.00107474,42.9527796 Z M6.90662335,44.3574823 C6.92114211,44.1759962 6.92114211,44.0289924 6.92114211,43.9055818 C6.92114211,43.1542292 6.53095022,42.3266524 4.59450953,40.484568 C3.92301651,39.8275882 3.25152349,39.2504622 2.89218398,38.9546398 C2.89218398,38.7513753 2.90851759,38.5317771 2.90851759,38.3285126 C3.73608737,39.4851843 4.46989011,40.2819085 5.1099258,40.7186851 C5.6950437,41.1456401 6.40008147,41.3768436 7.12440487,41.3792947 C7.63666909,41.3693643 8.1437799,41.2749317 8.62528252,41.099806 C8.75727214,41.0529762 8.8925447,41.015973 9.02999317,40.9890995 C9.37481392,41.1978086 10.1642719,41.7967128 10.8902103,42.3593199 C12.7649463,43.7803564 14.8828715,45.4046574 16.2004497,45.8874105 C16.5257676,45.9649241 16.7322282,46.2850208 16.66868,46.6133551 C16.5452689,47.3111561 16.9501498,47.9944465 17.6214742,48.2213224 C20.6359334,49.2684974 23.3854251,50.5026032 24.1041041,50.9871712 C24.0020744,51.4472688 23.8717631,51.900635 23.7139122,52.3446876 C23.2765343,53.687685 22.7919704,55.1867606 23.2910531,56.5624256 C23.3854251,56.8437291 23.4943159,57.0923651 23.5886878,57.3264822 C24.0569181,58.4988827 24.1186229,58.6858135 23.5886878,59.5133903 C23.3219055,59.9199192 22.7284508,60.2792618 22.089625,60.669457 C20.9172345,61.3718084 19.1532042,62.4335023 19.309281,64.6058915 C19.3873193,65.7764771 18.9463118,67.3064053 18.6051207,68.4316194 C18.4036728,69.1339708 18.2421515,69.6348726 18.2149288,70.0649947 C16.6179631,68.9101365 15.1137136,67.6322113 13.7159256,66.2428965 C13.534441,66.0614104 13.3257337,65.8363676 13.0916185,65.6022504 C13.1388045,61.5569243 11.4201454,55.6205125 11.3566258,55.3555427 C11.280767,55.1057769 11.141306,54.8800108 10.9519151,54.7003777 C6.53457991,50.6205692 6.81225135,45.9164483 6.90662335,44.3574823 Z" id="Shape"></path>
        </g>
    </g>
</svg>