<?xml version="1.0" encoding="UTF-8"?>
<svg width="80px" height="80px" viewBox="0 0 80 80" version="1.1" xmlns="http://www.w3.org/2000/svg" xmlns:xlink="http://www.w3.org/1999/xlink">
    <!-- Generator: Sketch 62 (91390) - https://sketch.com -->
    <title>Icons/Graphical/emoticon-smile</title>
    <desc>Created with Sketch.</desc>
    <g id="Page-1" stroke="none" stroke-width="1" fill="none" fill-rule="evenodd">
        <g id="Icons/Graphical/emoticon-smile" fill="#006DAE" fill-rule="nonzero">
            <path d="M24.4654312,3.11488152 C44.8286681,-5.36333939 68.2968801,4.06026268 76.8846113,24.1673827 C78.971377,29.0266806 80.0310168,34.2555031 79.9993089,39.5333806 L79.9993089,39.5333806 L79.9993089,39.5955768 C79.9823865,61.3873234 62.0743299,79.0403618 39.9993067,79.0243794 L39.9993067,79.0243794 L39.9381072,79.0243794 C17.8630841,79.0065982 -0.017972721,61.3269043 1.35571926e-05,39.5333806 C-0.00785714323,23.6404598 9.63226112,9.29045614 24.4654312,3.11488152 Z M40.1199058,2.82874257 C19.5136708,2.80034681 2.78460483,19.2698818 2.75576783,39.6133471 C2.72700529,59.9568124 19.4092717,76.4725502 40.0155066,76.5010147 C60.6214883,76.5275004 77.3488118,60.0596248 77.3796446,39.716415 C77.4084071,19.3693956 60.7261407,2.85721184 40.1199058,2.82874257 Z M61.1110067,50.7317073 L63.4146341,51.9085302 L63.0427815,52.4670514 C58.1593796,59.8691329 49.421873,64.3902439 40,64.3902439 C30.578127,64.3902439 21.8406204,59.8691329 16.9572185,52.4670514 L16.9572185,52.4670514 L16.5853659,51.9085302 L18.8908525,50.7317073 L19.2255199,51.2441121 C23.6376352,57.9035797 31.5099814,61.9680816 39.9962815,61.9680816 C48.4825815,61.9680816 56.3549277,57.9035797 60.767043,51.2441121 L60.767043,51.2441121 L61.1110067,50.7317073 Z M52.6829268,23.4146341 C55.9158132,23.4146341 58.5365854,26.0354063 58.5365854,29.2682927 C58.5365854,32.501179 55.9158132,35.1219512 52.6829268,35.1219512 C49.4500405,35.1219512 46.8292683,32.501179 46.8292683,29.2682927 C46.8292683,26.0354063 49.4500405,23.4146341 52.6829268,23.4146341 Z M27.3170732,23.4146341 C30.5499595,23.4146341 33.1707317,26.0354063 33.1707317,29.2682927 C33.1707317,32.501179 30.5499595,35.1219512 27.3170732,35.1219512 C24.0841868,35.1219512 21.4634146,32.501179 21.4634146,29.2682927 C21.4634146,26.0354063 24.0841868,23.4146341 27.3170732,23.4146341 Z" id="Combined-Shape"></path>
        </g>
    </g>
</svg>