<?xml version="1.0" encoding="UTF-8"?>
<svg width="36px" height="36px" viewBox="0 0 36 36" version="1.1" xmlns="http://www.w3.org/2000/svg" xmlns:xlink="http://www.w3.org/1999/xlink">
    <title>Icons/Functional/Filter</title>
    <g id="Symbols" stroke="none" stroke-width="1" fill="none" fill-rule="evenodd">
        <g id="Icons/Functional/Filter" fill="#000000" fill-rule="nonzero">
            <path d="M14.2237762,21.0839161 C15.8574577,21.0839161 17.1818182,22.4082766 17.1818182,24.041958 C17.1818182,25.6756395 15.8574577,27 14.2237762,27 C12.8285514,27 11.6589389,26.0340384 11.3472247,24.734401 L9.69230769,24.7342657 C9.30995671,24.7342657 9,24.424309 9,24.041958 C9,23.6596071 9.30995671,23.3496503 9.69230769,23.3496503 L11.3472247,23.3495151 C11.6589389,22.0498777 12.8285514,21.0839161 14.2237762,21.0839161 Z M14.2237762,22.4685315 C13.3547967,22.4685315 12.6503497,23.1729785 12.6503497,24.041958 C12.6503497,24.9109375 13.3547967,25.6153846 14.2237762,25.6153846 C15.0927557,25.6153846 15.7972028,24.9109375 15.7972028,24.041958 C15.7972028,23.1729785 15.0927557,22.4685315 14.2237762,22.4685315 Z M26.3076923,23.3496503 C26.6900433,23.3496503 27,23.6596071 27,24.041958 C27,24.424309 26.6900433,24.7342657 26.3076923,24.7342657 L19.5104895,24.7342657 C19.1281385,24.7342657 18.8181818,24.424309 18.8181818,24.041958 C18.8181818,23.6596071 19.1281385,23.3496503 19.5104895,23.3496503 L26.3076923,23.3496503 Z M20.2657343,15.041958 C21.8994157,15.041958 23.2237762,16.3663185 23.2237762,18 C23.2237762,19.6336815 21.8994157,20.958042 20.2657343,20.958042 C18.8705094,20.958042 17.700897,19.9920804 17.3891828,18.6924429 L9.69230769,18.6923077 C9.30995671,18.6923077 9,18.382351 9,18 C9,17.617649 9.30995671,17.3076923 9.69230769,17.3076923 L17.3891828,17.3075571 C17.700897,16.0079196 18.8705094,15.041958 20.2657343,15.041958 Z M20.2657343,16.4265734 C19.3967548,16.4265734 18.6923077,17.1310205 18.6923077,18 C18.6923077,18.8689795 19.3967548,19.5734266 20.2657343,19.5734266 C21.1347138,19.5734266 21.8391608,18.8689795 21.8391608,18 C21.8391608,17.1310205 21.1347138,16.4265734 20.2657343,16.4265734 Z M26.3076923,17.3076923 C26.6900433,17.3076923 27,17.617649 27,18 C27,18.382351 26.6900433,18.6923077 26.3076923,18.6923077 L25.5524476,18.6923077 C25.1700966,18.6923077 24.8601399,18.382351 24.8601399,18 C24.8601399,17.617649 25.1700966,17.3076923 25.5524476,17.3076923 L26.3076923,17.3076923 Z M14.2237762,9 C15.8574577,9 17.1818182,10.3243605 17.1818182,11.958042 C17.1818182,13.5917234 15.8574577,14.9160839 14.2237762,14.9160839 C12.8285514,14.9160839 11.6589389,13.9501223 11.3472247,12.6504849 L9.69230769,12.6503497 C9.30995671,12.6503497 9,12.3403929 9,11.958042 C9,11.575691 9.30995671,11.2657343 9.69230769,11.2657343 L11.3472247,11.265599 C11.6589389,9.9659616 12.8285514,9 14.2237762,9 Z M14.2237762,10.3846154 C13.3547967,10.3846154 12.6503497,11.0890625 12.6503497,11.958042 C12.6503497,12.8270215 13.3547967,13.5314685 14.2237762,13.5314685 C15.0927557,13.5314685 15.7972028,12.8270215 15.7972028,11.958042 C15.7972028,11.0890625 15.0927557,10.3846154 14.2237762,10.3846154 Z M26.3076923,11.2657343 C26.6900433,11.2657343 27,11.575691 27,11.958042 C27,12.3403929 26.6900433,12.6503497 26.3076923,12.6503497 L19.5104895,12.6503497 C19.1281385,12.6503497 18.8181818,12.3403929 18.8181818,11.958042 C18.8181818,11.575691 19.1281385,11.2657343 19.5104895,11.2657343 L26.3076923,11.2657343 Z" id="Combined-Shape"></path>
        </g>
    </g>
</svg>