<?xml version="1.0" encoding="UTF-8"?>
<svg width="80px" height="70px" viewBox="0 0 80 70" version="1.1" xmlns="http://www.w3.org/2000/svg" xmlns:xlink="http://www.w3.org/1999/xlink">
    <!-- Generator: Sketch 62 (91390) - https://sketch.com -->
    <title>Icons/Graphical/flatscreen-tv</title>
    <desc>Created with Sketch.</desc>
    <g id="Page-1" stroke="none" stroke-width="1" fill="none" fill-rule="evenodd">
        <g id="Icons/Graphical/flatscreen-tv" transform="translate(0.000000, -5.000000)" fill="#006DAE" fill-rule="nonzero">
            <path d="M80,61.4648882 L80,5 L0,5 L0,61.4648882 L34.0690151,61.4648882 L34.0690151,71.5218405 L15.4852624,71.5218405 L15.4852624,74.1358025 L64.4985622,74.1358025 L64.4985622,71.5218405 L45.9148095,71.5218405 L45.9148095,61.4648882 L80,61.4648882 Z M2.57009346,7.61396201 L77.4442847,7.61396201 L77.4442847,58.8601173 L2.57009346,58.8601173 L2.57009346,7.61396201 Z M43.3680805,61.4740793 L43.3680805,71.5310316 L36.6229331,71.5310316 L36.6229331,61.4648882 L43.3680805,61.4740793 Z" id="Shape"></path>
        </g>
    </g>
</svg>