<?xml version="1.0" encoding="UTF-8"?>
<svg width="78px" height="72px" viewBox="0 0 78 72" version="1.1" xmlns="http://www.w3.org/2000/svg" xmlns:xlink="http://www.w3.org/1999/xlink">
    <!-- Generator: Sketch 62 (91390) - https://sketch.com -->
    <title>Icons/Graphical/folders</title>
    <desc>Created with Sketch.</desc>
    <g id="Page-1" stroke="none" stroke-width="1" fill="none" fill-rule="evenodd">
        <g id="Icons/Graphical/folders" transform="translate(-1.000000, -4.000000)" fill="#006DAE" fill-rule="nonzero">
            <path d="M45.1386667,7.13333333 L45.1386667,8.208 L64.9413333,4 L79.0213333,70.192 L55.9973333,75.0773333 L45.1386667,24.0106667 L45.1386667,74.8133333 L1,74.8133333 L1,7.136 L45.1386667,7.136 L45.1386667,7.13333333 Z M60.4106667,10.9733333 L65.912,36.8666667 L54.408,39.3226667 L48.9066667,13.4133333 L60.4106667,10.9733333 Z M58.144,14.4586667 L52.392,15.68 L56.6746667,35.8373333 L62.4426667,34.616 L58.144,14.4586667 Z M67.0453333,50.432 C69.4996335,52.0227811 70.4133654,55.174495 69.1905193,57.8313392 C67.9676732,60.4881834 64.9793309,61.8439184 62.1747309,61.0142242 C59.3701309,60.1845301 57.6003502,57.4211837 58.0197828,54.526663 C58.4392155,51.6321423 60.9205815,49.4848115 63.8453333,49.4853332 C65.0346667,49.4853332 66.1413333,49.8373333 67.0666667,50.4453333 L67.0453333,50.432 Z M65.4426667,52.888 C63.9840147,52.1623533 62.2132666,52.7555848 61.4861471,54.2135032 C60.7590276,55.6714215 61.3504704,57.4427678 62.8076536,58.1713594 C64.2648369,58.899951 66.0367796,58.3102975 66.7668425,56.8538509 C67.4969055,55.3974042 66.9090419,53.6248669 65.4533333,52.8933333 L65.4426667,52.888 Z M42.1813333,10.0746667 L24.5413333,10.0746667 L24.5413333,71.8666667 L42.1973333,71.8666667 L42.1813333,10.0746667 Z M62.6906667,7.46933333 L45.4026667,11.1466667 L58.2613333,71.6 L75.5333333,67.9226667 L62.6906667,7.46933333 Z M33.368,51.2693333 C36.6183798,51.2693333 39.2533333,53.9042868 39.2533333,57.1546667 C39.2533333,60.4050465 36.6183798,63.04 33.368,63.04 C30.1176202,63.04 27.4826667,60.4050465 27.4826667,57.1546667 C27.4943676,53.9091459 30.1224792,51.2810343 33.368,51.2693333 L33.368,51.2693333 Z M33.368,54.2133333 C31.7435465,54.2133333 30.4266667,55.5302131 30.4266667,57.1546667 C30.4266667,58.7791202 31.7435465,60.096 33.368,60.096 C34.9924535,60.096 36.3093333,58.7791202 36.3093333,57.1546667 C36.3093333,55.5302131 34.9924535,54.2133333 33.368,54.2133333 Z M39.2533333,13.016 L39.2533333,39.4986667 L27.4826667,39.4986667 L27.4826667,13.016 L39.2533333,13.016 Z M36.312,15.96 L30.4266667,15.96 L30.4266667,36.5573333 L36.312,36.5573333 L36.312,15.96 L36.312,15.96 Z M21.5973333,10.0746667 L3.94133333,10.0746667 L3.94133333,71.8666667 L21.5973333,71.8666667 L21.5973333,10.0746667 L21.5973333,10.0746667 Z M12.7706667,51.2693333 C16.0210465,51.2693333 18.656,53.9042868 18.656,57.1546667 C18.656,60.4050465 16.0210465,63.04 12.7706667,63.04 C9.52028682,63.04 6.88533333,60.4050465 6.88533333,57.1546667 C6.89703429,53.9091459 9.52514587,51.2810343 12.7706667,51.2693333 Z M12.7706667,54.2133333 C11.1462131,54.2133333 9.82933333,55.5302131 9.82933333,57.1546667 C9.82933333,58.7791202 11.1462131,60.096 12.7706667,60.096 C14.3951202,60.096 15.712,58.7791202 15.712,57.1546667 C15.712,55.5302131 14.3951202,54.2133333 12.7706667,54.2133333 Z M18.656,13.016 L18.656,39.4986667 L6.88533333,39.4986667 L6.88533333,13.016 L18.656,13.016 Z M15.712,15.96 L9.82666667,15.96 L9.82666667,36.5573333 L15.712,36.5573333 L15.712,15.96 Z" id="Shape"></path>
        </g>
    </g>
</svg>