<?xml version="1.0" encoding="UTF-8"?>
<svg width="78px" height="78px" viewBox="0 0 78 78" version="1.1" xmlns="http://www.w3.org/2000/svg" xmlns:xlink="http://www.w3.org/1999/xlink">
    <!-- Generator: Sketch 62 (91390) - https://sketch.com -->
    <title>Icons/Graphical/football</title>
    <desc>Created with Sketch.</desc>
    <g id="Page-1" stroke="none" stroke-width="1" fill="none" fill-rule="evenodd">
        <g id="Icons/Graphical/football" transform="translate(-1.000000, -1.000000)" fill="#006DAE" fill-rule="nonzero">
            <path d="M56.4286679,1 C64.1834025,1 69.5200507,2.79721885 71.1988383,4.47509113 L71.1988383,4.47509113 L75.5222433,8.7891184 C77.0043529,10.2616444 78.2283226,14.0386121 78.7428464,18.617659 C79.346929,24.1479681 78.8780625,30.4329688 77.4275619,36.3564196 C76.2712893,40.9573376 74.5390282,45.3941313 72.2717873,49.5617659 C66.6469711,59.8107788 58.0130823,68.0895736 47.5342543,73.2818955 C41.9779192,76.0315929 35.9981476,77.8269789 29.8455222,78.5928176 C27.744938,78.8626798 25.6293015,78.998682 23.5114353,79 C20.0801058,79 16.8138453,78.6296746 14.0779131,77.927636 C11.6194375,77.2940462 9.74572786,76.4322938 8.80975107,75.4950722 L8.80975107,75.4950722 L4.48459002,71.1740246 C3.00423648,69.7014986 1.77851077,65.9403267 1.265743,61.345484 C0.647611981,55.8169299 1.11472235,49.5161334 2.59507589,43.6225192 C7.67143401,23.4364445 23.4420221,7.67512969 43.6393265,2.60240313 C47.8211181,1.54906074 52.1161278,1.01093005 56.4286679,1 Z M3.44149393,55.0306467 L3.4274455,55.6501958 C3.26062036,61.9018496 4.40907969,67.5567706 6.2230835,69.3838261 L6.2230835,69.3838261 L10.5500006,73.7031187 C12.2270322,75.380991 17.2317862,76.4989874 23.0056918,76.4989874 C23.4289008,76.4989874 23.8521098,76.4989874 24.2612704,76.4831916 L24.2612704,76.4831916 L24.8811575,76.4691508 L3.44149393,55.0306467 Z M5.25022957,43.2451735 L5.15891476,43.7295801 C5.12906184,43.8805184 5.08340444,44.0314567 5.03774703,44.1964358 C4.41843163,46.6403354 3.97129787,49.1246213 3.69963387,51.6310247 L3.69963387,51.6310247 L3.68382938,51.7521264 L28.1737588,76.2444984 L28.2949265,76.2287026 C28.7040871,76.1988659 29.1114916,76.1532334 29.5347006,76.0935601 C31.796759,75.8070574 34.0384397,75.3779586 36.2463391,74.8088295 L36.2463391,74.8088295 L36.7011571,74.6877278 L5.25022957,43.2451735 Z M40.5715001,6.07749426 L40.4187234,6.12137168 C24.2136592,11.5009634 11.4994172,24.2089235 6.11772025,40.4054273 L6.11772025,40.4054273 L6.07206285,40.5563656 L39.4072363,73.8716079 L39.5723054,73.8119347 C47.5756399,71.1823511 54.8432985,66.698321 60.7819259,60.7259349 C66.7542235,54.7878921 71.2401734,47.5250487 73.8750646,39.527879 L73.8750646,39.527879 L73.920722,39.3769407 L40.5715001,6.07749426 Z M55.1025272,23 L57,24.901055 L54.8914875,26.9984453 L57,29.0939478 L55.1025272,30.9968906 L53.0090889,28.8843976 L48.3549102,33.5643531 L50.5124141,35.72593 L48.6149413,37.6118823 L46.4574374,35.4503054 L41.86544,40.0660744 L44.1039681,42.3088284 L42.2064952,44.1928928 L39.9679672,41.9501388 L35.3929284,46.5338145 L37.4543339,48.5972238 L35.5719353,50.4982787 L33.5124141,48.4348695 L28.9053425,53.033648 L30.9648637,55.098945 L29.0843494,57 L27.0229439,54.9347029 L24.9634227,57 L23.0659499,55.098945 L25.1254711,53.033648 L23,50.9060522 L24.8823986,49.0031094 L27.0229439,51.1495836 L31.6149413,46.5338145 L29.4894702,44.4043309 L31.3699845,42.503276 L33.5124141,44.6478623 L38.0855686,40.0660744 L36.1240301,38.098945 L38.021503,36.2129928 L39.9679672,38.1631316 L44.5750388,33.5643531 L42.5305919,31.5160466 L44.4280647,29.6319822 L46.4574374,31.6632982 L51.1285746,26.9984453 L49.0200621,24.901055 L50.9175349,23 L53.0090889,25.1124931 L55.1025272,23 Z M51.7786369,3.67125692 L51.6574692,3.68529769 C48.9927541,3.97662479 46.3520545,4.45638358 43.7552261,5.12096665 L43.7552261,5.12096665 L43.3021641,5.24206831 L74.7355311,36.6582962 L74.8566988,36.2037262 C75.5219806,33.6072004 76.0020044,30.9667496 76.293151,28.3022816 L76.293151,28.3022816 L76.3089555,28.18118 L51.7786369,3.67125692 Z M56.9449478,3.40256613 C56.5357872,3.40256613 56.1125782,3.40256613 55.7051737,3.41676792 L55.7051737,3.41676792 L55.0852866,3.43256379 L76.5477789,24.8868638 L76.5635833,24.2690698 C76.7391887,18.0279465 75.5819491,12.3765357 73.7538969,10.5336844 L73.7538969,10.5336844 L69.4304919,6.2126367 C67.7288756,4.53476441 62.703049,3.38693128 56.9449478,3.40256613 Z" id="Combined-Shape"></path>
        </g>
    </g>
</svg>