<?xml version="1.0" encoding="UTF-8"?>
<svg width="80px" height="80px" viewBox="0 0 80 80" version="1.1" xmlns="http://www.w3.org/2000/svg" xmlns:xlink="http://www.w3.org/1999/xlink">
    <!-- Generator: Sketch 62 (91390) - https://sketch.com -->
    <title>Icons/Graphical/gearwheel</title>
    <desc>Created with Sketch.</desc>
    <g id="Page-1" stroke="none" stroke-width="1" fill="none" fill-rule="evenodd">
        <g id="Icons/Graphical/gearwheel" fill="#006DAE" fill-rule="nonzero">
            <path d="M30.4517668,4.57296602e-05 C31.7933373,-0.00306279149 33.0476411,0.664425895 33.7939637,1.77867306 L33.7939637,1.77867306 L38.2562482,8.33684525 L38.4098086,8.32239993 C38.8379711,8.30614896 39.2715534,8.28989798 39.6744236,8.28989798 L39.6744236,8.28989798 L40.1531707,8.28989798 C40.7890915,8.28989798 41.3617814,8.30614896 41.918212,8.33684525 L41.918212,8.33684525 L42.073579,8.35309622 L46.6189668,1.82562033 C47.3542594,0.72623011 48.5929377,0.0695593133 49.9159989,0.0777374317 C50.3033134,0.0798386562 50.6883603,0.136988421 51.0595722,0.247469862 C52.2356642,0.603185699 53.1046354,0.897508955 53.9392813,1.20627752 C54.7739273,1.51504609 55.6573512,1.8725676 56.7087883,2.33481762 C58.30617,3.04959386 59.2620724,4.71044939 59.0772316,6.44992621 L59.0772316,6.44992621 L58.2751043,14.3533182 L58.3997593,14.4472127 C58.8730866,14.8029286 59.3428008,15.1893407 59.7763831,15.5450565 C60.2099654,15.9007724 60.6580004,16.3034355 61.0915827,16.7205439 L61.0915827,16.7205439 L61.1999783,16.8288837 L68.8707718,14.7451473 C69.2250399,14.6546597 69.589079,14.6079653 69.9547276,14.6061112 C71.305097,14.6099766 72.5643925,15.2873975 73.3113772,16.4117753 C73.8840672,17.2766884 74.4007528,18.1090996 74.8903394,18.9631788 C75.3799261,19.8172579 75.8189282,20.6948107 76.2832226,21.6229221 C77.0620027,23.1916316 76.7296923,25.0842418 75.4630294,26.2941752 L75.4630294,26.2941752 L69.7686485,31.8158962 L69.7993606,31.9711833 C69.943888,32.5273278 70.0685429,33.1159744 70.1606792,33.7190662 C70.2528154,34.322158 70.3467582,34.8945535 70.4081824,35.4813944 L70.4081824,35.4813944 L70.4244417,35.6366815 L77.6201013,38.9464639 C79.2005321,39.6790266 80.1468322,41.3282303 79.9813183,43.0615725 C79.8566634,44.112469 79.7175557,45.0875277 79.547736,46.0300843 C79.3616569,47.0520903 79.1448658,48.0415942 78.8973625,48.9859566 C78.4862813,50.6895757 77.0108074,51.9254649 75.260691,52.032112 L75.260691,52.032112 L67.3369744,52.6045075 L67.2610975,52.7435436 C67.0117877,53.193154 66.7335724,53.7330476 66.4083857,54.2909978 C66.1157176,54.7857498 65.8049836,55.2949471 65.4653442,55.7915047 L65.4653442,55.7915047 L65.3714013,55.9142899 L68.7605697,63.1225012 C69.5243518,64.6959876 69.173513,66.583247 67.8952116,67.7775033 C67.0750185,68.5665786 66.269278,69.2635649 65.6514232,69.7890132 L65.6514232,69.7890132 L65.6351639,69.8034585 C64.8456828,70.4390523 64.0417489,71.0565894 63.2360085,71.628985 C61.8262493,72.6601771 59.9106876,72.6601771 58.5009285,71.628985 L58.5009285,71.628985 L52.0640379,66.9739828 L51.9249302,67.0353754 C51.4136644,67.2358041 50.8716865,67.4524838 50.2845438,67.6691635 L50.2845438,67.6691635 L50.2682845,67.6691635 C49.7570187,67.8352846 49.2168474,68.0248793 48.6116388,68.1964174 L48.6116388,68.1964174 L48.4725311,68.241559 L46.4310811,75.897575 C46.0110434,77.6102103 44.5117145,78.8411161 42.7492448,78.9202568 C41.7429725,78.9816494 40.7674123,79.0123457 39.7466873,79.0123457 L39.7466873,79.0123457 L39.7358478,79.0123457 C38.7060898,78.9979004 37.7088505,78.9509531 36.7188376,78.8733095 C34.9782822,78.7504272 33.5153812,77.5201802 33.0966188,75.8271541 L33.0966188,75.8271541 L31.1635644,68.1386362 L31.0226501,68.0934946 C30.4662195,67.9075112 29.9097889,67.7215278 29.367811,67.521099 C28.8258331,67.3188647 28.2838553,67.102185 27.7418774,66.8710599 L27.7418774,66.8710599 L27.6027697,66.8096674 L21.1387802,71.3671637 C20.4501386,71.8484909 19.6305298,72.1074802 18.7902095,72.1092916 C17.922015,72.1082501 17.077601,71.8256562 16.3838277,71.3039654 C15.5329224,70.6701773 14.7127292,70.0056929 14.0153844,69.4332974 C13.1807384,68.7218657 12.4526815,68.0411303 11.7878553,67.3766459 C10.5192774,66.1737301 10.1863425,64.2834266 10.9676621,62.7198381 L10.9676621,62.7198381 L14.4327073,55.574825 L14.3550238,55.4502342 C14.0388701,54.9717332 13.7299427,54.4751756 13.4517274,53.9804236 C13.1102813,53.4080281 12.8465187,52.9132761 12.6315342,52.4654714 L12.6315342,52.4654714 L12.5683034,52.3264352 L4.66084621,51.6601452 C2.9102409,51.5274778 1.44784149,50.2755767 1.04766037,48.5670425 C0.791124177,47.5305913 0.583365991,46.5573383 0.429805593,45.5822796 C0.243726522,44.5765247 0.119071611,43.5563245 0.0269353717,42.5812658 C-0.176735656,40.836682 0.79005147,39.1654994 2.40441166,38.4715742 L2.40441166,38.4715742 L9.64704268,35.2213788 L9.66149542,35.0678973 C9.72472617,34.6038416 9.80060308,34.0314461 9.92525799,33.3507107 C10.0390733,32.7620642 10.1474689,32.2059196 10.2865766,31.6642204 L10.2865766,31.6642204 L10.3172887,31.5107389 L4.66987918,25.9131801 C3.41748858,24.6929302 3.10357381,22.8009022 3.89485082,21.2419269 C4.29772104,20.4366007 4.74575608,19.5861329 5.31844604,18.580378 C5.87487666,17.6685176 6.40240179,16.848746 6.95883241,16.0289745 C7.70604556,14.9333226 8.94369291,14.2739883 10.2703172,14.2648406 C10.6540073,14.2704964 11.0348864,14.3313084 11.4012444,14.4454071 L11.4012444,14.4454071 L19.0593918,16.612204 L19.1677874,16.5038642 C19.6158224,16.0813388 20.0494047,15.7202059 20.4667277,15.3590731 C20.9942528,14.9257137 21.4422879,14.5699979 21.8288987,14.2919256 L21.8288987,14.2919256 L21.9535537,14.1998367 L21.2309165,6.28019378 C21.0566174,4.54151243 22.0359053,2.89214716 23.6463312,2.21203246 C24.459298,1.84006564 25.3788538,1.46990449 26.4465503,1.08349236 C27.4492093,0.711525548 28.3922508,0.402756978 29.3370989,0.15538099 C29.6992958,0.0505261444 30.0746872,-0.00177055616 30.4517668,4.57296602e-05 Z M30.4842854,2.58365961 C30.3373758,2.58070124 30.1909154,2.60143913 30.0507031,2.64539185 C29.1979913,2.87651686 28.3308267,3.13472683 27.3408137,3.49585966 C26.3959657,3.83532452 25.5306076,4.18562337 24.6941551,4.5467562 C24.0916325,4.7957161 23.7304811,5.41705069 23.8125378,6.06351408 L23.8125378,6.06351408 L24.5153024,13.9199588 C24.6097772,14.8445725 24.2094696,15.7504634 23.4620587,16.3034355 L23.4620587,16.3034355 L23.447606,16.3178808 C22.9363402,16.6735966 22.4720458,17.0455634 22.1324064,17.3236357 C21.8379317,17.5710117 21.5597164,17.8183877 21.2489824,18.09646 L21.2489824,18.09646 L20.8876638,18.4214795 C20.391482,18.8960649 19.7317113,19.161777 19.0449391,19.1636075 C18.8046942,19.1636965 18.5654456,19.1327438 18.3331414,19.0715186 L18.3331414,19.0715186 L10.7671303,16.9209726 C10.6209198,16.8789806 10.4694103,16.8583032 10.3172887,16.85958 C9.82927202,16.8691459 9.37502516,17.110571 9.09422524,17.5096191 C8.55405396,18.2968887 8.0590475,19.0859639 7.56223445,19.9219864 C7.03651591,20.8031505 6.56318856,21.7312619 6.20186998,22.4282483 C5.90128947,23.0113503 6.0203852,23.7226182 6.49453803,24.1761312 L6.49453803,24.1761312 L12.0877497,29.7050748 C12.7605153,30.3597674 13.0355497,31.3218929 12.8103869,32.2330046 C12.6875386,32.7602585 12.5628837,33.2857068 12.4707474,33.8581023 C12.3768046,34.3691053 12.2846683,34.9721971 12.2232442,35.4976454 C12.1133847,36.4304814 11.519401,37.2362367 10.6605413,37.6174951 L10.6605413,37.6174951 L3.49198059,40.8387999 C2.88036574,41.0877927 2.51061562,41.7145665 2.58868413,42.3700031 C2.68262697,43.2981145 2.80547528,44.2262259 2.96084228,45.2012845 C3.14692135,46.2070394 3.33119382,47.1044545 3.53353223,47.9856186 C3.6870367,48.615461 4.23218696,49.0725667 4.87944396,49.1141587 L4.87944396,49.1141587 L12.7146375,49.7732261 C13.6470796,49.843807 14.4721792,50.4032118 14.882549,51.2430367 C15.1300522,51.7540397 15.3775554,52.2325407 15.6557707,52.7128474 C15.933986,53.193154 16.2122014,53.687906 16.506676,54.1357107 C17.0305874,54.9129667 17.0954672,55.9118786 16.6764957,56.7503124 L16.6764957,56.7503124 L13.2439692,63.8339328 C12.9598385,64.4141395 13.0775891,65.1108358 13.5366372,65.5655648 C14.3893491,66.3853363 15.037916,66.9739828 15.641318,67.4994311 C16.3693749,68.1187739 17.128144,68.7056147 17.886913,69.2635649 C18.1473627,69.4601339 18.4638706,69.568324 18.7902095,69.5723335 C19.1094112,69.5660817 19.4192576,69.4634821 19.6790532,69.2780103 L19.6790532,69.2780103 L26.101491,64.7457932 C26.8759654,64.2127858 27.8715334,64.1191576 28.7318903,64.4984173 C29.2268968,64.715097 29.7688746,64.951639 30.2638811,65.1322054 L30.2638811,65.1322054 L31.4237138,65.5204232 L31.826584,65.6594593 L32.0044834,65.7154245 C32.8208639,66.0054455 33.4384695,66.6937929 33.6331769,67.5463783 L33.6331769,67.5463783 L35.5680379,75.171698 C35.7099912,75.8112244 36.259627,76.2787276 36.9139496,76.3164891 C38.0286175,76.3941327 38.9264942,76.4392743 39.7466873,76.4392743 L39.7466873,76.4392743 L40.2308542,76.4392743 C40.9589112,76.4392743 41.732133,76.424829 42.6137503,76.3616307 C43.2563313,76.3132575 43.8003416,75.8690426 43.9759214,75.2493416 L43.9759214,75.2493416 L45.9884659,67.6384672 C46.2159977,66.7317662 46.9135913,66.0172899 47.8149313,65.7677992 C48.246707,65.6594593 48.6658366,65.5204232 49.0994189,65.365136 L49.0994189,65.365136 L49.4390584,65.2567962 C50.0117483,65.0563675 50.5230141,64.8396878 51.0180206,64.6374534 C51.351224,64.4980815 51.708272,64.4245012 52.0694577,64.4207737 C52.627055,64.4205031 53.1699226,64.5996776 53.6177078,64.9317766 L53.6177078,64.9317766 L59.9877544,69.5416372 C60.2445843,69.727574 60.5522951,69.8303016 60.8693718,69.8359605 C61.1882701,69.8379547 61.4988742,69.7344732 61.7527957,69.5416372 C62.4176219,69.0468852 63.207103,68.4744897 63.9965841,67.8081996 C64.6867026,67.2213588 65.3894673,66.618267 66.131977,65.9212806 L66.131977,65.9212806 L66.2326785,65.8128135 C66.6112249,65.36293 66.697268,64.7286339 66.4409043,64.1896487 L66.4409043,64.1896487 L63.0824481,57.0897773 C62.6781486,56.2379138 62.7608538,55.2349398 63.2992393,54.4607303 C63.5991337,53.9804236 63.9243204,53.4856716 64.2025357,53.0071706 C64.5114631,52.5124186 64.791485,51.9707194 65.0227289,51.521109 C65.4291183,50.6692565 66.2809711,50.1188751 67.2249657,50.0982457 L67.2249657,50.0982457 L75.0709987,49.5421011 C75.7203137,49.5047205 76.2681683,49.045963 76.418717,48.413561 C76.6752532,47.4078061 76.8830114,46.510391 77.0365718,45.6292269 C77.2063916,44.607221 77.3473058,43.7314739 77.439442,42.8286418 C77.5345621,42.1801267 77.1775411,41.5497139 76.5722774,41.2974386 L76.5722774,41.2974386 L69.4235893,38.0039072 C68.5622336,37.6071364 67.9781971,36.7810946 67.8915985,35.8371102 C67.8283677,35.2809657 67.7506842,34.6941248 67.658548,34.1524256 C67.5664117,33.6107263 67.4580162,33.0383308 67.3333612,32.4659353 L67.3333612,32.4659353 L67.2953752,32.284484 C67.1488249,31.4355729 67.4303307,30.5636486 68.0559984,29.9596734 L68.0559984,29.9596734 L73.7106343,24.4848997 C74.1835446,24.0368282 74.303546,23.3304347 74.0051089,22.7514621 C73.5932057,21.8847434 73.1542036,21.0505265 72.6899093,20.2452003 C72.2256149,19.4398741 71.7450612,18.6670498 71.2030833,17.8635293 C70.9441635,17.4355621 70.4821814,17.1719033 69.9818265,17.1665429 C69.8348762,17.1647349 69.6885574,17.186062 69.5482442,17.2297412 L69.5482442,17.2297412 L62.2893538,19.2159717 L62.2893538,19.1997208 L61.9497143,19.2936153 C61.7133059,19.3526567 61.4707447,19.3835674 61.2270772,19.3857042 C60.5519006,19.3792484 59.9050631,19.1135349 59.4204843,18.6435762 L59.4204843,18.6435762 L59.4060315,18.6273252 C59.0555525,18.2716094 58.6310031,17.9014482 58.152256,17.4987851 C57.7331265,17.1430693 57.3158035,16.8036044 56.820797,16.4316376 C56.0636606,15.8710611 55.6629333,14.9495869 55.76936,14.0138533 L55.76936,14.0138533 L56.5732938,6.20255022 C56.6623283,5.55109059 56.2999605,4.92172591 55.6916765,4.67134703 C54.8245119,4.2849349 53.9428945,3.92921906 53.0757299,3.60419951 C52.1164291,3.26473465 51.2348117,2.9704114 50.3839065,2.72303541 C50.2379693,2.67958395 50.0863317,2.65828038 49.9340648,2.65983716 C49.4422733,2.6544077 48.9814732,2.89931573 48.7110014,3.30987626 L48.7110014,3.30987626 L44.2089719,9.79040489 C43.7123616,10.513908 42.888161,10.9430571 42.0103483,10.935196 L42.0103483,10.935196 L41.8405285,10.935196 C41.2985507,10.8882487 40.74212,10.8738034 40.138718,10.8738034 C39.6129995,10.8738034 39.0547622,10.8882487 38.4676196,10.9207506 L38.4676196,10.9207506 L38.3285119,10.9207506 C37.442851,10.9285108 36.6120925,10.4926715 36.1154356,9.7597086 L36.1154356,9.7597086 L31.7037357,3.25028934 C31.4377779,2.83461305 30.9779429,2.58365961 30.4842854,2.58365961 Z M40.9899532,21.7283951 C45.0465356,21.7288521 48.9370722,23.3914162 51.8069731,26.3508909 C56.9741951,31.6793896 57.7748686,40.0339687 53.7192387,46.3043101 C49.6636088,52.5746515 41.8815141,55.0139307 35.1330961,52.1300925 C28.3846781,49.2462544 24.5499465,41.8426937 25.9745249,34.4480108 C27.3991033,27.0533278 33.6861251,21.7275722 40.9899532,21.7283951 Z M40.9899532,24.3754493 C37.6150224,24.3754493 34.3783996,25.7597771 31.9924745,28.2237392 C29.6065494,30.6877013 28.2668772,34.0293459 28.2683224,37.5131679 C28.2683224,44.7658213 33.9639912,50.6452585 40.9899532,50.6452585 C48.0159152,50.6452585 53.7115827,44.7658213 53.7115827,37.5131679 C53.7115827,30.2605146 48.0159152,24.3810774 40.9899532,24.3810774 L40.9899532,24.3810774 Z" id="Combined-Shape"></path>
        </g>
    </g>
</svg>