<?xml version="1.0" encoding="UTF-8"?>
<svg width="80px" height="63px" viewBox="0 0 80 63" version="1.1" xmlns="http://www.w3.org/2000/svg" xmlns:xlink="http://www.w3.org/1999/xlink">
    <!-- Generator: Sketch 62 (91390) - https://sketch.com -->
    <title>Icons/Graphical/keyboard</title>
    <desc>Created with Sketch.</desc>
    <g id="Page-1" stroke="none" stroke-width="1" fill="none" fill-rule="evenodd">
        <g id="Icons/Graphical/keyboard" transform="translate(0.000000, -9.000000)" fill="#006DAE" fill-rule="nonzero">
            <path d="M80,41.7710843 L80,71.6506024 L0,71.6506024 L0,41.7710843 L80,41.7710843 Z M77.461573,62.5279073 L64.5285393,62.5279073 L64.5285393,69.1391698 L77.461573,69.1391698 L77.461573,62.5279073 Z M61.9721348,62.5279073 L18.0602247,62.5279073 L18.0602247,69.1391698 L61.9721348,69.1391698 L61.9721348,62.5279073 Z M15.4894382,62.5279073 L2.57078652,62.5279073 L2.57078652,69.1391698 L15.4894382,69.1391698 L15.4894382,62.5279073 Z M77.461573,44.2807521 L67.6260674,44.2807521 L67.6260674,50.8955444 L70.7235955,50.8955444 L70.7235955,60.0182395 L77.461573,60.0182395 L77.461573,44.2807521 Z M68.152809,53.4034472 L61.4148315,53.4034472 L61.4148315,60.0182395 L68.152809,60.0182395 L68.152809,53.4034472 Z M58.858427,53.4034472 L52.1204494,53.4034472 L52.1204494,60.0182395 L58.858427,60.0182395 L58.858427,53.4034472 Z M49.5658427,53.4034472 L42.8278652,53.4034472 L42.8278652,60.0182395 L49.5658427,60.0182395 L49.5658427,53.4034472 Z M40.2696629,53.4034472 L33.5334831,53.4034472 L33.5334831,60.0182395 L40.2696629,60.0182395 L40.2696629,53.4034472 Z M30.9788764,53.4034472 L24.2408989,53.4034472 L24.2408989,60.0182395 L30.9770787,60.0182395 L30.9788764,53.4034472 Z M21.6844944,53.4034472 L14.9465169,53.4034472 L14.9465169,60.0182395 L21.6826966,60.0182395 L21.6844944,53.4034472 Z M12.4044944,53.4034472 L2.57078652,53.4034472 L2.57078652,60.0182395 L12.4044944,60.0182395 L12.4044944,53.4034472 Z M65.0534831,44.2807521 L58.3173034,44.2807521 L58.3173034,50.8955444 L65.0534831,50.8955444 L65.0534831,44.2807521 Z M55.7608989,44.2807521 L49.0229213,44.2807521 L49.0229213,50.8955444 L55.7608989,50.8955444 L55.7608989,44.2807521 Z M46.4665169,44.2807521 L39.7303371,44.2807521 L39.7303371,50.8955444 L46.4665169,50.8955444 L46.4665169,44.2807521 Z M37.1739326,44.2807521 L30.4359551,44.2807521 L30.4359551,50.8955444 L37.1721348,50.8955444 L37.1739326,44.2807521 Z M27.8795506,44.2807521 L21.1433708,44.2807521 L21.1433708,50.8955444 L27.8777528,50.8955444 L27.8795506,44.2807521 Z M18.5869663,44.2807521 L11.8489888,44.2807521 L11.8489888,50.8955444 L18.5851685,50.8955444 L18.5869663,44.2807521 Z M9.30876404,44.2807521 L2.57078652,44.2807521 L2.57078652,50.8955444 L9.30876404,50.8955444 L9.30876404,44.2807521 Z M40.1844857,9 C40.881081,9 41.4457831,9.55656101 41.4457831,10.2431138 C41.4370371,16.7171421 36.1142126,21.9632301 29.5454862,21.97185 L29.5454862,21.97185 L23.466562,21.97185 C18.2910247,21.9804641 14.0975999,26.1134343 14.0888599,31.2143584 L14.0888599,31.2143584 L14.0729834,31.2143584 L14.0729834,36.9518072 L11.5662651,36.9518072 L11.5662651,31.2143584 C11.5759801,24.7407265 16.8982378,19.4951972 23.466562,19.4856222 L23.466562,19.4856222 L29.5454862,19.4856222 C34.7210235,19.4770082 38.9144483,15.344038 38.9231883,10.2431138 C38.9231884,9.55656101 39.4878904,9 40.1844857,9 Z" id="Combined-Shape"></path>
        </g>
    </g>
</svg>