<?xml version="1.0" encoding="UTF-8"?>
<svg width="73px" height="78px" viewBox="0 0 73 78" version="1.1" xmlns="http://www.w3.org/2000/svg" xmlns:xlink="http://www.w3.org/1999/xlink">
    <!-- Generator: Sketch 62 (91390) - https://sketch.com -->
    <title>Icons/Graphical/leaf</title>
    <desc>Created with Sketch.</desc>
    <g id="Page-1" stroke="none" stroke-width="1" fill="none" fill-rule="evenodd">
        <g id="Icons/Graphical/leaf" transform="translate(-4.000000, -1.000000)" fill="#006DAE" fill-rule="nonzero">
            <path d="M76.6780502,21.4006726 C76.0279477,15.0230965 74.5158321,8.7557687 72.1804713,2.7593722 L71.5031251,1 L70.1177263,2.31165919 C66.7598953,5.47363229 62.632599,7.9203139 57.5335367,9.79860987 C52.9745451,11.4687892 48.2006089,12.51287 43.1647656,13.6304036 L43.1015466,13.6461435 C41.1616271,14.0641256 39.1602948,14.5100897 37.1734125,14.9280717 L37.1101935,14.9438117 C30.580576,16.3306726 23.8197576,17.7769955 18.2131372,20.5647085 C15.2093325,22.0565022 12.7600486,23.8158744 10.7117537,25.9337668 C8.4178078,28.3052466 6.70908907,31.0807175 5.44470947,34.4193274 C4.62828149,36.5669507 4.10446709,39.7131839 4.012348,42.845426 C3.85881619,48.6901794 5.16654595,52.493991 6.2918438,54.6713453 C6.66030127,55.3796403 7.08800518,56.0575529 7.57067346,56.698296 L7.98611247,57.2509417 L9.91158199,55.6402242 L9.55033067,55.1627803 C9.17278501,54.6578517 8.83755851,54.1244916 8.54785827,53.5678027 C7.54719213,51.628296 6.39299417,48.2144843 6.53026967,42.8996413 C6.62961378,40 7.09201547,37.2017937 7.83258066,35.2780269 C8.98677862,32.2507175 10.5889282,29.714843 12.7455986,27.5392377 C14.6710681,25.5909865 17.0047516,23.966278 19.8604432,22.579417 C25.1581938,20.0138117 31.5360857,18.6566816 37.711677,17.3450224 C39.3896894,16.9952466 41.083958,16.6279821 42.716814,16.2712108 L43.6560674,16.0613453 C53.3285714,13.9294619 62.4772609,11.9165022 70.1484326,5.60829596 L70.4554962,5.35470852 L70.580128,5.7132287 C74.6460115,17.2995516 75.5545586,29.3790583 73.1522373,39.7289238 C71.9510767,44.8583857 69.9479381,49.5226457 67.2060407,53.5817937 C64.2425269,57.9608664 60.3589436,61.6859246 55.8085617,64.5140359 C52.6799062,66.372878 49.3214169,67.8418893 45.8127377,68.8862332 C41.9810729,70.0627893 37.9887345,70.6758956 33.9691134,70.7050673 C33.5681244,70.7050673 33.1526854,70.7050673 32.7679527,70.6910762 C29.5329472,70.5564126 26.5291425,69.9740359 23.8342077,68.9159641 C20.8863446,67.7748999 18.2317839,66.023606 16.0564669,63.7847534 L15.8866787,63.6098655 L16.0673044,63.4349776 C18.500332,60.9865471 21.5962558,58.7532287 25.2611504,56.7892377 C28.3570742,55.1190583 31.4367416,53.6272646 34.40984,52.1669507 L35.1034425,51.8171749 C46.715866,46.2085202 56.7586526,41.3623767 61.1478561,31.3255605 L61.4097633,30.7291928 L59.0525985,29.8547534 L58.8069476,30.4213901 C57.000691,34.5225112 54.0023051,37.9520628 49.3656444,41.2329596 C44.9764409,44.3354709 39.6317277,46.9150673 33.994401,49.6450673 L33.2393857,50.0175785 C30.235581,51.4778924 27.1252072,52.9906726 24.0455397,54.6398655 C19.1000092,57.3086547 15.1569511,60.4111659 12.3229345,63.8564574 C8.79712168,68.151704 6.90416478,73.0275785 6.72353913,78.3511659 L6.69283276,79 L9.23784828,79 L9.26855464,78.3896413 C9.42923643,73.7825866 11.1070509,69.345958 14.0569408,65.7277578 L14.2375665,65.4899103 L14.4543173,65.7085202 C16.8493424,68.1210068 19.7519128,70.0069111 22.9653983,71.2384753 C25.905984,72.3717489 29.1879522,73.0135874 32.699315,73.1482511 C33.0840476,73.1622422 33.4687803,73.1622422 33.8697692,73.1622422 C37.6123329,73.1622422 41.9401236,72.5361435 46.0674199,71.38713 C50.333798,70.1943946 54.184737,68.5399552 57.2029917,66.6004484 C62.0409308,63.6010556 66.1713608,59.6477191 69.3247796,54.9983857 C72.2509153,50.689148 74.382298,45.7380717 75.6466777,40.2955605 C76.98692,34.4035874 77.3337213,28.0516592 76.6780502,21.4006726 Z" id="Path"></path>
        </g>
    </g>
</svg>