<?xml version="1.0" encoding="UTF-8"?>
<svg width="78px" height="80px" viewBox="0 0 78 80" version="1.1" xmlns="http://www.w3.org/2000/svg" xmlns:xlink="http://www.w3.org/1999/xlink">
    <!-- Generator: Sketch 62 (91390) - https://sketch.com -->
    <title>Icons/Graphical/letter</title>
    <desc>Created with Sketch.</desc>
    <g id="Page-1" stroke="none" stroke-width="1" fill="none" fill-rule="evenodd">
        <g id="Icons/Graphical/letter" transform="translate(-1.000000, 0.000000)" fill="#006DAE" fill-rule="nonzero">
            <path d="M9.9172364,20.2201889 L9.9172364,23.8799464 L4.39920066,27.9054912 C4.14767498,28.0481882 3.98986708,28.3124624 3.9837428,28.6012411 L3.9837428,31.3936682 C3.98339397,31.7454486 4.15460211,32.0753722 4.44263489,32.2779682 L32.4161679,54.7701103 L34.5085648,53.316389 C37.5579122,51.1753086 41.6270433,51.1828602 44.6683978,53.335244 L46.7645716,54.7701103 L74.7513237,32.2798537 C75.0389157,32.0760167 75.2099083,31.7458058 75.2102158,31.3936682 L75.2102158,28.6031266 C75.2014811,28.3131678 75.0447434,28.0494873 74.7947579,27.9054912 L70.2379406,24.5738108 L72.3605526,22.4714772 L76.5453463,25.5241034 C77.5584827,26.2260633 78.1669353,27.3756806 78.1769626,28.6068976 C78.1769626,45.7335322 78.1719267,62.8645664 78.161855,80 L1,80 C1.01258963,62.8733654 1.01762548,45.7423312 1.01510756,28.6068976 C1.02588293,27.3754137 1.63500417,26.2258637 2.64861232,25.5241034 L9.9172364,20.2201889 Z M36.1873922,55.7543419 L5.44539909,77.0303358 L73.7523364,77.0303358 L42.970686,55.7411434 C40.9380517,54.3010394 38.2143894,54.3063389 36.1873922,55.7543419 Z M3.96863524,35.6963816 L3.96863524,74.4528559 L29.8762096,56.5123133 L3.96863524,35.6963816 Z M75.2102158,35.6982671 L49.300753,56.5292828 L75.1951082,74.4415429 L75.2102158,35.6982671 Z M67.1031222,0.785979674 C67.4489694,0.785979674 67.7824166,0.906032051 68.0475777,1.12301862 L68.1568744,1.22188021 L68.1606513,1.22188021 L77.7463972,10.7926836 C78.0259303,11.0716882 78.1829783,11.4501554 78.1829783,11.8447932 C78.1829783,12.1901012 78.0627384,12.5230287 77.8454131,12.7877764 L77.7463972,12.8969028 L50.0429118,40.5383483 C49.8935418,40.686802 49.7147145,40.8024089 49.5179241,40.8777385 L34.1799754,46.6285167 C33.8410915,46.7530251 33.4688838,46.7530251 33.13,46.6285167 C32.4111439,46.3494816 32.0328622,45.5732119 32.2369401,44.8465053 L32.2820883,44.7109622 L37.9757494,29.5364496 C38.0473842,29.2918765 38.1769292,29.0681129 38.3534384,28.8840663 L66.04937,1.22188021 C66.3288102,0.942782779 66.7078683,0.785979674 67.1031222,0.785979674 Z M67.1068991,4.37632348 L40.6800024,30.7733383 L37.3997738,39.4749257 L39.4374057,41.5037249 L48.1620207,38.230495 L74.6002481,11.8447932 L67.1068991,4.37632348 Z M48.2621083,14.8069153 L45.2915846,17.7690375 L15.8563953,17.7690375 L15.8563953,37.6516462 L12.8877601,35.2589453 L12.8877601,14.8069153 L48.2621083,14.8069153 Z M66.3061985,28.4899965 L66.3061985,35.2589453 L63.3394517,37.6441042 L63.3394517,31.4577752 L66.3061985,28.4899965 Z M43.2482873,1.18982669 L54.0124228,9.05990811 L51.9011415,11.1754403 L41.4825914,3.55990152 C40.3498969,2.76024235 38.8343777,2.76402524 37.7057018,3.56932903 L26.3750329,11.8447932 L21.3744311,11.8447932 L35.9607788,1.17851368 C38.1350491,-0.396998428 41.0789344,-0.39242839 43.2482873,1.18982669 Z" id="Combined-Shape"></path>
        </g>
    </g>
</svg>