<?xml version="1.0" encoding="UTF-8"?>
<svg width="82px" height="78px" viewBox="0 0 82 78" version="1.1" xmlns="http://www.w3.org/2000/svg" xmlns:xlink="http://www.w3.org/1999/xlink">
    <!-- Generator: Sketch 62 (91390) - https://sketch.com -->
    <title>Icons/Graphical/lifebelt</title>
    <desc>Created with Sketch.</desc>
    <g id="Page-1" stroke="none" stroke-width="1" fill="none" fill-rule="evenodd">
        <g id="Icons/Graphical/lifebelt" fill="#006DAE" fill-rule="nonzero">
            <path d="M78.7841235,23.8831171 C70.0083578,4.035731 45.976939,-5.28869676 25.1101591,3.05908586 C4.24337916,11.4068685 -5.56277682,34.2645579 3.21849902,54.1136911 C11.9997749,73.9628243 36.0238468,83.2907463 56.8906267,74.9394694 C77.7577702,66.591306 87.5597271,43.7328211 78.7841235,23.8831171 Z M58.5932564,38.9992777 C58.5851365,48.1566333 50.7757144,55.5745124 41.1488679,55.5690496 C31.5220214,55.5635807 23.721914,48.136839 23.7252914,38.9794807 C23.7286709,29.8221223 31.5342562,22.4005901 41.1611044,22.4015516 C45.7871127,22.4020137 50.2232706,24.1513482 53.4928019,27.2643778 C56.7623333,30.3774073 58.5971491,34.5988755 58.5932564,38.9992777 Z M57.9761181,28.2212385 L57.821835,28.0098359 C56.4418444,26.1100569 54.7119874,24.463379 52.7158014,23.1493229 L52.4917236,23.002564 L61.3721814,8.36162254 L61.6293198,8.52410555 C66.2632579,11.357896 70.2031038,15.1056006 73.1821801,19.5135473 L73.3529935,19.7581454 L57.9761181,28.2212385 Z M50.0544191,21.6642632 L49.7972807,21.5506998 C47.0917706,20.3375148 44.1355973,19.7143493 41.1445741,19.726697 C38.1534241,19.7253687 35.198428,20.3486181 32.488194,21.5524469 L32.2310556,21.6660103 L23.3524345,7.02506882 L23.6261033,6.89403414 C34.6056965,1.50236016 47.650391,1.50236016 58.6299842,6.89403414 L58.9036529,7.02506882 L50.0544191,21.6642632 Z M20.692889,8.52410555 L20.9500274,8.36162254 L29.8286484,23.002564 L29.6064074,23.1493229 C27.6085922,24.4626953 25.8774082,26.1094517 24.4967004,28.0098359 L24.3424173,28.2212385 L8.9508483,19.7756167 L9.12166165,19.5310186 C12.1119949,15.1210672 16.0568434,11.368604 20.692889,8.52410555 L20.692889,8.52410555 Z M7.39148767,22.3508849 L7.52740367,22.0905627 L22.9208094,30.5361845 L22.799587,30.7807826 C21.5249161,33.3558856 20.8692546,36.1687377 20.8802326,39.0150018 C20.8795522,41.8602027 21.5347211,44.6709414 22.799587,47.2492211 L22.9208094,47.4938191 L7.53291378,55.939441 L7.39699777,55.6459233 C1.72891561,45.2024036 1.72891561,32.7944045 7.39699777,22.3508849 L7.39148767,22.3508849 Z M24.3424173,49.7808111 L24.4967004,49.9922137 C25.8774556,51.8920707 27.6086502,53.5382452 29.6064074,54.8509796 L29.8286484,54.9977384 L20.9500274,69.640427 L20.692889,69.4761969 C16.0588267,66.6419638 12.1184702,62.8943694 9.13819198,58.4867551 L8.96737862,58.2421571 L24.3424173,49.7808111 Z M32.2622796,56.3342921 L32.519418,56.4496027 C35.2265441,57.6621095 38.1836086,58.2857952 41.175798,58.2753525 C44.1668697,58.2759997 47.1217124,57.6527827 49.8321781,56.4496027 L50.0893165,56.3342921 L58.9605907,70.9734865 L58.686922,71.1045212 C47.7110895,76.4919161 34.6729194,76.4932182 23.695898,71.1080154 L23.4203926,70.9769807 L32.2622796,56.3342921 Z M61.6256464,69.4761969 L61.368508,69.640427 L52.4880502,54.9977384 L52.712128,54.8509796 C54.7089144,53.5377249 56.4394143,51.8916193 57.8199983,49.9922137 L57.9742814,49.7808111 L73.3676871,58.2264329 L73.195037,58.471031 C70.2048862,62.8791071 66.2606698,66.6297777 61.6256464,69.4727026 L61.6256464,69.4761969 Z M74.9270477,55.6494175 L74.789295,55.9114869 L59.3958893,47.4641179 L59.5171117,47.2195199 C60.7921344,44.6445311 61.4478136,41.8316026 61.436466,38.9853006 C61.4364064,36.139043 60.7793119,33.3275162 59.5116016,30.7493343 L59.3903792,30.5047362 L74.7837849,22.0591143 L74.9215376,22.3211837 C80.5878027,32.7762234 80.5878027,45.1926307 74.9215376,55.6476704 L74.9270477,55.6494175 Z" id="Shape"></path>
        </g>
    </g>
</svg>