<?xml version="1.0" encoding="UTF-8"?>
<svg width="80px" height="75px" viewBox="0 0 80 75" version="1.1" xmlns="http://www.w3.org/2000/svg" xmlns:xlink="http://www.w3.org/1999/xlink">
    <!-- Generator: Sketch 62 (91390) - https://sketch.com -->
    <title>Icons/Graphical/lightbulb</title>
    <desc>Created with Sketch.</desc>
    <g id="Page-1" stroke="none" stroke-width="1" fill="none" fill-rule="evenodd">
        <g id="Icons/Graphical/lightbulb" transform="translate(0.000000, -3.000000)" fill="#006DAE" fill-rule="nonzero">
            <path d="M40.0026567,20 C52.8060857,20 63.2169636,30.2295535 63.2098729,42.7977886 C63.2098729,51.8461731 57.7672785,60.0393072 49.3369754,63.6803678 L49.3369754,63.6803678 L49.3369754,78 L30.5370936,78 L30.5370936,63.6176312 C22.1771987,59.9486755 16.792959,51.7942225 16.7901235,42.7977886 C16.7901235,30.2295535 27.2134164,20 40.0026567,20 Z M47.0029523,74.1225287 L32.9136824,74.1225287 L32.9136824,75.6909441 L47.0029523,75.6909441 L47.0029523,74.1225287 Z M46.9905373,70.2398293 L32.9012674,70.2398293 L32.9012674,71.8082447 L46.9905373,71.8082447 L46.9905373,70.2398293 Z M40.0359557,22.3155988 C30.047734,22.2921551 21.4456057,29.2320491 19.5249849,38.8631869 C17.6043641,48.4943247 22.9048343,58.1109123 32.1634607,61.7930413 L32.1634607,61.7930413 L32.9012674,62.0927829 L32.9012674,67.9203173 L35.7265704,67.9203173 L31.8956511,44.4725077 L34.226127,44.1100294 L38.1191214,67.9203173 L41.7726833,67.9203173 L45.3996417,44.1222282 L47.728344,44.4603089 L44.1528193,67.9203173 L47.0029523,67.9203173 L47.0029523,62.9170723 L46.9905373,62.1293792 L47.715929,61.8296376 C56.9923976,58.1911235 62.3396828,48.5995909 60.4660308,38.9595249 C58.5923787,29.3194588 50.0241774,22.3391615 40.0359557,22.3155988 Z M11.8518519,37 L11.8518519,39 L0,39 L0,37 L11.8518519,37 Z M80,37 L80,39 L68.1481481,39 L68.1481481,37 L80,37 Z M12.8657302,11.387037 L21.2124504,19.6190638 L19.5242926,21.2840244 L11.1775724,13.0519976 L12.8657302,11.387037 Z M67.1366236,11.3709252 L68.8247815,13.0358858 L60.47679,21.2691664 L58.7886322,19.6042057 L67.1366236,11.3709252 Z M40.4938272,3 L40.4938272,15 L38.5185185,15 L38.5185185,3 L40.4938272,3 Z" id="Combined-Shape"></path>
        </g>
    </g>
</svg>