<?xml version="1.0" encoding="UTF-8"?>
<svg width="80px" height="48px" viewBox="0 0 80 48" version="1.1" xmlns="http://www.w3.org/2000/svg" xmlns:xlink="http://www.w3.org/1999/xlink">
    <!-- Generator: Sketch 62 (91390) - https://sketch.com -->
    <title>Icons/Graphical/links-2</title>
    <desc>Created with Sketch.</desc>
    <g id="Page-1" stroke="none" stroke-width="1" fill="none" fill-rule="evenodd">
        <g id="Icons/Graphical/links-2" transform="translate(0.000000, -16.000000)" fill="#006DAE" fill-rule="nonzero">
            <path d="M39.8047549,21.5573559 C49.539929,13.6082289 63.8587017,14.2570455 72.8034925,23.0526046 L72.8034925,23.0526046 L72.8431389,23.0914493 C81.4194634,31.5022348 82.4063866,44.80174 75.161982,54.3395407 C67.9175774,63.8773414 54.6318598,66.7701191 43.9462856,61.1363186 L43.9462856,61.1363186 L43.142544,60.7107924 L43.8075231,60.1051679 C44.1048714,59.8314892 44.4148346,59.5295599 44.7085787,59.2417558 L44.7085787,59.2417558 L45.0473756,58.888622 L45.4816844,59.102268 C55.3090529,64.0547198 67.3623342,61.0640804 73.5994073,52.1257468 C79.8364805,43.1874133 78.3060986,31.0977128 70.0293541,23.9230656 C61.7526096,16.7484183 49.3188539,16.7333883 41.0240657,23.8880037 C32.7292775,31.0426192 31.168453,43.128583 37.3829966,52.0819681 L37.3829966,52.0819681 L37.6929597,52.5216197 L37.2910889,52.9012385 C36.9811258,53.1890426 36.6567458,53.4768466 36.3323658,53.7487596 L36.3323658,53.7487596 L35.7755134,54.2043022 L35.3574236,53.6286942 C28.1398002,43.4228395 30.0695808,29.5064828 39.8047549,21.5573559 Z M6.77763977,23.4293363 C14.3857845,15.6214739 26.3792186,13.7496449 36.0877357,18.854876 L36.0877357,18.854876 L36.8957282,19.2771122 L36.2302165,19.8848497 C35.9326301,20.1569182 35.6224187,20.460787 35.3284393,20.7487556 L35.3284393,20.7487556 L34.9875675,21.1020913 L34.5547144,20.8900899 C24.7411387,15.9438628 12.7034928,18.9247164 6.46849185,27.8450142 C0.233490897,36.765312 1.75010296,48.8367024 10.0070495,56.0099693 C18.2639961,63.1832363 30.680279,63.2161238 38.9767077,56.0867025 C47.2731364,48.9572812 48.8563713,36.8941016 42.6707096,27.9409046 L42.6707096,27.9409046 L42.3623018,27.4868682 L42.7608874,27.1034989 C43.0666125,26.8029126 43.3880788,26.5180932 43.7239855,26.2501931 L43.7239855,26.2501931 L44.2812838,25.79969 L44.6997084,26.3756273 C47.5330452,30.3708233 49.0349564,35.1269309 48.9993824,39.9914201 C49.0030139,50.7851108 41.6498709,60.2531603 31.0294391,63.1298673 C20.4090074,66.0065742 9.13468489,61.5840596 3.47674043,52.3219262 C-2.18120404,43.0597929 -0.830504998,31.2371987 6.77763977,23.4293363 Z" id="Combined-Shape"></path>
        </g>
    </g>
</svg>