<?xml version="1.0" encoding="UTF-8"?>
<svg width="77px" height="65px" viewBox="0 0 77 65" version="1.1" xmlns="http://www.w3.org/2000/svg" xmlns:xlink="http://www.w3.org/1999/xlink">
    <!-- Generator: Sketch 62 (91390) - https://sketch.com -->
    <title>Icons/Graphical/magazine</title>
    <desc>Created with Sketch.</desc>
    <g id="Page-1" stroke="none" stroke-width="1" fill="none" fill-rule="evenodd">
        <g id="Icons/Graphical/magazine" transform="translate(-2.000000, -8.000000)" fill="#006DAE" fill-rule="nonzero">
            <path d="M66.7813333,37.4266667 L66.7813333,52.1386667 L49.1253333,52.1386667 L49.1253333,37.4266667 L66.7813333,37.4266667 L66.7813333,37.4266667 Z M15.2426667,69.792 L71.152,69.792 C73.5863776,69.7846785 75.5580118,67.8130443 75.5653333,65.3786667 L75.5653333,10.9413333 L16.7146667,10.9413333 L16.7146667,65.3866667 C16.7146667,67.048 16.1626667,68.5813333 15.2293333,69.8106667 L15.2426667,69.792 Z M7.88533333,9.472 C7.88533333,8.65903685 8.54437018,8 9.35733333,8 C10.1702965,8 10.8293333,8.65903685 10.8293333,9.472 L10.8293333,65.3813333 C10.8293333,66.1942965 10.1702965,66.8533333 9.35733333,66.8533333 C8.54437018,66.8533333 7.88533333,66.1942965 7.88533333,65.3813333 L7.88533333,9.472 L7.88533333,9.472 Z M9.35733333,72.7361909 C5.312,72.7653333 2,69.4106667 2,65.3786667 L2,12.4133333 C2,11.6003702 2.65903685,10.9413333 3.472,10.9413333 C4.28496315,10.9413333 4.944,11.6003702 4.944,12.4133333 L4.944,65.3786667 C4.94400004,67.8160833 6.91991666,69.7919999 9.35733333,69.7919999 C11.79475,69.7919999 13.7706666,67.8160833 13.7706667,65.3786667 L13.7706667,8 L78.5066667,8 L78.5066667,65.3786667 C78.5066667,69.4420097 75.2126763,72.7361909 71.1493333,72.7361909 L9.35733333,72.7361909 L9.35733333,72.7361909 Z M69.7226667,34.4826667 L46.1813333,34.4826667 L46.1813333,55.08 L69.7226667,55.08 L69.7226667,34.4826667 Z M22.6853333,16.8266667 L22.6853333,19.768 L69.6773333,19.768 L69.6773333,16.8266667 L22.6853333,16.8266667 Z M22.6853333,25.656 L22.6853333,28.5973333 L69.6773333,28.5973333 L69.6773333,25.656 L22.6853333,25.656 Z M22.6426667,34.4826667 L22.6426667,37.424 L40.2986667,37.424 L40.2986667,34.4826667 L22.6426667,34.4826667 Z M22.6853333,43.3093333 L22.6853333,46.2506667 L40.296,46.2506667 L40.296,43.3093333 L22.6853333,43.3093333 Z M22.6853333,52.1386667 L22.6853333,55.08 L40.296,55.08 L40.296,52.1386667 L22.6853333,52.1386667 Z M22.6853333,60.9653333 L22.6853333,63.9066667 L69.6773333,63.9066667 L69.6773333,60.9653333 L22.6853333,60.9653333 Z" id="Shape"></path>
        </g>
    </g>
</svg>