<?xml version="1.0" encoding="UTF-8"?>
<svg width="80px" height="79px" viewBox="0 0 80 79" version="1.1" xmlns="http://www.w3.org/2000/svg" xmlns:xlink="http://www.w3.org/1999/xlink">
    <!-- Generator: Sketch 62 (91390) - https://sketch.com -->
    <title>Icons/Graphical/mail-open</title>
    <desc>Created with Sketch.</desc>
    <g id="Page-1" stroke="none" stroke-width="1" fill="none" fill-rule="evenodd">
        <g id="Icons/Graphical/mail-open" transform="translate(0.000000, -1.000000)" fill="#006DAE" fill-rule="nonzero">
            <path d="M78.4335967,26.3117341 L43.6629269,2.11966351 C41.4900805,0.626778831 38.5551911,0.626778831 36.3823447,2.11966351 L1.61167486,26.3117341 C0.58895311,27.0334079 0.0149575393,28.0501503 0.0149575393,29.1682115 C0.0149575393,45.6156199 0.0149575393,62.6247252 0,79.3672023 L0,80 L79.9992875,80 L79.9992875,29.1628789 C80.0228353,28.0501503 79.4619276,27.0334079 78.4335967,26.3117341 Z M3.5000642,77.5559076 L36.3206448,55.9252459 C38.5271491,54.4322507 41.4863377,54.4322507 43.692842,55.9252459 L76.5452074,77.5559076 L3.5000642,77.5559076 Z M40.0226358,3.43325205 C40.7844497,3.42844346 41.5279575,3.65513525 42.1447367,4.08026996 L76.9210156,28.274118 C77.2551389,28.4617078 77.4604961,28.80286 77.4615439,29.1717665 L77.4615439,31.9109275 C77.4687572,32.3494521 77.2563581,32.7651871 76.8892308,33.0307662 L47.5182327,55.4968631 L45.1343749,53.9361991 C42.0493727,51.8751884 37.9360687,51.8751884 34.8510666,53.9361991 L32.4971238,55.482643 L3.15978018,33.0272111 C2.78035018,32.76982 2.55975924,32.3503872 2.57042948,31.9073724 L2.57042948,29.1682115 C2.57042948,28.8002645 2.74096908,28.5211936 3.13173479,28.270563 L37.8855774,4.07671492 C38.5079112,3.65137991 39.2561953,3.42482868 40.0226358,3.42962016 L40.0226358,3.43325205 Z M49.7020334,56.9366557 L77.4744445,35.677496 L77.4576173,75.2149115 L49.7020334,56.9366557 Z M30.3264109,56.9224356 L2.57082707,75.2291317 L2.57082707,35.677496 L30.3264109,56.9224356 Z" id="Shape"></path>
        </g>
    </g>
</svg>