<?xml version="1.0" encoding="UTF-8"?>
<svg width="68px" height="34px" viewBox="0 0 68 34" version="1.1" xmlns="http://www.w3.org/2000/svg" xmlns:xlink="http://www.w3.org/1999/xlink">
    <!-- Generator: Sketch 62 (91390) - https://sketch.com -->
    <title>Icons/Graphical/menu</title>
    <desc>Created with Sketch.</desc>
    <g id="Page-1" stroke="none" stroke-width="1" fill="none" fill-rule="evenodd">
        <g id="Icons/Graphical/menu" transform="translate(-6.000000, -23.000000)" fill="#006DAE" fill-rule="nonzero">
            <path d="M74,55 L74,57 L6,57 L6,55 L74,55 Z M74,38 L74,40 L6,40 L6,38 L74,38 Z M74,23 L74,25 L6,25 L6,23 L74,23 Z" id="Combined-Shape"></path>
        </g>
    </g>
</svg>