<?xml version="1.0" encoding="UTF-8"?>
<svg width="80px" height="21px" viewBox="0 0 80 21" version="1.1" xmlns="http://www.w3.org/2000/svg" xmlns:xlink="http://www.w3.org/1999/xlink">
    <!-- Generator: Sketch 62 (91390) - https://sketch.com -->
    <title>Icons/Graphical/minus</title>
    <desc>Created with Sketch.</desc>
    <g id="Page-1" stroke="none" stroke-width="1" fill="none" fill-rule="evenodd">
        <g id="Icons/Graphical/minus" transform="translate(0.000000, -30.000000)" fill="#006DAE" fill-rule="nonzero">
            <path d="M0,30 L0,50.4878049 L80,50.4878049 L80,30 L0,30 Z M2.78733032,47.5869774 L2.78733032,32.9027234 L77.2470588,32.9027234 L77.2470588,47.5869774 L2.78733032,47.5869774 Z" id="Shape"></path>
        </g>
    </g>
</svg>