<?xml version="1.0" encoding="UTF-8"?>
<svg width="80px" height="65px" viewBox="0 0 80 65" version="1.1" xmlns="http://www.w3.org/2000/svg" xmlns:xlink="http://www.w3.org/1999/xlink">
    <!-- Generator: Sketch 62 (91390) - https://sketch.com -->
    <title>Icons/Graphical/mortarboard</title>
    <desc>Created with Sketch.</desc>
    <g id="Page-1" stroke="none" stroke-width="1" fill="none" fill-rule="evenodd">
        <g id="Icons/Graphical/mortarboard" transform="translate(0.000000, -12.000000)" fill="#006DAE" fill-rule="nonzero">
            <path d="M75.4072,62.0607231 C75.4018618,59.374673 73.5030314,57.0466427 70.8252405,56.443086 L70.8252405,44.1252554 L80,44.1252554 L68.0410136,12 L11.9535661,12 L0,44.1252554 L17.2690727,44.1252554 L17.2690727,60.9269529 L18.0658566,61.2554284 C18.3079633,61.3613882 24.0281856,63.7278245 32.20561,64.9357666 C35.1752393,65.3768959 38.1742918,65.6017964 41.1780117,65.6086115 C42.8384299,65.6086115 44.4699399,65.5291417 46.0562808,65.3843299 C51.5614978,64.8686587 56.6475451,63.4717549 61.1536203,61.2165765 L61.8763268,60.863377 L61.8763268,44.1128934 L68.1783278,44.1128934 L68.1783278,56.443086 C66.0227668,56.9126378 64.3198256,58.5259632 63.7723585,60.617195 C63.2248914,62.7084267 63.9257303,64.9229627 65.5856181,66.3467984 C64.6009305,68.6425948 63.993857,72.5578106 69.0528027,75.7224776 L69.8080311,76.1975309 L70.5307376,75.6836257 C71.5513271,74.9101589 72.4043976,73.9460718 73.0403361,72.8474341 C74.237457,70.8448416 74.4072579,68.4101884 73.4992547,66.2673285 C74.7148584,65.1916812 75.4079963,63.6634626 75.4072,62.0607231 Z M71.1865938,64.7644649 L70.102534,65.3966919 L70.7114142,66.4792482 C72.4242287,69.5644453 70.7782646,71.8990936 69.685171,72.9922459 C67.365283,71.2121207 66.9461132,69.107052 68.4204345,66.5569521 L69.0672569,65.4373098 L67.9199603,64.8033168 C66.6392029,64.0969622 66.0027528,62.6384349 66.3676749,61.2460061 C66.7325969,59.8535773 68.0080776,58.8737632 69.4785395,58.8562644 C70.9490014,58.8387657 72.2485094,59.7879371 72.6480061,61.1712692 C73.0475029,62.5546013 72.4475708,64.0278417 71.184787,64.7644649 L71.1865938,64.7644649 Z M19.9141786,44.1128934 L59.2709698,44.1128934 L59.2709698,59.2651495 C53.9952121,61.7569716 47.8973757,63.0108296 41.1382628,63.0108296 C38.3014932,63.0055557 35.4690704,62.7936378 32.6645287,62.3768366 C28.3185354,61.7426699 24.050787,60.6733259 19.9286327,59.1856797 L19.9286327,44.1128934 L19.9141786,44.1128934 Z M66.205339,14.5712919 L70.7529699,26.7708007 L39.4380957,26.7708007 L39.4380957,29.3420927 L71.710556,29.3420927 L76.2455395,41.5398355 L3.76349429,41.5398355 L13.8018881,14.55893 L66.1981119,14.55893 L66.205339,14.5712919 Z" id="Shape" transform="translate(40.000000, 44.098765) scale(-1, 1) translate(-40.000000, -44.098765) "></path>
        </g>
    </g>
</svg>