<?xml version="1.0" encoding="UTF-8"?>
<svg width="75px" height="80px" viewBox="0 0 75 80" version="1.1" xmlns="http://www.w3.org/2000/svg" xmlns:xlink="http://www.w3.org/1999/xlink">
    <!-- Generator: Sketch 62 (91390) - https://sketch.com -->
    <title>Icons/Graphical/music</title>
    <desc>Created with Sketch.</desc>
    <g id="Page-1" stroke="none" stroke-width="1" fill="none" fill-rule="evenodd">
        <g id="Icons/Graphical/music" transform="translate(-3.000000, 0.000000)" fill="#006DAE" fill-rule="nonzero">
            <path d="M77.1255371,1.08200712 L77.1255371,1.02610342 L77.1095458,0.979216447 C76.9528787,0.403446778 76.4383108,0.00347037812 75.8497879,0 C75.760824,0.00358697738 75.6722894,0.0144421601 75.5850433,0.0324602137 L32.1118462,9.49100582 L32.0976318,9.49100582 C31.4695019,9.59068501 31.0069542,10.1405531 31.0084476,10.7858077 L31.0084476,59.5194085 L30.5411467,59.0451287 C30.1267995,58.6274959 29.6733479,58.2518278 29.1872179,57.923448 C26.8062932,56.2174834 23.6329115,55.2707272 20.271188,55.2707272 C19.6493047,55.2707272 18.9492418,55.3176142 18.1390167,55.3969614 C14.1554099,55.8387809 10.3903506,57.4816284 7.54212504,60.0243452 C4.61927348,62.630179 3.00027005,65.8834137 3.00027005,69.1835355 C2.99734857,69.5374209 3.01812722,69.8911131 3.0627884,70.2420991 C3.37373005,73.1004012 4.86802681,75.5475407 7.38931943,77.3472792 C9.77024411,79.0532438 12.9436258,80 16.3035725,80 C16.9272326,80 17.6272955,79.953113 18.4357438,79.8737658 C22.4193506,79.4319463 26.1844099,77.7890988 29.0326355,75.2481854 C31.9572638,72.6423516 33.5759372,69.3891168 33.5759372,66.0889951 L33.5759372,22.9133042 L74.5740387,14.0065822 L74.5740387,50.0734863 L74.1067378,49.5992065 C73.6923536,49.1821499 73.2388998,48.8070839 72.752809,48.4793292 C70.3736611,46.7733646 67.1985026,45.824805 63.8385559,45.824805 C63.2148958,45.824805 62.5148329,45.8734953 61.7063846,45.9528425 C57.7227778,46.3946621 53.9577185,48.0357062 51.1112698,50.578423 C48.1848646,53.1860601 46.567968,56.4447049 46.567968,59.7394166 C46.5628941,60.0879528 46.5836823,60.436382 46.6301563,60.7817501 L46.6301563,60.7979803 C46.941098,63.6562824 48.4336179,66.1034218 50.9549106,67.9049637 C53.3358352,69.6091249 56.5092169,70.5576845 59.8709404,70.5576845 C60.4928237,70.5576845 61.1928867,70.5089942 62.0031118,70.4314503 C65.9867186,69.9878274 69.7517778,68.3467833 72.6000034,65.8040665 C75.5246318,63.1982327 77.1433052,59.944998 77.1433052,56.6448762 L77.1433052,1.32726207 C77.15065,1.24507444 77.1446474,1.16222047 77.1255371,1.08200712 Z M33.5937053,11.8678148 L74.59003,2.95387945 L74.59003,11.3376313 L33.5901517,20.2443533 L33.5937053,11.8678148 Z M59.8709404,67.9193905 C57.0280453,67.9193905 54.3770456,67.1457554 52.433216,65.7553762 C50.5657893,64.4281142 49.4126399,62.5652586 49.1816547,60.5112484 L49.1816547,60.5112484 C49.1656634,60.2750101 49.1496721,60.0225418 49.1496721,59.7376133 C49.1496721,57.1948965 50.4574039,54.637753 52.8223373,52.5368559 C55.2654503,50.3421848 58.5170116,48.9301655 62.001335,48.5424462 C62.6164419,48.4781865 63.2344138,48.4462848 63.8527704,48.4468611 C66.6956656,48.4468611 69.3466653,49.220504 71.2904948,50.6108832 C73.1739128,51.952572 74.3252854,53.8154276 74.5420561,55.8694378 L74.5420561,55.8694378 C74.5580474,56.105676 74.5740387,56.3581444 74.5740387,56.6430729 C74.5740387,59.1857896 73.2663069,61.7429331 70.9013735,63.8438303 C68.4582605,66.0385014 65.2155833,67.4505207 61.7223759,67.8400433 C61.1306983,67.8887336 60.4928237,67.9193905 59.8709404,67.9193905 Z M16.3035725,77.3941662 C13.4606774,77.3941662 10.8114544,76.6205311 8.8676249,75.2301519 C6.98420687,73.8866598 5.83283434,72.0238042 5.61428678,69.9860241 L5.61428678,69.9860241 C5.60007231,69.7497859 5.58408102,69.4973175 5.58408102,69.212389 C5.58408102,66.6714756 6.89003597,64.1125287 9.25674617,62.0116316 C11.6980824,59.8169605 14.9514205,58.4049412 18.4357438,58.0172219 C19.050915,57.9538137 19.668844,57.9219142 20.2871793,57.9216447 C23.1300744,57.9216447 25.7792973,58.6952797 27.7249037,60.0856589 C29.6083217,61.4273477 30.7596942,63.2920067 30.976465,65.3279834 L30.976465,65.3442135 C30.9924563,65.566025 31.0084476,65.8184933 31.0084476,66.0655516 C31.0084476,68.6551553 29.7007158,71.2285289 27.3357824,73.313196 C24.8926694,75.5078671 21.6411081,76.9289031 18.1550079,77.309409 C17.5651072,77.3562959 16.9272326,77.3869528 16.3035725,77.3869528 L16.3035725,77.3941662 Z" id="Shape"></path>
        </g>
    </g>
</svg>