<?xml version="1.0" encoding="UTF-8"?>
<svg width="44px" height="80px" viewBox="0 0 44 80" version="1.1" xmlns="http://www.w3.org/2000/svg" xmlns:xlink="http://www.w3.org/1999/xlink">
    <!-- Generator: Sketch 62 (91390) - https://sketch.com -->
    <title>Icons/Graphical/navigate-right</title>
    <desc>Created with Sketch.</desc>
    <g id="Page-1" stroke="none" stroke-width="1" fill="none" fill-rule="evenodd">
        <g id="Icons/Graphical/navigate-right" transform="translate(-18.000000, 0.000000)" fill="#006DAE" fill-rule="nonzero">
            <polygon id="Path" points="20.1971588 0 18 2.10335449 57.5867413 40 18 77.8966455 20.1971588 80 62 40"></polygon>
        </g>
    </g>
</svg>