<?xml version="1.0" encoding="UTF-8"?>
<svg width="70px" height="70px" viewBox="0 0 70 70" version="1.1" xmlns="http://www.w3.org/2000/svg" xmlns:xlink="http://www.w3.org/1999/xlink">
    <!-- Generator: Sketch 62 (91390) - https://sketch.com -->
    <title>Icons/Graphical/navigate-cross</title>
    <desc>Created with Sketch.</desc>
    <g id="Page-1" stroke="none" stroke-width="1" fill="none" fill-rule="evenodd">
        <g id="Icons/Graphical/navigate-cross" transform="translate(-5.000000, -5.000000)" fill="#006DAE" fill-rule="nonzero">
            <polygon id="Path" points="75 7.10431655 72.8956835 5 40 37.9136691 7.10431655 5.01798561 5.01798561 7.10431655 37.9136691 40 5 72.8956835 7.10431655 75 40 42.0863309 72.8956835 74.9820144 74.9820144 72.8956835 42.0863309 40"></polygon>
        </g>
    </g>
</svg>