<?xml version="1.0" encoding="UTF-8"?>
<svg width="63px" height="79px" viewBox="0 0 63 79" version="1.1" xmlns="http://www.w3.org/2000/svg" xmlns:xlink="http://www.w3.org/1999/xlink">
    <!-- Generator: Sketch 62 (91390) - https://sketch.com -->
    <title>Icons/Graphical/note-tex</title>
    <desc>Created with Sketch.</desc>
    <g id="Page-1" stroke="none" stroke-width="1" fill="none" fill-rule="evenodd">
        <g id="Icons/Graphical/note-tex" transform="translate(-10.000000, 0.000000)" fill="#006DAE" fill-rule="nonzero">
            <path d="M73,0 L73,44.4619101 C72.9942176,46.5846158 72.31763,48.6178858 71.1184944,50.1161798 L71.1184944,50.1161798 L49.9660674,76.6459775 C48.7755849,78.1463257 47.1589571,78.9929611 45.4711236,79 L45.4711236,79 L10,79 L10,0 L73,0 Z M70.8282697,2.73570787 L12.194382,2.73570787 L12.194382,76.2660674 L45.4711236,76.2660674 C47.7851832,76.2650876 49.660904,73.9129933 49.6616854,71.011236 L49.6616854,71.011236 L49.6616854,49.7344944 L66.6292135,49.7344944 C68.9488257,49.722776 70.8251728,47.36355 70.8282697,44.454809 L70.8282697,44.454809 L70.8282697,2.73570787 Z M66.1875056,52.4702022 L51.8560674,52.4702022 L51.8560674,70.4413708 L66.1875056,52.4702022 Z M44,60 L44,62 L18,62 L18,60 L44,60 Z M44,49 L44,51 L18,51 L18,49 L44,49 Z M64,38 L64,40 L18,40 L18,38 L64,38 Z M64,27 L64,29 L18,29 L18,27 L64,27 Z M64,16 L64,18 L18,18 L18,16 L64,16 Z" id="Combined-Shape"></path>
        </g>
    </g>
</svg>