<?xml version="1.0" encoding="UTF-8"?>
<svg width="80px" height="80px" viewBox="0 0 80 80" version="1.1" xmlns="http://www.w3.org/2000/svg" xmlns:xlink="http://www.w3.org/1999/xlink">
    <!-- Generator: Sketch 62 (91390) - https://sketch.com -->
    <title>Icons/Graphical/pencil</title>
    <desc>Created with Sketch.</desc>
    <g id="Page-1" stroke="none" stroke-width="1" fill="none" fill-rule="evenodd">
        <g id="Icons/Graphical/pencil" fill="#006DAE" fill-rule="nonzero">
            <path d="M64.4407018,0.00010391526 C66.1087961,-0.00484978363 67.7094489,0.65807398 68.8852215,1.84094518 L68.8852215,1.84094518 L78.1696102,11.1204155 C80.6140403,13.5982788 80.6067931,17.5699988 78.160584,20.0317388 L78.160584,20.0317388 L26.5557744,71.6228508 L13.4587026,76.3690598 L11.0432812,77.2569438 L4.00281537,79.8195358 C3.6750327,79.9352188 3.33043997,79.9961882 2.98285044,80 C2.00887128,79.9891101 1.10008747,79.5087539 0.542714838,78.7102165 C-0.0146577917,77.9116792 -0.152021679,76.8932391 0.173885082,75.9756478 L0.173885082,75.9756478 L2.73192101,68.9249107 L3.63454484,66.4940576 L8.38415144,53.41762 L60.0052083,1.84094518 C61.1747292,0.654282505 62.7743293,-0.00955346844 64.4407018,0.00010391526 Z M10.0756685,56.646125 L5.57338083,69.049431 L10.9476031,74.411023 L23.353265,69.9192685 L10.0756685,56.646125 Z M49.3325841,16.328613 L11.456683,54.1900069 L25.8084018,68.529694 L63.677082,30.6683001 L49.3325841,16.328613 Z M54.236529,30.7538288 L56.1616432,32.6789429 L27.9703788,60.8702073 L26.0452646,58.9450932 L54.236529,30.7538288 Z M66.9301383,3.75927987 C65.5378389,2.38100273 63.2948229,2.38100273 61.9025235,3.75927987 L61.9025235,3.75927987 L51.2371204,14.406669 L65.5996707,28.7625979 L76.2307742,18.0809206 L76.2650739,18.0466324 C77.6311734,16.6581246 77.6158328,14.4264058 76.2307742,13.0567966 L76.2307742,13.0567966 Z" id="Combined-Shape"></path>
        </g>
    </g>
</svg>