<?xml version="1.0" encoding="UTF-8"?>
<svg width="80px" height="69px" viewBox="0 0 80 69" version="1.1" xmlns="http://www.w3.org/2000/svg" xmlns:xlink="http://www.w3.org/1999/xlink">
    <!-- Generator: Sketch 62 (91390) - https://sketch.com -->
    <title>Icons/Graphical/photo-landscape</title>
    <desc>Created with Sketch.</desc>
    <g id="Page-1" stroke="none" stroke-width="1" fill="none" fill-rule="evenodd">
        <g id="Icons/Graphical/photo-landscape" transform="translate(0.000000, -6.000000)" fill="#006DAE" fill-rule="nonzero">
            <path d="M80,6 L80,74.1481481 L0,74.1481481 L0,6 L80,6 Z M77.4582874,8.57652729 L2.57053433,8.57652729 L2.57053433,71.5716209 L77.4582874,71.5716209 L77.4582874,8.57652729 Z M74.0740741,11.9259259 L74.0740741,68.2222222 L5.92592593,68.2222222 L5.92592593,11.9259259 L74.0740741,11.9259259 Z M62.0339384,36.6232768 L61.8941269,36.6232768 C58.9998461,36.6875545 56.3034803,39.1980601 53.9157894,41.423907 L53.9157894,41.423907 L53.8377128,41.5028768 C53.2603092,42.0409734 52.6829056,42.5937622 52.1036863,43.1300223 C50.8090676,44.3457902 49.4654241,45.6019612 48.1544637,46.8875163 L48.1544637,46.8875163 L48.1381221,46.9040449 C46.0936051,48.9095109 43.9546698,50.9939468 41.6595814,52.920443 C38.1515823,55.8735468 35.1538046,57.8937049 32.2177618,59.3151616 C28.6262389,61.035969 25.0510577,61.8899449 21.2743299,61.9046369 C17.5883888,61.9046369 13.421278,61.1002467 8.88194173,59.4822837 L8.88194173,59.4822837 L8.51879483,59.3555647 L8.51879483,65.5996897 L71.4957311,65.5996897 L71.4957311,43.8407506 L71.448522,43.7617808 C70.4643938,42.3880733 68.9664129,40.3826073 67.2178605,38.8656522 C65.483834,37.3817543 63.7352817,36.6232768 62.0339384,36.6232768 L62.0339384,36.6232768 Z M71.4830209,14.5319299 L8.48792734,14.5319299 L8.48792734,46.2557578 L8.92370362,45.9086579 C10.2361463,44.8582196 11.6094732,43.8880392 13.0363423,43.0033033 C15.9142815,41.2696404 18.585227,40.3972994 21.2071477,40.3513867 L21.2071477,40.3513867 L21.3633008,40.3513867 C24.7678031,40.3513867 27.7020301,41.9289465 30.5436546,43.4459016 C30.7306753,43.5395634 30.8777498,43.6185333 31.0593232,43.7140316 L31.0593232,43.7140316 L31.1065323,43.7452523 C31.4333645,43.9031919 31.731145,44.0776601 32.0271097,44.2190712 C33.9154736,45.1832375 35.6803676,46.0519055 37.4125783,46.8728243 L37.4125783,46.8728243 L38.474783,47.3613352 L37.6631497,48.040843 C37.3000028,48.3567222 36.9368559,48.6560729 36.573709,48.9407316 L36.573709,48.9407316 L36.2468767,49.1941696 L35.8710197,49.0197014 C34.2640946,48.2612238 32.6390122,47.4586701 30.875934,46.5404165 L30.875934,46.5404165 L30.8595924,46.5404165 C30.3293979,46.2557578 29.7973877,45.9876277 29.3452698,45.7360262 C26.8940282,44.4412886 24.1304803,42.9555541 21.3977998,42.9555541 L21.3977998,42.9555541 L21.2743299,42.9555541 C19.119053,42.9867747 16.854832,43.7140316 14.3418554,45.2144581 L14.3418554,45.2144581 L14.3255138,45.2291502 C12.3118642,46.4467546 10.3762912,48.0243144 8.5805298,49.5247409 L8.5805298,49.5247409 L8.48792734,49.6037107 L8.48792734,56.6154958 L8.65860638,56.677937 C13.3432015,58.4005809 17.5429954,59.283941 21.16357,59.283941 L21.16357,59.283941 L21.2416466,59.283941 C24.693358,59.283941 28.003442,58.4740412 31.3589194,56.8211846 C34.0607324,55.4933898 36.7298621,53.669738 40.0090787,50.914977 C42.1970388,49.0674506 44.3196324,46.9977068 46.3641495,45.0087693 C47.6896357,43.7305602 49.0478051,42.4505146 50.3587655,41.2182182 L50.3587655,41.2182182 L50.3751071,41.2035261 C50.9525106,40.6654294 51.5153884,40.1456979 52.0764503,39.6076012 L52.0764503,39.6076012 L52.1853944,39.5139393 C54.903549,36.9869052 57.9794033,34.1292998 61.8342076,34.0338014 L61.8342076,34.0338014 L62.0375699,34.0338014 C64.3943933,34.0338014 66.6440884,34.9649106 68.8919677,36.9079354 C69.6460112,37.567705 70.3551549,38.2782124 71.0145614,39.0346109 L71.0145614,39.0346109 L71.4830209,39.5855631 L71.4830209,14.5319299 Z M34.5680656,17.8518519 C37.4506524,17.8518519 40.2150883,18.9973645 42.2526858,21.0363733 C45.915906,24.7021307 46.4798041,30.4449968 43.5995628,34.7532721 C40.7193215,39.0615474 35.1970052,40.7355011 30.4094496,38.7515287 C25.6218939,36.7675564 22.9022957,31.6781375 23.9136592,26.5953956 C24.9250228,21.5126538 29.3857125,17.8518519 34.5680656,17.8518519 Z M34.5495653,20.4720094 C30.0009342,20.4771254 26.3176826,24.1686855 26.322786,28.7173463 C26.3279,33.2660071 30.0194345,36.9492843 34.5680656,36.9441775 L34.5680656,36.9441775 C39.1112202,36.9436068 42.7917893,33.2605302 42.7948466,28.7173429 L42.7948466,28.7173429 L42.7948466,28.698839 C42.7897341,24.1501782 39.0981965,20.466904 34.5495653,20.4720094 Z" id="Combined-Shape"></path>
        </g>
    </g>
</svg>