<?xml version="1.0" encoding="UTF-8"?>
<svg width="80px" height="80px" viewBox="0 0 80 80" version="1.1" xmlns="http://www.w3.org/2000/svg" xmlns:xlink="http://www.w3.org/1999/xlink">
    <!-- Generator: Sketch 62 (91390) - https://sketch.com -->
    <title>Icons/Graphical/question</title>
    <desc>Created with Sketch.</desc>
    <g id="Page-1" stroke="none" stroke-width="1" fill="none" fill-rule="evenodd">
        <g id="Icons/Graphical/question" fill="#006DAE" fill-rule="nonzero">
            <path d="M24.4654036,3.15331676 C44.8282538,-5.42969707 68.297332,4.11119409 76.8886426,24.4629305 C78.9739001,29.3842354 80.0321131,34.679165 79.9992578,40.0234764 L79.9992578,40.0234764 L79.9992578,40.0848094 C79.9822364,62.1412428 62.0722416,80.0180119 40.0001538,79.9999864 L40.0001538,79.9999864 L39.9369824,79.9999864 C17.8685043,79.9837375 -0.0162219764,62.0853216 1.10416457e-05,40.0234764 C-0.00770479067,23.9337757 9.63225663,9.40602689 24.4654036,3.15331676 Z M40.1174721,2.86465341 C19.5127657,2.83582823 2.78497847,19.5111918 2.75606268,40.1046525 C2.72722176,60.6981131 19.4080816,77.4167706 40.0145929,77.4456332 L40.0145929,77.4456332 C60.6201019,77.4717442 77.3470771,60.7999331 77.3760023,40.2056715 C77.4048432,19.6140148 60.7221785,2.89355342 40.1174721,2.86465341 Z M40.4938272,63.2098765 L40.4938272,65.1851852 L38.5185185,65.1851852 L38.5185185,63.2098765 L40.4938272,63.2098765 Z M39.7089257,16.7901235 C44.9729146,16.7901235 49.7836999,18.116857 53.2500442,20.5142253 C55.0695498,21.7581502 56.5672876,23.3701268 57.6322771,25.2307095 C58.7074506,27.2154744 59.2592593,29.4883503 59.2592593,31.9781986 C59.2592593,40.4187847 53.4017442,43.3656981 48.242049,45.976482 C46.4349231,46.890612 44.7586384,47.7460528 43.4881512,48.798903 C42.0564827,50.004701 41.3567666,51.3492191 41.3567666,52.9053744 L41.3567666,52.9053744 L41.3567666,57.2839506 L38.6716771,57.2839506 L38.6716771,52.9018174 C38.6716771,50.6591754 39.445347,48.8878261 41.1368016,47.3458986 C42.6670751,45.9409127 44.7510534,44.8880626 46.9639767,43.7747446 C49.1446638,42.6756544 51.6022033,41.4378441 53.4415654,39.6380394 C55.54261,37.5785791 56.5665848,35.0905091 56.5665848,31.9906479 C56.5665848,27.8699488 54.7234302,24.5122104 51.2570859,22.2677899 C48.295144,20.359499 44.2106223,19.3066488 39.7184069,19.3066488 C35.2906641,19.3066488 31.2838886,20.3737267 28.4395142,22.3300361 C25.4112036,24.4072811 23.6856164,27.4448961 23.4580664,31.1085302 L23.4580664,31.1085302 L23.4258302,31.718543 L20.7407407,31.718543 L20.772977,31.0320563 C21.0251782,26.726397 22.9934853,23.109003 26.4617258,20.5906992 C29.8294652,18.1328631 34.5340605,16.7901235 39.7089257,16.7901235 Z" id="Combined-Shape"></path>
        </g>
    </g>
</svg>