<?xml version="1.0" encoding="UTF-8"?>
<svg width="80px" height="80px" viewBox="0 0 80 80" version="1.1" xmlns="http://www.w3.org/2000/svg" xmlns:xlink="http://www.w3.org/1999/xlink">
    <!-- Generator: Sketch 62 (91390) - https://sketch.com -->
    <title>Icons/Graphical/recycle</title>
    <desc>Created with Sketch.</desc>
    <g id="Page-1" stroke="none" stroke-width="1" fill="none" fill-rule="evenodd">
        <g id="Icons/Graphical/recycle" fill="#006DAE" fill-rule="nonzero">
            <path d="M7.64385066,35.1219512 L7.71122042,35.9902305 C9.14461606,51.9656251 22.5601663,64.209933 38.6375831,64.2165723 L38.6375831,64.2165723 L46.3559729,64.1820591 L35.2909446,53.143287 L37.2938295,51.1760351 L51.7073171,65.5880175 L37.2774422,80 L35.2745574,78.0236656 L46.3231985,67.0012419 L38.6394039,67.0521035 C21.1833504,67.0576044 6.58525246,53.8203855 4.9290313,36.4843141 L4.9290313,36.4843141 L4.87804878,35.872159 L7.64385066,35.1219512 Z M61.5396086,6.82926829 L80,11.9404444 L79.26547,14.5524316 L65.1526099,10.6362132 L68.8065131,17.0428081 C76.9790156,31.6716257 73.0626286,50.3278669 59.7603759,60.13531 L59.7603759,60.13531 L59.296821,60.4878049 L57.3999954,58.5385081 L58.0714683,58.059115 C70.4220621,49.094713 74.0877929,31.848523 66.5108939,18.3540891 L66.5108939,18.3540891 L62.9149351,11.9915561 L59.1263965,26.6200946 L56.5853659,25.9256797 L61.5396086,6.82926829 Z M37.8169331,0 C42.4252199,0.000948585851 46.979578,1.01943707 51.1720089,2.98658797 L51.1720089,2.98658797 L51.7073171,3.23517436 L50.9941484,5.93411236 L50.2498974,5.57898894 C36.4194871,-1.01601238 19.9804274,4.32060838 12.3397171,17.8857911 L12.3397171,17.8857911 L8.71343581,24.4289401 L23.0458808,20.4835189 L23.7262402,23.130964 L5.01980934,28.2926829 L0,9.05564723 L2.57465969,8.34540039 L6.39779621,23.04751 L9.91183543,16.7192106 C15.6092109,6.3880001 26.2667876,0.0025621305 37.8169331,0 Z" id="Combined-Shape"></path>
        </g>
    </g>
</svg>