<svg id="social-twitter" viewBox="0 0 76.668 62.267">
<!-- Generator: Adam -->
    <title>Adams/Icon/social-twitter</title>
    <desc>Created by Adam.</desc>  
    <g id="Adams/Icon/social-twitter">
      <path d="M76.668,7.184a28.285,28.285,0,0,1-9.1,2.4,13.559,13.559,0,0,0,6.71-8.62C71.4,2.875,68.044,3.831,64.213,4.793A16.723,16.723,0,0,0,52.71,0C44.564,0,37.375,7.184,37.375,15.8a7.11,7.11,0,0,0,.478,3.353A44.089,44.089,0,0,1,5.271,2.875a14.648,14.648,0,0,0-1.918,8.141,15.723,15.723,0,0,0,7.189,12.933c-2.4,0-4.793-.961-7.189-1.918a15.462,15.462,0,0,0,12.46,15.325,13.294,13.294,0,0,1-4.314.479,6.079,6.079,0,0,1-2.875-.479A15.535,15.535,0,0,0,23.48,48.377,30.49,30.49,0,0,1,3.836,55.083H0c7.184,4.309,15.335,7.184,23.958,7.184,28.752,0,44.564-23.949,44.564-44.541V15.808a27.712,27.712,0,0,0,8.146-8.619Z"/>
  </g>
  </svg>