<?xml version="1.0" encoding="UTF-8"?>
<svg width="80px" height="74px" viewBox="0 0 80 74" version="1.1" xmlns="http://www.w3.org/2000/svg" xmlns:xlink="http://www.w3.org/1999/xlink">
    <!-- Generator: Sketch 62 (91390) - https://sketch.com -->
    <title>Icons/Graphical/star-2</title>
    <desc>Created with Sketch.</desc>
    <g id="Page-1" stroke="none" stroke-width="1" fill="none" fill-rule="evenodd">
        <g id="Icons/Graphical/star-2" transform="translate(0.000000, -3.000000)" fill="#006DAE" fill-rule="nonzero">
            <path d="M80,30.9428602 L49.3930115,31.0034851 L40,3 L30.6069885,31.0034851 L0,30.9428602 L24.7820605,48.196693 L15.2791787,76.1707317 L40,58.8268277 L64.7208213,76.1707317 L55.2179395,48.196693 L80,30.9428602 Z M27.8206052,47.2630703 L7.98451009,33.4423362 L32.4693804,33.4873718 L40,11.0700338 L47.5306196,33.4856397 L72.0154899,33.4406041 L52.1649856,47.2492132 L59.7982709,69.6371048 L40,55.769603 L20.2107349,69.6509619 L27.8206052,47.2630703 Z" id="Shape"></path>
        </g>
    </g>
</svg>