<?xml version="1.0" encoding="UTF-8"?>
<svg width="79px" height="80px" viewBox="0 0 79 80" version="1.1" xmlns="http://www.w3.org/2000/svg" xmlns:xlink="http://www.w3.org/1999/xlink">
    <!-- Generator: Sketch 62 (91390) - https://sketch.com -->
    <title>Icons/Graphical/stop 2</title>
    <desc>Created with Sketch.</desc>
    <g id="Page-1" stroke="none" stroke-width="1" fill="none" fill-rule="evenodd">
        <g id="Icons/Graphical/stop-2" transform="translate(-1.000000, 0.000000)" fill="#006DAE" fill-rule="nonzero">
            <path d="M25.1586581,3.1536058 C45.2677249,-5.43069978 68.4424368,4.11342012 76.9223352,24.4622041 C78.9832644,29.383142 80.0300709,34.6780548 79.9993426,40.022721 L79.9993426,40.022721 L79.9993426,40.0839475 C79.9808634,62.1452707 62.2969124,80.016185 40.4993388,79.999989 L40.4993388,79.999989 L40.4370651,79.999989 C18.6394916,79.9819702 0.984008517,62.0840442 1.00001087,40.022721 C0.992343961,23.9335731 10.5114181,9.40626962 25.1586581,3.1536058 Z M40.6167692,2.86364336 C20.2692832,2.83486821 3.74896071,19.5064648 3.7204559,40.1019553 C3.69202476,60.6974457 20.1660868,77.4158625 40.5135728,77.4447098 C60.8619294,77.4725418 77.3803904,60.8009683 77.4099127,40.2064003 C77.4472136,19.6109099 60.9642553,2.89249309 40.6167692,2.86364336 Z M58.508,20 L60.616,22.137 L42.945,39.567 L60.616,57 L58.509,59.137 L40.808,41.675 L23.107,59.137 L21,57 L38.671,39.567 L21,22.137 L23.108,20 L40.808,37.459 L58.508,20 Z" id="Combined-Shape"></path>
        </g>
    </g>
</svg>