<?xml version="1.0" encoding="UTF-8"?>
<svg width="68px" height="80px" viewBox="0 0 68 80" version="1.1" xmlns="http://www.w3.org/2000/svg" xmlns:xlink="http://www.w3.org/1999/xlink">
    <!-- Generator: Sketch 62 (91390) - https://sketch.com -->
    <title>Icons/Graphical/train</title>
    <desc>Created with Sketch.</desc>
    <g id="Page-1" stroke="none" stroke-width="1" fill="none" fill-rule="evenodd">
        <g id="Icons/Graphical/train" transform="translate(-6.000000, 0.000000)" fill="#006DAE" fill-rule="nonzero">
            <path d="M59.7213119,0 L67.1309068,5.61201805 L67.1309068,57.7082164 L59.7213119,63.3166416 L59.4029582,63.3166416 L68.4550482,72.5753935 L68.8241286,72.5753935 L68.8241286,72.9526419 L74,78.2341185 L72.2945338,80 L67.4737492,75.0706218 L12.5297492,75.0706218 L7.70546624,80 L6,78.2341185 L10.8977492,73.2292906 L10.8977492,72.5753935 L11.5257106,72.5753935 L20.5760514,63.3130488 L20.0915241,63.3130488 L12.6836785,57.7046235 L12.6836785,5.60842521 L20.0915241,0 L59.7213119,0 Z M61.4495177,68.9142883 L18.5137492,68.9142883 L14.9366431,72.5753935 L65.0178778,72.5753935 L61.4495177,68.9142883 Z M55.9657878,63.318438 L23.9869839,63.318438 L20.9451318,66.4298385 L59.0093891,66.4298385 L55.9657878,63.318438 Z M58.9201801,2.48444973 L20.8681672,2.49163542 L15.0958199,6.87130892 L15.0958199,56.4525184 L20.8821608,60.8250062 L58.9201801,60.8250062 L64.6925273,56.4453327 L64.6925273,6.86412323 L58.9201801,2.48444973 Z M28.9772516,41.0000426 C30.5724875,40.9940349 32.1044617,41.6235012 33.2346052,42.7493715 C34.3647487,43.8752419 35.0000004,45.4048184 35.0000004,47.0000621 C35.0000004,50.3107897 32.3183003,52.9958203 29.0075676,52.9999953 C25.6968349,53.0041606 23.0084031,50.3258939 23.0000195,47.0151769 C22.991675,43.7044599 25.6665401,41.0126438 28.9772516,41.0000426 Z M51.9772516,41.0000426 C53.5724875,40.9940349 55.1044617,41.6235012 56.2346052,42.7493715 C57.3647487,43.8752419 58.0000004,45.4048184 58.0000004,47.0000621 C58.0000004,50.3107897 55.3183003,52.9958203 52.0075676,52.9999953 C48.6968349,53.0041606 46.0084031,50.3258939 46.0000195,47.0151769 C45.991675,43.7044599 48.6665401,41.0126438 51.9772516,41.0000426 Z M29.0102808,43.8760705 C27.2851655,43.8738414 25.8829583,45.2668685 25.8738187,46.9919573 C25.864768,48.717046 27.2522087,50.124781 28.9772516,50.1407393 L28.9772516,50.1407393 C29.8133841,50.1422647 30.6179019,49.815377 31.2116826,49.2266494 C31.8054634,48.6379219 32.1392138,47.8362282 32.1386265,47.0000621 C32.1339942,45.2749556 30.7353961,43.878305 29.0102808,43.8760705 Z M52.0185146,43.876134 C50.2942167,43.8727936 48.8914518,45.2636442 48.8800946,46.9879038 C48.8687374,48.7121635 50.2530592,50.1213717 51.9772516,50.1407393 L51.9772516,50.1407393 C52.8144541,50.1439338 53.6205766,49.8177843 54.2157071,49.2288747 C54.8108376,48.6399651 55.1454384,47.8373153 55.1448335,47.0000621 C55.1401682,45.2757713 53.7428125,43.8794865 52.0185146,43.876134 Z M60,19 L60,33.9799159 L54.2861168,38 L24.7138832,37.9964503 L19,33.9799159 L19,19 L60,19 Z M57.6963659,21.4546474 L21.3270723,21.4546474 L21.3270723,32.666511 L25.4220498,35.5471275 L53.6013883,35.5471275 L57.6963659,32.666511 L57.6963659,21.4546474 Z M52.2699952,7 L57,11.1160449 L57,14 L23,14 L23,11.1160449 L27.7318361,7 L52.2699952,7 Z M51.2170518,9.21583886 L28.7774546,9.21583886 L25.8054074,11.8049897 L54.1890989,11.8049897 L51.2170518,9.21583886 Z" id="Combined-Shape"></path>
        </g>
    </g>
</svg>