<?xml version="1.0" encoding="UTF-8"?>
<svg width="55px" height="80px" viewBox="0 0 55 80" version="1.1" xmlns="http://www.w3.org/2000/svg" xmlns:xlink="http://www.w3.org/1999/xlink">
    <!-- Generator: Sketch 62 (91390) - https://sketch.com -->
    <title>Icons/Graphical/tram</title>
    <desc>Created with Sketch.</desc>
    <g id="Page-1" stroke="none" stroke-width="1" fill="none" fill-rule="evenodd">
        <g id="Icons/Graphical/tram" transform="translate(-13.000000, 0.000000)" fill="#006DAE" fill-rule="nonzero">
            <path d="M51.9086476,0 L56.3573026,4.89869476 L54.6010747,6.67102342 L50.8699447,2.55662465 L41.4208238,2.55662465 L45.6303038,7.21191721 L40.6759645,12.8660603 L60.5104057,12.8660603 L67.9846245,18.725743 L68,18.725743 L68,66.0106782 L61.3731441,71.2068645 L61.3731441,77.2270124 L61.2023048,77.524504 C61.151053,77.6056381 60.0235137,79.6628375 57.8692303,79.9603291 C57.6909722,79.9870514 57.5111337,80 57.3310865,80 C55.9472883,80 54.5361558,79.2571671 53.1523576,77.7949509 L53.1523576,77.7949509 L52.7935951,77.4163253 L52.7935951,71.868558 L28.2046965,71.868558 L28.2046965,77.2306184 L28.0338572,77.52811 C27.9860222,77.6056381 26.8584829,79.6628375 24.7041995,79.9603291 C24.5259415,79.9870514 24.3461029,80 24.1660558,80 C22.7822576,80 21.3711251,79.2571671 19.9873268,77.7949509 L19.9873268,77.7949509 L19.6285643,77.4163253 L19.6285643,71.2068645 L13,66.0106782 L13,18.725743 L20.4742188,12.8660603 L37.3582655,12.8660603 L42.2938125,7.24437084 L38.0501646,2.55662465 L30.1010126,2.55662465 L26.3835497,6.67102342 L24.6170715,4.89689178 L29.058893,0 L51.9086476,0 Z M58.9079332,71.868558 L55.202429,71.868558 L55.202429,76.3345377 C55.9729142,77.0701532 56.6767721,77.4307491 57.3054606,77.4307491 L57.3054606,77.4307491 L57.4151169,77.4289264 L57.4151169,77.4289264 L57.5241349,77.4163253 C58.176741,77.3225703 58.6773001,76.7798736 58.9079332,76.482382 L58.9079332,76.482382 L58.9079332,71.868558 Z M25.7429024,71.868558 L22.0373983,71.868558 L22.0373983,76.3345377 C22.8078835,77.0701532 23.5117413,77.4307491 24.1404299,77.4307491 L24.1404299,77.4307491 L24.2500862,77.4289264 L24.2500862,77.4289264 L24.3591042,77.4163253 C25.0117103,77.3225703 25.5122694,76.7798736 25.7429024,76.482382 L25.7429024,76.482382 L25.7429024,71.868558 Z M59.6903771,15.4371088 L38.4089271,15.4515326 L21.2686215,15.4515326 L15.4225011,20.0238881 L15.4225011,64.7125331 L21.2686215,69.2848886 L59.6903771,69.2848886 L65.5364975,64.7125331 L65.5364975,20.0130703 L59.6903771,15.4371088 Z M51.9989749,49 C55.3080472,49 58,51.6944444 58,55 C58,58.3055556 55.3059969,61 51.9989749,61 C48.6919528,61 46,58.3055556 46,55 C46,51.6944444 48.6919528,49 51.9989749,49 Z M29.0010251,49 C32.3100974,49 35,51.6944444 35,55 C35,58.3055556 32.3059969,61 28.9989749,61 C25.6919528,61 23,58.3055556 23,55 C23,51.6944444 25.6940031,49 29.0010251,49 Z M51.9989749,51.8214286 C50.3075346,51.8214286 48.9379805,53.25 48.9379805,54.9960317 C48.9379805,56.7420635 50.3075346,58.1706349 51.9989749,58.1706349 C53.7047668,58.1706349 55.0743209,56.7400794 55.0743209,54.9960317 C55.0743209,53.2519841 53.6904152,51.8214286 51.9989749,51.8214286 Z M29.0010251,51.8214286 C27.3095848,51.8214286 25.9400308,53.25 25.9400308,54.9960317 C25.9400308,56.7420635 27.3095848,58.1706349 29.0010251,58.1706349 C30.6945156,58.1706349 32.0640697,56.7400794 32.0640697,54.9960317 C32.0640697,53.2519841 30.6924654,51.8214286 29.0010251,51.8214286 Z M61,22 L61,41.6019778 L55.2929665,46 L25.730533,46 L20.0117498,41.6038319 L20,41.6038319 L20,22 L61,22 Z M58.6181528,24.6514215 L22.4087038,24.6514215 L22.4087038,40.2262052 L26.4858757,43.3578492 L26.4858757,43.3559951 L54.5493736,43.3559951 L58.6181528,40.2262052 L58.6181528,24.6514215 Z" id="Combined-Shape"></path>
        </g>
    </g>
</svg>