<?xml version="1.0" encoding="UTF-8"?>
<svg width="77px" height="74px" viewBox="0 0 77 74" version="1.1" xmlns="http://www.w3.org/2000/svg" xmlns:xlink="http://www.w3.org/1999/xlink">
    <!-- Generator: Sketch 62 (91390) - https://sketch.com -->
    <title>Icons/Graphical/user-crowd</title>
    <desc>Created with Sketch.</desc>
    <g id="Page-1" stroke="none" stroke-width="1" fill="none" fill-rule="evenodd">
        <g id="Icons/Graphical/user-crowd" transform="translate(-2.000000, -3.000000)" fill="#006DAE" fill-rule="nonzero">
            <path d="M41.72,73.6197247 C44.4133333,73.6197247 48.9733333,73.3557247 52.1653333,72.5317247 C53.784,72.105058 54.96,71.6623914 54.96,71.2677247 C54.9571912,70.3275764 54.7762199,69.3964786 54.4266667,68.5237247 C54.1190633,67.7596875 53.6600808,67.0657712 53.0773333,66.4837247 C52.664,66.0863914 51.752,65.7477247 51.032,65.4837247 L51.016,65.4837247 L50.8533333,65.425058 C50.4106667,65.2623914 50.016,65.145058 49.648,65.0277247 C48.72,64.7477247 47.9253333,64.513058 46.824,63.8357247 L46.7946667,63.8063914 C45.0586667,62.761058 45.2053333,60.8783914 45.352,59.201058 C45.3813333,58.9343914 45.3973333,58.6223914 45.3973333,58.3077247 L45.3973333,58.193058 C45.3973333,58.1957247 45.3973333,58.1957247 45.3973333,58.193058 C45.3973333,57.777058 45.5653333,57.3983914 45.84,57.1263914 C46.5893333,56.3903914 46.9146667,55.097058 47.2373333,53.8757247 C47.3253333,53.537058 47.3706667,53.361058 47.384,53.2863914 C47.4969593,52.8664701 47.7898068,52.5179816 48.184,52.3343914 C48.4678771,52.1710961 48.6843544,51.9120796 48.7946667,51.6037247 C48.9579166,51.1616123 48.9784346,50.6794407 48.8533333,50.225058 C48.7819939,49.9771086 48.7792291,49.7144542 48.8453333,49.465058 L48.8426667,49.4757247 C49.2986667,47.6223914 49.3573333,46.0623914 49.0773333,44.753058 C48.8188565,43.5351967 48.1989565,42.4236518 47.2986667,41.5637247 C46.2666667,40.5317247 44.4426667,39.9423914 42.632,39.8117247 C40.8213333,39.681058 39.144,40.017058 38.3493333,40.8277247 C38.105018,41.0697633 37.7848917,41.220411 37.4426667,41.2543914 C37.248,41.2783914 37.0826667,41.3077247 36.9226667,41.3503914 C35.6266667,41.6677247 34.8613333,42.4623914 34.48,43.4623914 C34.0373333,44.6543914 34.0373333,46.169058 34.2586667,47.6837247 C34.36,48.393058 34.4826667,49.001058 34.6373333,49.5957247 C34.6346667,49.577058 34.648,49.689058 34.648,49.8037247 C34.6481253,49.9716266 34.6201848,50.1383685 34.5653333,50.297058 C34.4583126,50.7332756 34.4862088,51.1917026 34.6453333,51.6117247 C34.7640684,51.926583 34.9883831,52.1904827 35.28,52.3583914 C35.656343,52.5411099 35.9367457,52.8758467 36.0506667,53.2783914 L36.0533333,53.289058 C36.112,53.5397247 36.0986667,53.465058 36.1866667,53.833058 C36.5253333,55.0837247 36.864,56.409058 37.6,57.129058 C37.882312,57.399265 38.0421838,57.7729413 38.0426667,58.1637247 L38.0426667,58.1717247 C38.0426667,58.4357247 38.072,58.745058 38.088,59.0543914 C38.2213333,60.777058 38.3813333,62.8197247 36.5733333,63.865058 L36.5573333,63.865058 C35.4826667,64.5263914 34.704,64.7637247 33.792,65.0277247 C33.424,65.145058 33.0266667,65.2623914 32.5866667,65.425058 L32.424,65.4837247 C32.3946667,65.4997247 32.3786667,65.4997247 32.3493333,65.513058 C31.6293333,65.777058 30.76,66.1023914 30.3626667,66.4837247 C29.7866667,67.065058 29.3226667,67.761058 29.0106667,68.5317247 C28.66396,69.4015032 28.4839418,70.328733 28.48,71.265058 C28.48,71.665058 29.656,72.105058 31.2746667,72.5317247 C34.4666667,73.3557247 39.0293333,73.6197247 41.72,73.6197247 L41.72,73.6197247 Z M12.2053333,31.969058 C13.061496,31.7283819 13.9558747,31.654152 14.84,31.7503914 C15.512,31.825058 16.1546667,31.9903914 16.7546667,32.2357247 C17.2613333,31.9903914 17.9013333,31.825058 18.5733333,31.7503914 C19.4757511,31.653912 20.3883019,31.7317685 21.2613333,31.9797247 C22.712,32.393058 24.008,33.4543914 24.8906667,34.7637247 C25.7733333,36.073058 26.2586667,37.705058 26.112,39.2517247 C26.008,40.4437247 26.0373333,43.385058 26.4933333,46.1237247 C26.7733333,47.801058 27.184,49.3317247 27.8186667,50.1557247 L28.4373333,50.993058 L27.864,51.8463914 C26.848,53.377058 25.392,54.025058 23.8906667,54.289058 C24.096,54.377058 24.344,54.4623914 24.6026667,54.529058 C25.0106667,54.6543914 25.4213333,54.7743914 25.9066667,54.9503914 L26.04,54.9957247 C26.952,55.3343914 28.0693333,55.745058 28.88,56.5263914 C29.6773333,57.313058 30.312,58.265058 30.7306667,59.3263914 C30.808,59.513058 30.8533333,59.6463914 30.912,59.793058 C30.768,59.833058 30.6506667,59.873058 30.536,59.9183914 L30.3973333,59.969058 L30.192,60.057058 C29.474151,60.3042314 28.7753892,60.6037007 28.1013333,60.953058 C28.132058,60.7834263 28.1067874,60.6084037 28.0293333,60.4543914 C27.7624458,59.7704847 27.3565575,59.1493939 26.8373333,58.6303914 C26.4853333,58.2917247 25.6906667,57.9983914 25.0426667,57.761058 L24.896,57.7023914 C24.4986667,57.5557247 24.1466667,57.4517247 23.808,57.3503914 C22.8851991,57.1129219 22.0033437,56.738066 21.192,56.2383914 L21.232,56.2623914 C20.7003803,55.9754924 20.2401253,55.5726554 19.8853333,55.0837247 L19.8773333,55.073058 C19.5093333,54.5583914 19.3173333,53.969058 19.2293333,53.1903914 L19.0533333,51.5583914 L20.6853333,51.5583914 C22.04,51.5583914 23.7466667,51.5583914 24.8186667,50.8223914 C24.2453333,49.6463914 23.848,48.1583914 23.5973333,46.6143914 C23.096,43.6277247 23.0666667,40.3317247 23.2,38.993058 C23.2746667,38.1397247 22.9786667,37.1983914 22.4506667,36.4037247 C21.936,35.6383914 21.216,35.0357247 20.4213333,34.801058 C19.9274748,34.6669269 19.4136826,34.6217782 18.904,34.6677247 C18.3610223,34.7340628 17.8344106,34.8975563 17.3493333,35.1503914 L16.712,35.4623914 L16.0506667,35.1397247 C15.5749074,34.8943489 15.059343,34.7354358 14.528,34.6703914 C14.005814,34.6227262 13.479312,34.6687838 12.9733333,34.8063914 C12.2106667,35.0357247 11.488,35.6383914 10.9733333,36.4037247 C10.4426667,37.1983914 10.1493333,38.1397247 10.224,38.993058 C10.3573333,40.3317247 10.328,43.6277247 9.82666667,46.6143914 C9.576,48.1583914 9.17866667,49.6463914 8.60533333,50.8223914 C9.68,51.5583914 11.3866667,51.5583914 12.7386667,51.5583914 L14.3866667,51.5583914 L14.1946667,53.2063914 C14.1379525,53.8857744 13.9064534,54.5389328 13.5226667,55.1023914 L13.5306667,55.089058 C13.1682459,55.5801963 12.7044227,55.9876332 12.1706667,56.2837247 L12.1493333,56.2943914 C11.1626667,56.897058 10.4586667,57.1023914 9.61866667,57.353058 C9.28,57.457058 8.928,57.5583914 8.53066667,57.705058 L8.384,57.7637247 C7.736,57.9983914 6.94133333,58.2943914 6.58933333,58.633058 C6.08266667,59.1397247 5.68,59.745058 5.41066667,60.4223914 C5.09951412,61.1795586 4.94005361,61.9904516 4.94133333,62.809058 L4.94133333,62.8303914 C4.94133333,63.1077247 5.95733333,63.4623914 7.35466667,63.8303914 C10.208,64.5663914 14.2853333,64.801058 16.712,64.801058 C18.7866667,64.801058 22.0666667,64.625058 24.76,64.1237247 C24.294033,64.8188185 23.9000037,65.5595222 23.584,66.3343914 C23.4346667,66.729058 23.3173333,67.0223914 23.2293333,67.3317247 C21.2853333,67.5823914 19.024,67.7317247 16.728,67.7423914 C14.152,67.7423914 9.76533333,67.4783914 6.61866667,66.6677247 C3.94133333,65.961058 2,64.769058 2,62.8277247 C2.00266667,61.585058 2.25066667,60.4037247 2.69866667,59.3237247 C3.112,58.2703914 3.74666667,57.3183914 4.544,56.5317247 C5.35466667,55.7503914 6.472,55.3397247 7.384,55.001058 L7.51733333,54.9557247 C8.00266667,54.7797247 8.416,54.6623914 8.78133333,54.545058 C9.04966846,54.476447 9.31259875,54.3882094 9.568,54.281058 C8.02933333,54.0303914 6.57333333,53.3823914 5.56,51.8517247 L4.98666667,50.9983914 L5.60533333,50.161058 C6.23733333,49.337058 6.65066667,47.8063914 6.93066667,46.129058 C7.38666667,43.393058 7.416,40.449058 7.312,39.257058 C7.16533333,37.713058 7.65066667,36.0943914 8.53333333,34.769058 C9.416,33.4437247 10.712,32.401058 12.2106667,31.9743914 L12.2053333,31.969058 Z M56.344,20.921058 C57.1986871,20.6723059 58.0946654,20.5979433 58.9786667,20.7023914 C59.648,20.769058 60.2906667,20.9343914 60.888,21.1877247 C61.4,20.937058 62.0426667,20.769058 62.7146667,20.7023914 C63.6143756,20.6008438 64.5252913,20.6787928 65.3946667,20.9317247 C66.848,21.345058 68.1413333,22.4063914 69.024,23.7157247 C69.9066667,25.025058 70.392,26.657058 70.2453333,28.2037247 C70.1816848,29.0769593 70.1718884,29.9532855 70.216,30.8277247 C69.4669855,30.4738655 68.6603013,30.2579668 67.8346667,30.1903914 C67.624,30.1583914 67.448,30.1583914 67.272,30.1423914 C67.256,29.2143914 67.288,28.4357247 67.3306667,27.9343914 C67.4053333,27.081058 67.1093333,26.1397247 66.5813333,25.345058 C66.0666667,24.5797247 65.3466667,23.977058 64.552,23.7423914 C64.0581414,23.6082603 63.5443493,23.5631116 63.0346667,23.609058 C62.491689,23.6753961 61.9650772,23.8388897 61.48,24.0917247 L60.8426667,24.4037247 L60.1813333,24.081058 C59.7055741,23.8356822 59.1900097,23.6767692 58.6586667,23.6117247 C58.1364806,23.5640595 57.6099786,23.6101171 57.104,23.7477247 C56.3413333,23.977058 55.6186667,24.5797247 55.104,25.345058 C54.5733333,26.1397247 54.28,27.0677247 54.3546667,27.9343914 C54.4426667,28.8463914 54.4586667,30.641058 54.3093333,32.6277247 C52.9480031,33.9488236 52.0183654,35.6509902 51.6426667,37.5103914 L51.456,37.393058 C51.2295167,37.1616651 50.989066,36.944369 50.736,36.7423914 C50.8533333,36.2143914 50.9706667,35.641058 51.0586667,35.0677247 C51.5146667,32.3317247 51.544,29.3743914 51.44,28.1957247 C51.2933333,26.6517247 51.7786667,25.033058 52.6613333,23.7077247 C53.544,22.3823914 54.84,21.3397247 56.3386667,20.913058 L56.344,20.921058 Z M57.5653333,43.6517247 L57.568,43.7477247 C57.5677066,43.908407 57.5406705,44.0679199 57.488,44.2197247 C57.4027012,44.5731376 57.4306877,44.9444249 57.568,45.281058 C57.648,45.5317247 57.8266667,45.745058 58.0586667,45.8703914 C58.4362632,46.0574794 58.7157813,46.3971715 58.8266667,46.8037247 L58.8293333,46.8143914 C59.112,47.769058 59.44,48.5903914 59.84,49.369058 C60.1386667,49.9477247 60.5066667,50.521058 60.8453333,50.8597247 C61.1272215,51.1346245 61.2867407,51.5113205 61.288,51.905058 L61.288,52.0517247 C61.288,52.9023914 61.1866667,53.729058 60.992,54.521058 L61.008,54.4623914 C61.0081322,54.4838845 61.0026146,54.5050351 60.992,54.5237247 C60.712,55.5957247 60.184,56.5983914 59.2266667,57.1557247 L59.2106667,57.1557247 C58.24,57.7583914 57.5333333,57.9797247 56.696,58.2303914 C56.3295896,58.3308818 55.9667121,58.4438363 55.608,58.569058 L55.4613333,58.6277247 C55.4453333,58.6437247 55.416,58.6437247 55.4026667,58.657058 C54.7706667,58.8783914 54.0053333,59.1717247 53.6666667,59.4943914 C53.496,59.6543914 53.3413333,59.8277247 53.2026667,60.0143914 L53.048,59.9797247 L53.048,59.9637247 L52.8853333,59.905058 C52.400427,59.7302957 51.909449,59.5728625 51.4133333,59.433058 C51.8693333,58.6517247 52.256,57.7477247 52.5253333,56.7957247 C53.0613333,56.4223914 53.6666667,56.145058 54.2986667,55.9157247 C54.416,55.889058 54.4293333,55.873058 54.4586667,55.873058 L54.592,55.8143914 C55.0773333,55.6383914 55.4906667,55.521058 55.856,55.4037247 C56.5413333,55.225058 57.144,54.9663914 57.696,54.6357247 C57.6986667,54.6383914 57.728,54.617058 57.752,54.593058 C57.928,54.505058 58.0453333,54.1823914 58.1493333,53.7983914 L58.1653333,53.753058 C58.2586667,53.3637247 58.3146667,52.913058 58.328,52.4517247 C57.9046983,51.8961107 57.5308279,51.304521 57.2106667,50.6837247 C56.8095412,49.9012702 56.4715769,49.0880157 56.2,48.2517247 C55.7787526,47.874961 55.4141029,47.4393572 55.1173333,46.9583914 L55.1173333,46.385058 C55.1173333,45.3637247 55.0106667,44.3663914 54.8106667,43.4037247 C54.7386667,43.145058 54.6506667,42.793058 54.5466667,42.4543914 L54.3706667,39.761058 L54.3706667,39.6677247 C54.3706667,39.2223914 54.4026667,38.785058 54.464,38.3583914 C54.7690813,36.6040314 55.753007,35.0404805 57.2026667,34.0063914 C58.6330113,32.9969216 60.3373741,32.4480274 62.088,32.433058 C62.6378206,32.4152814 63.1880519,32.4519039 63.7306667,32.5423914 C64.2426667,32.6197247 64.7493333,32.769058 65.2213333,32.977058 C65.3893333,33.0517247 65.5653333,33.153058 65.7573333,33.257058 C66.3406519,33.0841803 66.9526675,33.0297789 67.5573333,33.097058 C68.696,33.2223914 69.7333333,33.6677247 70.5813333,34.3397247 C71.424,34.985058 72.1146667,35.8117247 72.5946667,36.761058 C73.0590892,37.658119 73.2693398,38.665109 73.2026667,39.673058 L73.2026667,39.7157247 L72.952,43.601058 C73.1515081,44.5142807 73.0810926,45.4658168 72.7493333,46.3397247 C72.4814584,47.0479227 72.0193348,47.6662441 71.416,48.1237247 C71.0933333,49.1023914 70.7493333,49.9263914 70.3466667,50.713058 C70.0308874,51.3319136 69.655796,51.9186637 69.2266667,52.465058 C69.272,52.9317247 69.3306667,53.385058 69.416,53.8303914 C69.4933333,54.1477247 69.6106667,54.473058 69.7893333,54.5743914 C70.3697792,54.9436397 71.0052788,55.2181827 71.672,55.3877247 C72.0853333,55.5157247 72.4986667,55.633058 72.984,55.809058 L73.1173333,55.8677247 C74.0293333,56.1903914 75.1626667,56.6037247 75.9573333,57.3823914 C76.752,58.1717247 77.3866667,59.1237247 77.8053333,60.1797247 C78.2506667,61.2543914 78.4986667,62.4357247 78.5013333,63.6757247 C78.5013333,65.633058 76.56,66.825058 73.8826667,67.5157247 C70.7333333,68.3397247 66.3493333,68.5903914 63.7893333,68.5903914 C62.8906667,68.5903914 61.76,68.561058 60.5386667,68.4863914 C60.3734911,67.7415192 60.1460244,67.0118417 59.8586667,66.305058 C59.76,66.0863914 59.6266667,65.7637247 59.464,65.4543914 C61.0826667,65.601058 62.6266667,65.6463914 63.7893333,65.6463914 C66.216,65.6463914 70.2933333,65.4117247 73.1466667,64.6757247 C74.544,64.3077247 75.56,63.9557247 75.56,63.6757247 L75.56,63.6677247 C75.56,62.817058 75.392,62.0063914 75.088,61.265058 C74.8174178,60.5994797 74.4177329,59.9940613 73.912,59.4837247 C73.56,59.145058 72.7653333,58.8517247 72.1173333,58.617058 L71.9706667,58.5583914 C71.6119545,58.4331696 71.249077,58.3202151 70.8826667,58.2197247 C70.0453333,57.9557247 69.3226667,57.7477247 68.3066667,57.1157247 L68.2773333,57.0863914 C67.3066667,56.497058 66.8053333,55.497058 66.5546667,54.4223914 C66.3493333,53.553058 66.32,52.6277247 66.2906667,51.921058 L66.2906667,51.9157247 C66.2906667,51.4997247 66.4586667,51.121058 66.7333333,50.849058 C67.0853333,50.5103914 67.44,49.921058 67.7786667,49.2757247 C68.1466667,48.5743914 68.4773333,47.7557247 68.7253333,46.8997247 C68.8254568,46.4428451 69.1289752,46.0568168 69.5493333,45.8517247 C69.7708873,45.717764 69.9394732,45.5115052 70.0266667,45.2677247 C70.1620765,44.9025664 70.1779514,44.5038255 70.072,44.129058 C70.0169695,43.9717267 69.9978355,43.8040765 70.016,43.6383914 L70.016,43.6437247 L70.28,39.5397247 L70.28,39.521058 C70.279849,39.4866396 70.2852517,39.4524222 70.296,39.4197247 L70.296,39.4117247 C70.296,38.9343914 70.1813333,38.481058 69.9786667,38.0837247 C69.6977353,37.5295868 69.2969225,37.0449677 68.8053333,36.665058 C68.3684944,36.3199253 67.8491707,36.0947318 67.2986667,36.0117247 C66.934532,35.9766844 66.5678512,36.0441093 66.24,36.2063914 C65.7817481,36.4236497 65.2435416,36.3872981 64.8186667,36.1103914 L64.824,36.113058 C64.5782348,35.9462176 64.3196496,35.7990916 64.0506667,35.673058 C63.7907461,35.5577003 63.5161601,35.4787344 63.2346667,35.4383914 C62.8720133,35.3755648 62.5038191,35.3505419 62.136,35.3637247 C60.9493333,35.369058 59.8426667,35.7477247 58.9333333,36.3903914 C57.910583,37.1104795 57.3026433,38.2835743 57.304,39.5343914 L57.304,39.5743914 L57.5653333,43.6517247 Z M29.9626667,39.457058 C29.5386938,38.9972784 29.2169608,38.4528771 29.0186667,37.8597247 C28.9776425,37.3534669 28.8955954,36.851374 28.7733333,36.3583914 C28.784,36.3717247 28.784,36.3103914 28.784,36.249058 C28.784,35.945058 28.8186667,35.6517247 28.88,35.369058 C28.7435907,34.8772632 28.6420058,34.3764674 28.576,33.8703914 C28.3013333,31.969058 28.3306667,30.0703914 28.936,28.4677247 C29.6133333,26.6863914 30.9226667,25.305058 33.2026667,24.745058 C33.2986667,24.7183914 33.4186667,24.6917247 33.5386667,24.673058 C34.9386667,23.5663914 37.1146667,23.097058 39.3066667,23.2437247 C41.632,23.3903914 44.0586667,24.2143914 45.5306667,25.6863914 C46.7146667,26.8437247 47.568,28.337058 47.9333333,30.0143914 C48.264,31.5095025 48.2382222,33.1912803 47.856,35.0597247 C46.9758994,34.6994569 46.0632776,34.4244202 45.1306667,34.2383914 C45.28,32.8677247 45.296,31.705058 45.0746667,30.6917247 C44.8279959,29.5781701 44.2606531,28.5612174 43.4426667,27.7663914 L43.44,27.7637247 C42.4986667,26.8223914 40.8053333,26.2783914 39.128,26.1743914 C37.496,26.0703914 35.9653333,26.3663914 35.2586667,27.0863914 C35.0143514,27.3284299 34.694225,27.4790776 34.352,27.513058 C34.1949272,27.5247761 34.039942,27.5561315 33.8906667,27.6063914 C32.712,27.897058 32.0213333,28.6037247 31.6826667,29.4997247 C31.272,30.5877247 31.272,31.985058 31.4773333,33.385058 C31.5653333,34.0357247 31.6773333,34.5983914 31.824,35.1477247 C31.8637534,35.3878402 31.8445349,35.6340208 31.768,35.865058 C31.6716147,36.2459199 31.6948924,36.6472279 31.8346667,37.0143914 C31.8746667,37.1077247 31.9253333,37.201058 31.9813333,37.2863914 C31.192333,37.8741619 30.5149738,38.5984847 29.9813333,39.425058 L29.9626667,39.457058 Z M36.2026667,3.24905803 C36.9829687,3.012414 37.8044736,2.94334943 38.6133333,3.04639137 C39.2,3.11039137 39.7626667,3.2517247 40.2933333,3.45705803 C40.7971889,3.23715743 41.3327281,3.09854728 41.88,3.04639137 C42.7046183,2.94735911 43.5408076,3.01999227 44.336,3.2597247 C45.6613333,3.63039137 46.84,4.5877247 47.648,5.79305803 C48.008,6.32105803 48.3093333,6.9317247 48.5173333,7.58239137 C47.48,7.83039137 46.544,8.15305803 45.6746667,8.5877247 C45.6204509,8.16443863 45.4619253,7.76125227 45.2133333,7.41439137 C44.7813333,6.7797247 44.1626667,6.26505803 43.5013333,6.07305803 C43.0820188,5.94987529 42.6426369,5.91001384 42.208,5.9557247 C41.7478095,6.00513372 41.3014505,6.14275353 40.8933333,6.36105803 L40.2506667,6.6757247 L39.5893333,6.35305803 C39.0841481,6.08746779 38.5227295,5.94665597 37.952,5.94239137 C37.6217222,5.94188458 37.2930667,5.9885788 36.976,6.08105803 C36.3386667,6.26505803 35.72,6.78239137 35.28,7.4277247 C34.8820965,7.99715093 34.6621431,8.67186028 34.648,9.36639137 C34.13708,9.21274585 33.6130858,9.10651876 33.0826667,9.04905803 C32.6196835,9.00647033 32.1538096,9.00557786 31.6906667,9.04639137 C31.816,7.8197247 32.224,6.71039137 32.8666667,5.76905803 C33.6613333,4.58505803 34.8373333,3.63039137 36.2053333,3.24639137 L36.2026667,3.24905803 Z M7.99733333,30.9983914 C7.91516305,30.2339939 8.01475723,29.4609968 8.288,28.7423914 C8.21797295,28.3660744 8.18492669,27.9838096 8.18933333,27.601058 L8.18933333,27.569058 L8.20533333,27.5717247 C8.21333333,25.433058 8.83733333,23.4383914 9.90933333,21.761058 C11.1601808,19.7509062 13.1926187,18.3534238 15.5173333,17.905058 C16.8257373,17.6445321 18.1730176,17.6481587 19.48,17.9157247 C22.0186667,18.4197247 23.8586667,19.9343914 25.0506667,21.8037247 C25.8853333,23.105058 26.4613333,24.6517247 26.664,26.313058 C26.512,26.6597247 26.352,27.0143914 26.2186667,27.3797247 C25.792,28.5103914 25.5386667,29.7503914 25.4933333,31.041058 C25.0284833,30.6514849 24.5316121,30.3018017 24.008,29.9957247 C23.928,29.8357247 23.8826667,29.7183914 23.8266667,29.609058 L23.832,29.6037247 C23.6839679,29.3096963 23.6379969,28.9747645 23.7013333,28.6517247 L23.6986667,28.6623914 C23.7689903,28.3301304 23.8038522,27.9913441 23.8026667,27.6517247 L23.8026667,27.569058 C23.7946667,26.0223914 23.3386667,24.5797247 22.5626667,23.3637247 C21.7866667,22.1477247 20.5653333,21.129058 18.8453333,20.7903914 C17.9215335,20.6080578 16.9707419,20.6107769 16.048,20.7983914 C14.3733333,21.129058 13.152,22.145058 12.3573333,23.3957247 C11.5650509,24.6449189 11.1416901,26.0924799 11.136,27.5717247 L11.136,27.6517247 C11.136,28.009058 11.1733333,28.3583914 11.2453333,28.6943914 C11.2689077,28.8614082 11.271595,29.0307105 11.2533333,29.1983914 C10.0509814,29.5658713 8.93967515,30.1828598 7.992,31.009058 L7.99733333,30.9983914 Z M56.256,17.9183914 C56.2411416,17.6086556 56.1992038,17.3008144 56.1306667,16.9983914 C55.9337747,16.0960973 55.4701524,15.2738414 54.8,14.6383914 L54.7973333,14.6357247 C54.0186667,13.857058 52.6186667,13.401058 51.2213333,13.3263914 C49.8826667,13.2383914 48.632,13.473058 48.0586667,14.0463914 C47.8126354,14.2844203 47.494809,14.4344269 47.1546667,14.473058 C47.0271558,14.4859031 46.9006497,14.5072844 46.776,14.537058 C45.9726231,14.7073937 45.3130218,15.2783768 45.0293333,16.049058 C44.6906667,16.9477247 44.6906667,18.1077247 44.8666667,19.2863914 C44.9413333,19.833058 45.0373333,20.313058 45.1653333,20.7797247 C45.202209,21.0222777 45.1849058,21.2699873 45.1146667,21.505058 C45.087442,21.6022552 45.0739776,21.7027891 45.0746667,21.8037247 C44.1703304,21.3352294 43.2133514,20.9762504 42.224,20.7343914 L41.9573333,19.6997247 C41.736,18.097058 41.752,16.433058 42.296,15.0223914 C42.8853333,13.433058 44.0613333,12.1983914 46.1066667,11.697058 C46.1856588,11.6703556 46.2668669,11.6507228 46.3493333,11.6383914 C47.5946667,10.681058 49.5066667,10.2703914 51.4053333,10.3877247 C53.4506667,10.521058 55.584,11.257058 56.8933333,12.5503914 C57.9306667,13.577058 58.6826667,14.8943914 59.016,16.3663914 C59.1093333,16.8063914 59.1706667,17.2703914 59.2,17.7423914 C58.8986667,17.737058 58.5493333,17.7183914 58.1946667,17.7183914 C57.5093333,17.7183914 56.84,17.7903914 56.1973333,17.9317247 L56.256,17.9183914 Z M20.9146667,15.241058 C21.4026667,14.265058 22.1013333,13.4597247 22.9546667,12.857058 C24.312527,11.8864943 25.9363378,11.3576385 27.6053333,11.3423914 L27.784,11.3397247 C28.2586667,11.3397247 28.7226667,11.377058 29.176,11.4517247 C29.8602479,11.5537575 30.5189727,11.7844922 31.1173333,12.1317247 C31.6588712,11.965051 32.2288945,11.9114979 32.792,11.9743914 C33.88,12.089058 34.872,12.513058 35.6826667,13.1583914 C36.4853333,13.777058 37.1413333,14.569058 37.5946667,15.4783914 C38.0435494,16.3364018 38.2474496,17.3014682 38.184,18.2677247 L38.184,18.3103914 L38.0506667,20.281058 C37.0128491,20.3236447 35.9827655,20.4792303 34.9786667,20.745058 L35.2533333,18.1343914 L35.2533333,18.1157247 C35.2531823,18.0813063 35.2585851,18.0470889 35.2693333,18.0143914 L35.2693333,17.9797247 C35.2698785,17.5660194 35.1662485,17.1588362 34.968,16.7957247 C34.7174494,16.2832769 34.3503016,15.8366717 33.896,15.4917247 C33.5018063,15.1649884 33.0244248,14.9544604 32.5173333,14.8837247 C32.1855238,14.846174 31.8498687,14.9035035 31.5493333,15.049058 C31.0938227,15.2710877 30.5557186,15.2408004 30.128,14.969058 L30.1333333,14.9717247 C29.9056973,14.814927 29.6658119,14.6767031 29.416,14.5583914 C29.1759233,14.450528 28.9218862,14.3769201 28.6613333,14.3397247 C28.3500647,14.28964 28.0352721,14.2646706 27.72,14.265058 L27.6426667,14.265058 C26.5785425,14.2720924 25.5420002,14.6042698 24.672,15.217058 C24.2490145,15.5258884 23.8925891,15.9167773 23.624,16.3663914 C22.7926166,15.8913981 21.9071552,15.5180539 20.9866667,15.2543914 L20.9146667,15.241058 Z M54.592,8.00105803 C55.6227049,7.0448276 56.9000402,6.39553858 58.28,6.12639137 C59.4905851,5.87793282 60.7391107,5.87884018 61.9493333,6.12905803 C64.2586667,6.59039137 65.952,7.9717247 67.04,9.67839137 C67.992,11.169058 68.56,12.9823914 68.5706667,14.929058 L68.5706667,15.0063914 C68.5706667,15.353058 68.5493333,15.6943914 68.5066667,16.0303914 C68.68,16.457058 68.7786667,16.9957247 68.7786667,17.5583914 C68.7786667,18.137058 68.6746667,18.689058 68.4853333,19.201058 C67.7977265,18.7088804 67.0298759,18.3398429 66.216,18.1103914 C66.0373333,18.065058 65.9066667,18.0223914 65.7893333,17.993058 L65.8053333,17.9637247 C65.8911523,17.5777473 65.8422157,17.1740211 65.6666667,16.8197247 C65.6268435,16.7416658 65.5989768,16.6580657 65.584,16.5717247 C65.5118695,16.3484046 65.5017311,16.1096898 65.5546667,15.881058 L65.5386667,15.8757247 C65.5980119,15.5780709 65.6274914,15.2752357 65.6266667,14.9717247 L65.6266667,14.9317247 C65.6257216,13.6240997 65.2520053,12.3438437 64.5493333,11.241058 C63.8340654,10.0883643 62.6756957,9.28107425 61.3466667,9.00905803 C60.527286,8.84364911 59.6830234,8.84455594 58.864,9.0117247 C58.4373333,9.10239137 58.024,9.24639137 57.6346667,9.43039137 C56.7318883,8.80024594 55.730707,8.324437 54.672,8.02239137 L54.592,8.00105803 Z M12.7653333,15.6677247 C12.776,15.4037247 12.8026667,15.1557247 12.8426667,14.913058 C12.7387072,14.4768757 12.6532971,14.0364799 12.5866667,13.593058 C12.3653333,11.9903914 12.3813333,10.3263914 12.9253333,8.9157247 C13.5146667,7.31305803 14.6906667,6.0757247 16.736,5.57705803 C16.8252055,5.56220182 16.9133816,5.54171645 17,5.5157247 C18.2213333,4.57705803 20.1333333,4.16639137 22.032,4.2837247 C24.0773333,4.41705803 26.2106667,5.15305803 27.52,6.44639137 C28.0293333,6.9557247 28.472,7.5317247 28.8373333,8.15839137 C28.8426667,8.2757247 28.832,8.36905803 28.8293333,8.4597247 C28.5138896,8.42787345 28.1970477,8.41185336 27.88,8.4117247 L27.5466667,8.41705803 C26.8426667,8.41705803 26.1413333,8.49439137 25.464,8.63305803 L25.4293333,8.51839137 C24.6506667,7.75305803 23.2506667,7.29705803 21.8533333,7.20905803 C20.5146667,7.13439137 19.264,7.3557247 18.6906667,7.92905803 C18.4521929,8.17932266 18.1288402,8.33148866 17.784,8.3557247 C17.6613333,8.38505803 17.544,8.40105803 17.4266667,8.43039137 C16.6165237,8.59733264 15.9494436,9.16969135 15.6613333,9.94505803 C15.3226667,10.8437247 15.3226667,12.0037247 15.4986667,13.1823914 C15.5733333,13.7237247 15.6693333,14.1983914 15.7973333,14.6597247 C15.7946667,14.6677247 15.8053333,14.769058 15.808,14.873058 C15.5146667,14.921058 15.2186667,14.9637247 14.9413333,15.0223914 C14.1146667,15.1797247 13.384,15.4037247 12.6906667,15.697058 L12.7653333,15.6677247 Z M52.9013333,75.3717247 C49.4,76.2837247 44.56,76.5637247 41.72,76.5637247 C38.88,76.5637247 34.04,76.2837247 30.5386667,75.3717247 C27.64,74.6223914 25.536,73.3423914 25.536,71.2677247 C25.5420541,69.9526902 25.8000392,68.650997 26.296,67.433058 C26.7546667,66.2863914 27.448,65.2463914 28.3146667,64.3823914 C29.1546667,63.5717247 30.36,63.1157247 31.3306667,62.7637247 C31.3515233,62.7475305 31.3764312,62.7373828 31.4026667,62.7343914 L31.5653333,62.6757247 C32.096,62.4837247 32.536,62.337058 32.9493333,62.2197247 C33.7067489,62.0256094 34.4304772,61.7181373 35.096,61.3077247 C35.3013333,61.1903914 35.2293333,60.161058 35.1546667,59.2783914 L35.1093333,58.7477247 C34.1386667,57.5423914 33.7413333,56.041058 33.3573333,54.6143914 C32.6987173,54.1106277 32.1928333,53.4339617 31.896,52.6597247 C31.5604789,51.7454867 31.4820807,50.7567473 31.6693333,49.801058 C31.531425,49.239831 31.4219522,48.6719965 31.3413333,48.0997247 C31.0613333,46.1583914 31.0906667,44.1423914 31.7386667,42.4357247 C32.4453333,40.553058 33.8266667,39.097058 36.24,38.4917247 L36.6373333,38.4037247 C38.1093333,37.2277247 40.4613333,36.7263914 42.816,36.889058 C45.272,37.0517247 47.8186667,37.9343914 49.3786667,39.4783914 C50.6293333,40.7157247 51.5333333,42.3023914 51.928,44.081058 C52.3066667,45.7903914 52.248,47.673058 51.7626667,49.8357247 C51.9513884,50.7819773 51.871013,51.7621881 51.5306667,52.665058 C51.2426667,53.4383914 50.7333333,54.113058 50.0826667,54.609058 L50.072,54.617058 C49.704,56.0303914 49.3226667,57.5157247 48.32,58.7503914 L48.2746667,59.441058 C48.2,60.249058 48.128,61.1637247 48.304,61.3103914 C48.3333333,61.313058 48.3573333,61.3237247 48.3786667,61.3397247 C49.144,61.825058 49.76,62.001058 50.4826667,62.2223914 C50.8933333,62.3397247 51.336,62.4863914 51.8666667,62.6783914 L52.0293333,62.737058 C53.016,63.105058 54.2506667,63.545058 55.12,64.385058 C55.9893333,65.249058 56.6826667,66.2863914 57.144,67.4437247 C57.624,68.6197247 57.8933333,69.913058 57.9013333,71.2677247 C57.9013333,73.345058 55.7973333,74.625058 52.8986667,75.377058 L52.9013333,75.3717247 Z" id="Shape"></path>
        </g>
    </g>
</svg>