<?xml version="1.0" encoding="iso-8859-1"?>
<!-- Generator: Adobe Illustrator 24.2.3, SVG Export Plug-In . SVG Version: 6.00 Build 0)  -->
<svg version="1.1" id="Layer_2" xmlns="http://www.w3.org/2000/svg" xmlns:xlink="http://www.w3.org/1999/xlink" x="0px" y="0px"
	 width="15.474px" height="15.474px" viewBox="0 0 15.474 15.474" enable-background="new 0 0 15.474 15.474" xml:space="preserve">
<path fill="#515151" d="M15.474,14.174L11.202,9.8c0.737-1.019,1.178-2.264,1.178-3.61C12.379,2.785,9.594,0,6.19,0S0,2.785,0,6.19
	c0,3.404,2.785,6.19,6.19,6.19c1.398,0,2.687-0.475,3.727-1.265l4.258,4.359L15.474,14.174z M1.857,6.19
	c0-2.414,1.919-4.333,4.333-4.333s4.333,1.919,4.333,4.333s-1.919,4.333-4.333,4.333S1.857,8.604,1.857,6.19z"/>