{
    "lang": "en",
    "permalinkClass": [
        "permalink"
    ],
    "iframeClass": [
        "iframes-wrapper"
    ],
    "codeClass": [
        "code-wrapper"
    ],
    "figureClass": [
        "figure"
    ],
    "paths": {
        "src": "src",
        "blogdir": "src",
        "output": "dist"
    }
}